{
	"credit": "Made with Blockbench",
	"ambientocclusion": false,
	"texture_size": [64, 64],
	"textures": {
		"0": "block/twisted_books/death_book_texture",
		"particle": "block/twisted_books/death_book_texture"
	},
	"elements": [
		{
			"name": "Paper",
			"from": [2.5, 0.5, 6.5],
			"to": [13.5, 15.5, 9.5],
			"faces": {
				"west": {"uv": [3.0005, 7.0005, 3.7495, 10.7495], "texture": "#0"},
				"up": {"uv": [5.7495, 0.7495, 3.0005, 0.0005], "texture": "#0"},
				"down": {"uv": [5.7495, 0.7505, 3.0005, 1.4995], "texture": "#0"}
			}
		},
		{
			"name": "Outside",
			"from": [13.5, 0, 6.5],
			"to": [14, 16, 9.5],
			"faces": {
				"east": {"uv": [6.0005, 0.0005, 6.7495, 3.9995], "texture": "#0"},
				"west": {"uv": [6.7505, 0.0005, 7.4995, 3.9995], "texture": "#0"},
				"up": {"uv": [0.2495, 8.7495, 0.0005, 8.0005], "texture": "#0"},
				"down": {"uv": [0.4995, 8.0005, 0.2505, 8.7495], "texture": "#0"}
			}
		},
		{
			"name": "Outside",
			"from": [2, 0, 6],
			"to": [14, 16, 6.5],
			"faces": {
				"north": {"uv": [0.0005, 0.0005, 2.9995, 3.9995], "texture": "#0"},
				"east": {"uv": [3.7505, 7.0005, 3.9995, 10.9995], "texture": "#0"},
				"south": {"uv": [3.0005, 3.0005, 5.9995, 6.9995], "texture": "#0"},
				"west": {"uv": [4.0005, 7.0005, 4.2495, 10.9995], "texture": "#0"},
				"up": {"uv": [5.9995, 1.7495, 3.0005, 1.5005], "texture": "#0"},
				"down": {"uv": [5.9995, 1.7505, 3.0005, 1.9995], "texture": "#0"}
			}
		},
		{
			"name": "Outside",
			"from": [2, 0, 9.5],
			"to": [14, 16, 10],
			"faces": {
				"north": {"uv": [0.0005, 4.0005, 2.9995, 7.9995], "texture": "#0"},
				"east": {"uv": [4.2505, 7.0005, 4.4995, 10.9995], "texture": "#0"},
				"south": {"uv": [6.0005, 6.0005, 8.9995, 9.9995], "texture": "#0"},
				"west": {"uv": [4.5005, 7.0005, 4.7495, 10.9995], "texture": "#0"},
				"up": {"uv": [5.9995, 2.2495, 3.0005, 2.0005], "texture": "#0"},
				"down": {"uv": [5.9995, 2.2505, 3.0005, 2.4995], "texture": "#0"}
			}
		},
		{
			"from": [12, 7, 5.5],
			"to": [13, 11, 6],
			"rotation": {"angle": 0, "axis": "y", "origin": [20, 15, 13]},
			"faces": {
				"north": {"uv": [5.7505, 0.0005, 5.9995, 0.9995], "texture": "#0"},
				"east": {"uv": [4.7505, 7.0005, 4.9995, 7.9995], "texture": "#0"},
				"south": {"uv": [5.0005, 7.0005, 5.2495, 7.9995], "texture": "#0"},
				"west": {"uv": [5.2505, 7.0005, 5.4995, 7.9995], "texture": "#0"},
				"up": {"uv": [5.9995, 1.2495, 5.7505, 1.0005], "texture": "#0"},
				"down": {"uv": [5.9995, 1.2505, 5.7505, 1.4995], "texture": "#0"}
			}
		},
		{
			"from": [4, 7, 5.5],
			"to": [12, 8, 6],
			"rotation": {"angle": 0, "axis": "y", "origin": [19, 15, 13]},
			"faces": {
				"north": {"uv": [3.0005, 2.5005, 4.9995, 2.7495], "texture": "#0"},
				"east": {"uv": [5.7505, 2.5005, 5.9995, 2.7495], "texture": "#0"},
				"south": {"uv": [3.0005, 2.7505, 4.9995, 2.9995], "texture": "#0"},
				"west": {"uv": [5.7505, 2.7505, 5.9995, 2.9995], "texture": "#0"},
				"up": {"uv": [7.9995, 4.2495, 6.0005, 4.0005], "texture": "#0"},
				"down": {"uv": [7.9995, 4.2505, 6.0005, 4.4995], "texture": "#0"}
			}
		},
		{
			"from": [4, 10, 5.5],
			"to": [12, 11, 6],
			"rotation": {"angle": 0, "axis": "y", "origin": [19, 18, 13]},
			"faces": {
				"north": {"uv": [6.0005, 4.5005, 7.9995, 4.7495], "texture": "#0"},
				"east": {"uv": [2.7505, 8.0005, 2.9995, 8.2495], "texture": "#0"},
				"south": {"uv": [6.0005, 4.7505, 7.9995, 4.9995], "texture": "#0"},
				"west": {"uv": [5.5005, 8.0005, 5.7495, 8.2495], "texture": "#0"},
				"up": {"uv": [7.9995, 5.2495, 6.0005, 5.0005], "texture": "#0"},
				"down": {"uv": [7.9995, 5.2505, 6.0005, 5.4995], "texture": "#0"}
			}
		},
		{
			"from": [4, 11, 5.5],
			"to": [12, 12, 6],
			"rotation": {"angle": 0, "axis": "y", "origin": [19, 19, 13]},
			"faces": {
				"north": {"uv": [6.0005, 5.5005, 7.9995, 5.7495], "texture": "#0"},
				"east": {"uv": [5.7505, 8.0005, 5.9995, 8.2495], "texture": "#0"},
				"south": {"uv": [6.0005, 5.7505, 7.9995, 5.9995], "texture": "#0"},
				"west": {"uv": [8.0005, 4.0005, 8.2495, 4.2495], "texture": "#0"},
				"up": {"uv": [9.4995, 0.2495, 7.5005, 0.0005], "texture": "#0"},
				"down": {"uv": [9.4995, 0.2505, 7.5005, 0.4995], "texture": "#0"}
			}
		},
		{
			"from": [5, 12, 5.5],
			"to": [11, 13, 6],
			"rotation": {"angle": 0, "axis": "y", "origin": [20, 20, 13]},
			"faces": {
				"north": {"uv": [7.5005, 0.5005, 8.9995, 0.7495], "texture": "#0"},
				"east": {"uv": [8.0005, 4.2505, 8.2495, 4.4995], "texture": "#0"},
				"south": {"uv": [7.5005, 0.7505, 8.9995, 0.9995], "texture": "#0"},
				"west": {"uv": [8.0005, 4.5005, 8.2495, 4.7495], "texture": "#0"},
				"up": {"uv": [8.9995, 1.2495, 7.5005, 1.0005], "texture": "#0"},
				"down": {"uv": [8.9995, 1.2505, 7.5005, 1.4995], "texture": "#0"}
			}
		},
		{
			"from": [9, 6, 5.5],
			"to": [12, 7, 6],
			"rotation": {"angle": 0, "axis": "y", "origin": [19, 14, 13]},
			"faces": {
				"north": {"uv": [5.0005, 2.5005, 5.7495, 2.7495], "texture": "#0"},
				"east": {"uv": [8.0005, 4.7505, 8.2495, 4.9995], "texture": "#0"},
				"south": {"uv": [5.0005, 2.7505, 5.7495, 2.9995], "texture": "#0"},
				"west": {"uv": [8.0005, 5.0005, 8.2495, 5.2495], "texture": "#0"},
				"up": {"uv": [8.2495, 3.7495, 7.5005, 3.5005], "texture": "#0"},
				"down": {"uv": [8.2495, 3.7505, 7.5005, 3.9995], "texture": "#0"}
			}
		},
		{
			"from": [4, 6, 5.5],
			"to": [7, 7, 6],
			"rotation": {"angle": 0, "axis": "y", "origin": [14, 14, 13]},
			"faces": {
				"north": {"uv": [0.5005, 8.0005, 1.2495, 8.2495], "texture": "#0"},
				"east": {"uv": [8.0005, 5.2505, 8.2495, 5.4995], "texture": "#0"},
				"south": {"uv": [1.2505, 8.0005, 1.9995, 8.2495], "texture": "#0"},
				"west": {"uv": [8.0005, 5.5005, 8.2495, 5.7495], "texture": "#0"},
				"up": {"uv": [2.7495, 8.2495, 2.0005, 8.0005], "texture": "#0"},
				"down": {"uv": [5.4995, 8.0005, 4.7505, 8.2495], "texture": "#0"}
			}
		},
		{
			"from": [5, 5, 5.5],
			"to": [11, 6, 6],
			"rotation": {"angle": 0, "axis": "y", "origin": [15, 13, 13]},
			"faces": {
				"north": {"uv": [7.5005, 1.5005, 8.9995, 1.7495], "texture": "#0"},
				"east": {"uv": [8.0005, 5.7505, 8.2495, 5.9995], "texture": "#0"},
				"south": {"uv": [7.5005, 1.7505, 8.9995, 1.9995], "texture": "#0"},
				"west": {"uv": [0.5005, 8.2505, 0.7495, 8.4995], "texture": "#0"},
				"up": {"uv": [8.9995, 2.2495, 7.5005, 2.0005], "texture": "#0"},
				"down": {"uv": [8.9995, 2.2505, 7.5005, 2.4995], "texture": "#0"}
			}
		},
		{
			"from": [10, 4, 5.5],
			"to": [11, 5, 6],
			"rotation": {"angle": 0, "axis": "y", "origin": [15, 12, 13]},
			"faces": {
				"north": {"uv": [0.7505, 8.2505, 0.9995, 8.4995], "texture": "#0"},
				"east": {"uv": [1.0005, 8.2505, 1.2495, 8.4995], "texture": "#0"},
				"south": {"uv": [1.2505, 8.2505, 1.4995, 8.4995], "texture": "#0"},
				"west": {"uv": [1.5005, 8.2505, 1.7495, 8.4995], "texture": "#0"},
				"up": {"uv": [1.9995, 8.4995, 1.7505, 8.2505], "texture": "#0"},
				"down": {"uv": [2.2495, 8.2505, 2.0005, 8.4995], "texture": "#0"}
			}
		},
		{
			"from": [7.5, 4, 5.5],
			"to": [8.5, 5, 6],
			"rotation": {"angle": 0, "axis": "y", "origin": [12, 12, 13]},
			"faces": {
				"north": {"uv": [2.2505, 8.2505, 2.4995, 8.4995], "texture": "#0"},
				"east": {"uv": [2.5005, 8.2505, 2.7495, 8.4995], "texture": "#0"},
				"south": {"uv": [2.7505, 8.2505, 2.9995, 8.4995], "texture": "#0"},
				"west": {"uv": [4.7505, 8.2505, 4.9995, 8.4995], "texture": "#0"},
				"up": {"uv": [5.2495, 8.4995, 5.0005, 8.2505], "texture": "#0"},
				"down": {"uv": [5.4995, 8.2505, 5.2505, 8.4995], "texture": "#0"}
			}
		},
		{
			"from": [7.5, 8, 5.5],
			"to": [8.5, 9, 6],
			"rotation": {"angle": 0, "axis": "y", "origin": [12, 16, 13]},
			"faces": {
				"north": {"uv": [5.5005, 8.2505, 5.7495, 8.4995], "texture": "#0"},
				"east": {"uv": [5.7505, 8.2505, 5.9995, 8.4995], "texture": "#0"},
				"south": {"uv": [8.2505, 3.5005, 8.4995, 3.7495], "texture": "#0"},
				"west": {"uv": [8.2505, 3.7505, 8.4995, 3.9995], "texture": "#0"},
				"up": {"uv": [8.4995, 4.2495, 8.2505, 4.0005], "texture": "#0"},
				"down": {"uv": [8.4995, 4.2505, 8.2505, 4.4995], "texture": "#0"}
			}
		},
		{
			"from": [6.5, 9, 5.5],
			"to": [9.5, 10, 6],
			"rotation": {"angle": 0, "axis": "y", "origin": [11, 17, 13]},
			"faces": {
				"north": {"uv": [8.0005, 2.5005, 8.7495, 2.7495], "texture": "#0"},
				"east": {"uv": [8.2505, 4.5005, 8.4995, 4.7495], "texture": "#0"},
				"south": {"uv": [8.0005, 2.7505, 8.7495, 2.9995], "texture": "#0"},
				"west": {"uv": [8.2505, 4.7505, 8.4995, 4.9995], "texture": "#0"},
				"up": {"uv": [8.7495, 3.2495, 8.0005, 3.0005], "texture": "#0"},
				"down": {"uv": [8.7495, 3.2505, 8.0005, 3.4995], "texture": "#0"}
			}
		},
		{
			"from": [5, 4, 5.5],
			"to": [6, 5, 6],
			"rotation": {"angle": 0, "axis": "y", "origin": [10, 12, 13]},
			"faces": {
				"north": {"uv": [8.2505, 5.0005, 8.4995, 5.2495], "texture": "#0"},
				"east": {"uv": [8.2505, 5.2505, 8.4995, 5.4995], "texture": "#0"},
				"south": {"uv": [8.2505, 5.5005, 8.4995, 5.7495], "texture": "#0"},
				"west": {"uv": [8.2505, 5.7505, 8.4995, 5.9995], "texture": "#0"},
				"up": {"uv": [0.7495, 8.7495, 0.5005, 8.5005], "texture": "#0"},
				"down": {"uv": [0.9995, 8.5005, 0.7505, 8.7495], "texture": "#0"}
			}
		},
		{
			"from": [3, 7, 5.5],
			"to": [4, 11, 6],
			"rotation": {"angle": 0, "axis": "y", "origin": [11, 15, 13]},
			"faces": {
				"north": {"uv": [5.5005, 7.0005, 5.7495, 7.9995], "texture": "#0"},
				"east": {"uv": [5.7505, 7.0005, 5.9995, 7.9995], "texture": "#0"},
				"south": {"uv": [7.5005, 2.5005, 7.7495, 3.4995], "texture": "#0"},
				"west": {"uv": [7.7505, 2.5005, 7.9995, 3.4995], "texture": "#0"},
				"up": {"uv": [1.2495, 8.7495, 1.0005, 8.5005], "texture": "#0"},
				"down": {"uv": [1.4995, 8.5005, 1.2505, 8.7495], "texture": "#0"}
			}
		}
	],
	"display": {
		"thirdperson_righthand": {
			"rotation": [0, 90, 0],
			"scale": [0.5, 0.5, 0.5]
		},
		"thirdperson_lefthand": {
			"rotation": [0, -90, 0],
			"scale": [0.5, 0.5, 0.5]
		},
		"firstperson_righthand": {
			"rotation": [3.25, 161.5, 0],
			"translation": [1.25, 2.5, 0],
			"scale": [0.5, 0.5, 0.5]
		},
		"firstperson_lefthand": {
			"rotation": [3.25, 161.5, 0],
			"translation": [1.25, 2.5, 0],
			"scale": [0.5, 0.5, 0.5]
		},
		"ground": {
			"translation": [0, 2.5, 0],
			"scale": [0.5, 0.5, 0.5]
		},
		"gui": {
			"rotation": [15, 165, 0],
			"translation": [0, -0.25, 0],
			"scale": [0.75, 0.75, 0.75]
		},
		"head": {
			"rotation": [90, 0, 0],
			"translation": [0, 8, 0],
			"scale": [0.75, 0.75, 0.75]
		},
		"fixed": {
			"translation": [0, 0, -1.5],
			"scale": [0.75, 0.75, 0.75]
		}
	},
	"groups": [0, 1, 2, 3,
		{
			"name": "skull",
			"origin": [8, 8, 8],
			"children": [4, 5, 6, 7, 8, 9, 10, 11, 12, 13, 14, 15, 16, 17]
		}
	]
}