{
	"credit": "Made with Blockbench",
	"parent": "item/generated",
	"textures": {
		"layer0": "item/swords/candle_red/candle_red"
	},
	"display": {
		"thirdperson_righthand": {
			"rotation": [0, -90, 55],
			"translation": [0, 4, 0.5],
			"scale": [1.7, 1.7, 0.85]
		},
		"thirdperson_lefthand": {
			"rotation": [0, 90, -55],
			"translation": [0, 4, 0.5],
			"scale": [1.7, 1.7, 0.85]
		},
		"firstperson_righthand": {
			"rotation": [0, -96, 48],
			"translation": [2.38, 2.95, 1.13],
			"scale": [1.36, 1.36, 0.68]
		},
		"firstperson_lefthand": {
			"rotation": [0, 96, -48],
			"translation": [2.38, 2.95, 1.13],
			"scale": [1.36, 1.36, 0.68]
		},
		"ground": {
			"rotation": [90, 0, 0],
			"scale": [1, 1, 0.5]
		},
		"gui": {
			"translation": [0, -1.25, 0]
		},
		"fixed": {
			"rotation": [0, -180, 0],
			"translation": [0.75, -0.75, -0.5],
			"scale": [1.28, 1.28, 1.28]
		}
	}
}