{
	"credit": "Made with Blockbench",
	"textures": {
		"0": "block/mizuno_archive/stripped_oak_log",
		"1": "block/mizuno_archive/stripped_dark_oak_log",
		"2": "block/mizuno_archive/white_wool",
		"3": "block/feathers",
		"4": "block/mizuno_archive/furnace_top"
	},
	"elements": [
		{
			"from": [9.31823, 9.5934, 7.23202],
			"to": [10.82623, 9.8834, 8.74002],
			"rotation": {"angle": 0, "axis": "z", "origin": [19.93223, 3.2134, 16.68602]},
			"faces": {
				"north": {"uv": [11, 4, 12, 8], "rotation": 270, "texture": "#1"},
				"east": {"uv": [11, 4, 12, 8], "rotation": 270, "texture": "#1"},
				"south": {"uv": [11, 4, 12, 8], "rotation": 270, "texture": "#1"},
				"west": {"uv": [11, 4, 12, 8], "rotation": 270, "texture": "#1"},
				"up": {"uv": [11, 4, 12, 8], "rotation": 270, "texture": "#1"},
				"down": {"uv": [11, 4, 12, 8], "rotation": 270, "texture": "#1"}
			}
		},
		{
			"from": [9.31823, 10.2894, 7.23202],
			"to": [10.82623, 10.5794, 8.74002],
			"rotation": {"angle": 0, "axis": "z", "origin": [19.93223, 3.2134, 16.68602]},
			"faces": {
				"north": {"uv": [11, 4, 12, 8], "rotation": 270, "texture": "#1"},
				"east": {"uv": [11, 4, 12, 8], "rotation": 270, "texture": "#1"},
				"south": {"uv": [11, 4, 12, 8], "rotation": 270, "texture": "#1"},
				"west": {"uv": [11, 4, 12, 8], "rotation": 270, "texture": "#1"},
				"up": {"uv": [11, 4, 12, 8], "rotation": 270, "texture": "#1"},
				"down": {"uv": [11, 4, 12, 8], "rotation": 270, "texture": "#1"}
			}
		},
		{
			"from": [9.08653, 9.8834, 7.23172],
			"to": [11.05853, 10.2894, 8.73972],
			"rotation": {"angle": 0, "axis": "z", "origin": [19.93253, 3.0394, 16.68572]},
			"faces": {
				"north": {"uv": [1, 5, 3, 8], "rotation": 90, "texture": "#1"},
				"east": {"uv": [1, 5, 3, 8], "rotation": 90, "texture": "#1"},
				"south": {"uv": [1, 5, 3, 8], "rotation": 90, "texture": "#1"},
				"west": {"uv": [1, 5, 3, 8], "rotation": 90, "texture": "#1"},
				"up": {"uv": [1, 5, 3, 8], "rotation": 90, "texture": "#1"},
				"down": {"uv": [1, 5, 3, 8], "rotation": 90, "texture": "#1"}
			}
		},
		{
			"from": [9.31853, 9.8834, 6.99972],
			"to": [10.82653, 10.2894, 8.97172],
			"rotation": {"angle": 0, "axis": "z", "origin": [19.93253, 3.0394, 16.68572]},
			"faces": {
				"north": {"uv": [1, 5, 3, 8], "rotation": 90, "texture": "#1"},
				"east": {"uv": [1, 5, 3, 8], "rotation": 90, "texture": "#1"},
				"south": {"uv": [1, 5, 3, 8], "rotation": 90, "texture": "#1"},
				"west": {"uv": [1, 5, 3, 8], "rotation": 90, "texture": "#1"},
				"up": {"uv": [1, 5, 3, 8], "rotation": 90, "texture": "#1"},
				"down": {"uv": [1, 5, 3, 8], "rotation": 90, "texture": "#1"}
			}
		},
		{
			"from": [11.28046, 14.08956, 7.48837],
			"to": [11.78046, 15.83956, 8.48837],
			"rotation": {"angle": 22.5, "axis": "z", "origin": [20.28046, 8.58956, 15.48837]},
			"faces": {
				"north": {"uv": [0, 12, 3, 14], "rotation": 90, "texture": "#1"},
				"east": {"uv": [0, 12, 3, 14], "rotation": 90, "texture": "#1"},
				"south": {"uv": [0, 12, 3, 14], "rotation": 90, "texture": "#1"},
				"west": {"uv": [0, 12, 3, 14], "rotation": 90, "texture": "#1"},
				"up": {"uv": [0, 12, 3, 14], "rotation": 90, "texture": "#1"},
				"down": {"uv": [0, 12, 3, 14], "rotation": 90, "texture": "#1"}
			}
		},
		{
			"from": [9.19502, 11.83989, 7.48808],
			"to": [9.69502, 13.58989, 8.48808],
			"rotation": {"angle": 0, "axis": "z", "origin": [18.19502, 6.33989, 15.48808]},
			"faces": {
				"north": {"uv": [0, 12, 3, 14], "rotation": 90, "texture": "#1"},
				"east": {"uv": [0, 12, 3, 14], "rotation": 90, "texture": "#1"},
				"south": {"uv": [0, 12, 3, 14], "rotation": 90, "texture": "#1"},
				"west": {"uv": [0, 12, 3, 14], "rotation": 90, "texture": "#1"},
				"up": {"uv": [0, 12, 3, 14], "rotation": 90, "texture": "#1"},
				"down": {"uv": [0, 12, 3, 14], "rotation": 90, "texture": "#1"}
			}
		},
		{
			"from": [11.28468, 9.59387, 7.48779],
			"to": [11.78468, 11.34387, 8.48779],
			"rotation": {"angle": -22.5, "axis": "z", "origin": [20.28468, 16.84387, 15.48779]},
			"faces": {
				"north": {"uv": [0, 12, 3, 14], "rotation": 90, "texture": "#1"},
				"east": {"uv": [0, 12, 3, 14], "rotation": 90, "texture": "#1"},
				"south": {"uv": [0, 12, 3, 14], "rotation": 90, "texture": "#1"},
				"west": {"uv": [0, 12, 3, 14], "rotation": 90, "texture": "#1"},
				"up": {"uv": [0, 12, 3, 14], "rotation": 90, "texture": "#1"},
				"down": {"uv": [0, 12, 3, 14], "rotation": 90, "texture": "#1"}
			}
		},
		{
			"from": [9.31823, 14.8934, 7.23202],
			"to": [10.82623, 15.1834, 8.74002],
			"rotation": {"angle": 0, "axis": "z", "origin": [19.93223, 8.5134, 16.68602]},
			"faces": {
				"north": {"uv": [11, 4, 12, 8], "rotation": 270, "texture": "#1"},
				"east": {"uv": [11, 4, 12, 8], "rotation": 270, "texture": "#1"},
				"south": {"uv": [11, 4, 12, 8], "rotation": 270, "texture": "#1"},
				"west": {"uv": [11, 4, 12, 8], "rotation": 270, "texture": "#1"},
				"up": {"uv": [11, 4, 12, 8], "rotation": 270, "texture": "#1"},
				"down": {"uv": [11, 4, 12, 8], "rotation": 270, "texture": "#1"}
			}
		},
		{
			"from": [9.31853, 15.1834, 6.99972],
			"to": [10.82653, 15.5894, 8.97172],
			"rotation": {"angle": 0, "axis": "z", "origin": [19.93253, 8.3394, 16.68572]},
			"faces": {
				"north": {"uv": [1, 5, 3, 8], "rotation": 90, "texture": "#1"},
				"east": {"uv": [1, 5, 3, 8], "rotation": 90, "texture": "#1"},
				"south": {"uv": [1, 5, 3, 8], "rotation": 90, "texture": "#1"},
				"west": {"uv": [1, 5, 3, 8], "rotation": 90, "texture": "#1"},
				"up": {"uv": [1, 5, 3, 8], "rotation": 90, "texture": "#1"},
				"down": {"uv": [1, 5, 3, 8], "rotation": 90, "texture": "#1"}
			}
		},
		{
			"from": [9.08653, 15.1834, 7.23172],
			"to": [11.05853, 15.5894, 8.73972],
			"rotation": {"angle": 0, "axis": "z", "origin": [19.93253, 8.3394, 16.68572]},
			"faces": {
				"north": {"uv": [1, 5, 3, 8], "rotation": 270, "texture": "#1"},
				"east": {"uv": [1, 5, 3, 8], "rotation": 270, "texture": "#1"},
				"south": {"uv": [1, 5, 3, 8], "rotation": 270, "texture": "#1"},
				"west": {"uv": [1, 5, 3, 8], "rotation": 270, "texture": "#1"},
				"up": {"uv": [1, 5, 3, 8], "rotation": 270, "texture": "#1"},
				"down": {"uv": [1, 5, 3, 8], "rotation": 270, "texture": "#1"}
			}
		},
		{
			"from": [9.31823, 15.5894, 7.23202],
			"to": [10.82623, 15.8794, 8.74002],
			"rotation": {"angle": 0, "axis": "z", "origin": [19.93223, 8.5134, 16.68602]},
			"faces": {
				"north": {"uv": [11, 4, 12, 8], "rotation": 270, "texture": "#1"},
				"east": {"uv": [11, 4, 12, 8], "rotation": 270, "texture": "#1"},
				"south": {"uv": [11, 4, 12, 8], "rotation": 270, "texture": "#1"},
				"west": {"uv": [11, 4, 12, 8], "rotation": 270, "texture": "#1"},
				"up": {"uv": [11, 4, 12, 8], "rotation": 270, "texture": "#1"},
				"down": {"uv": [11, 4, 12, 8], "rotation": 270, "texture": "#1"}
			}
		},
		{
			"from": [1.25021, 23.3913, 7.59149],
			"to": [2.09021, 24.4413, 8.43149],
			"rotation": {"angle": 22.5, "axis": "z", "origin": [8.81021, 29.0613, 14.31149]},
			"faces": {
				"north": {"uv": [3, 3, 5, 5], "rotation": 180, "texture": "#0"},
				"east": {"uv": [3, 3, 5, 5], "rotation": 180, "texture": "#0"},
				"south": {"uv": [3, 3, 5, 5], "rotation": 180, "texture": "#0"},
				"west": {"uv": [3, 3, 5, 5], "rotation": 180, "texture": "#0"},
				"up": {"uv": [3, 3, 5, 5], "rotation": 180, "texture": "#0"},
				"down": {"uv": [3, 3, 5, 5], "rotation": 180, "texture": "#0"}
			}
		},
		{
			"from": [3.59627, 21.90399, 7.5848],
			"to": [4.43627, 22.95399, 8.4248],
			"rotation": {"angle": 0, "axis": "z", "origin": [11.15627, 27.57399, 14.3048]},
			"faces": {
				"north": {"uv": [3, 3, 5, 5], "rotation": 180, "texture": "#0"},
				"east": {"uv": [3, 3, 5, 5], "rotation": 180, "texture": "#0"},
				"south": {"uv": [3, 3, 5, 5], "rotation": 180, "texture": "#0"},
				"west": {"uv": [3, 3, 5, 5], "rotation": 180, "texture": "#0"},
				"up": {"uv": [3, 3, 5, 5], "rotation": 180, "texture": "#0"},
				"down": {"uv": [3, 3, 5, 5], "rotation": 180, "texture": "#0"}
			}
		},
		{
			"from": [3.67802, 22.95193, 7.6731],
			"to": [4.37354, 23.82133, 8.36862],
			"rotation": {"angle": 0, "axis": "z", "origin": [9.9377, 27.64669, 13.23726]},
			"faces": {
				"north": {"uv": [10, 3, 12, 5], "texture": "#0"},
				"east": {"uv": [10, 3, 12, 5], "texture": "#0"},
				"south": {"uv": [10, 3, 12, 5], "texture": "#0"},
				"west": {"uv": [10, 3, 12, 5], "texture": "#0"},
				"up": {"uv": [10, 3, 12, 5], "texture": "#0"},
				"down": {"uv": [10, 3, 12, 5], "texture": "#0"}
			}
		},
		{
			"from": [4.99847, 21.06846, 7.6728],
			"to": [5.69399, 21.93786, 8.36832],
			"rotation": {"angle": -22.5, "axis": "z", "origin": [11.25815, 25.76322, 13.23696]},
			"faces": {
				"north": {"uv": [10, 3, 12, 5], "rotation": 180, "texture": "#0"},
				"east": {"uv": [10, 3, 12, 5], "rotation": 180, "texture": "#0"},
				"south": {"uv": [10, 3, 12, 5], "rotation": 180, "texture": "#0"},
				"west": {"uv": [10, 3, 12, 5], "rotation": 180, "texture": "#0"},
				"up": {"uv": [10, 3, 12, 5], "rotation": 180, "texture": "#0"},
				"down": {"uv": [10, 3, 12, 5], "rotation": 180, "texture": "#0"}
			}
		},
		{
			"from": [9.15385, 24.04115, 7.66922],
			"to": [9.79489, 24.73667, 8.36474],
			"rotation": {"angle": 45, "axis": "z", "origin": [6.71953, 18.47699, 13.23338]},
			"faces": {
				"north": {"uv": [8, 2, 10, 4], "rotation": 180, "texture": "#0"},
				"east": {"uv": [8, 2, 10, 4], "rotation": 180, "texture": "#0"},
				"south": {"uv": [8, 2, 10, 4], "rotation": 180, "texture": "#0"},
				"west": {"uv": [8, 2, 10, 4], "rotation": 180, "texture": "#0"},
				"up": {"uv": [8, 2, 10, 4], "rotation": 180, "texture": "#0"},
				"down": {"uv": [8, 2, 10, 4], "rotation": 180, "texture": "#0"}
			}
		},
		{
			"from": [8.62343, 24.55653, 7.72965],
			"to": [9.13626, 25.11295, 8.28606],
			"rotation": {"angle": 45, "axis": "z", "origin": [6.67598, 20.1052, 12.18098]},
			"faces": {
				"north": {"uv": [10, 3, 12, 5], "rotation": 180, "texture": "#0"},
				"east": {"uv": [10, 3, 12, 5], "rotation": 180, "texture": "#0"},
				"south": {"uv": [10, 3, 12, 5], "rotation": 180, "texture": "#0"},
				"west": {"uv": [10, 3, 12, 5], "rotation": 180, "texture": "#0"},
				"up": {"uv": [10, 3, 12, 5], "rotation": 180, "texture": "#0"},
				"down": {"uv": [10, 3, 12, 5], "rotation": 180, "texture": "#0"}
			}
		},
		{
			"from": [4.87476, 24.82937, 7.72965],
			"to": [5.84848, 25.38579, 8.28607],
			"rotation": {"angle": 0, "axis": "y", "origin": [9.32608, 20.93446, 12.18098]},
			"faces": {
				"north": {"uv": [3, 2, 6, 4], "texture": "#0"},
				"east": {"uv": [3, 2, 6, 4], "texture": "#0"},
				"south": {"uv": [3, 2, 6, 4], "texture": "#0"},
				"west": {"uv": [3, 2, 6, 4], "texture": "#0"},
				"up": {"uv": [3, 2, 6, 4], "texture": "#0"},
				"down": {"uv": [3, 2, 6, 4], "texture": "#0"}
			}
		},
		{
			"from": [3.67798, 23.93298, 7.72965],
			"to": [3.95618, 24.48939, 8.28607],
			"rotation": {"angle": -22.5, "axis": "z", "origin": [7.01647, 19.48165, 12.18098]},
			"faces": {
				"north": {"uv": [10, 3, 12, 5], "rotation": 180, "texture": "#0"},
				"east": {"uv": [10, 3, 12, 5], "rotation": 180, "texture": "#0"},
				"south": {"uv": [10, 3, 12, 5], "rotation": 180, "texture": "#0"},
				"west": {"uv": [10, 3, 12, 5], "rotation": 180, "texture": "#0"},
				"up": {"uv": [10, 3, 12, 5], "rotation": 180, "texture": "#0"},
				"down": {"uv": [10, 3, 12, 5], "rotation": 180, "texture": "#0"}
			}
		},
		{
			"from": [1.58664, 23.82893, 7.82965],
			"to": [2.14306, 24.38535, 8.28607],
			"rotation": {"angle": -45, "axis": "z", "origin": [4.92514, 19.37761, 12.18098]},
			"faces": {
				"north": {"uv": [10, 3, 12, 5], "rotation": 180, "texture": "#0"},
				"east": {"uv": [10, 3, 12, 5], "rotation": 180, "texture": "#0"},
				"south": {"uv": [10, 3, 12, 5], "rotation": 180, "texture": "#0"},
				"west": {"uv": [10, 3, 12, 5], "rotation": 180, "texture": "#0"},
				"up": {"uv": [10, 3, 12, 5], "rotation": 180, "texture": "#0"},
				"down": {"uv": [10, 3, 12, 5], "rotation": 180, "texture": "#0"}
			}
		},
		{
			"from": [10.69715, 21.995, 7.57613],
			"to": [11.74715, 22.835, 8.41613],
			"rotation": {"angle": -45, "axis": "z", "origin": [6.07715, 29.555, 14.29613]},
			"faces": {
				"north": {"uv": [3, 3, 5, 5], "rotation": 180, "texture": "#0"},
				"east": {"uv": [3, 3, 5, 5], "rotation": 180, "texture": "#0"},
				"south": {"uv": [3, 3, 5, 5], "rotation": 180, "texture": "#0"},
				"west": {"uv": [3, 3, 5, 5], "rotation": 180, "texture": "#0"},
				"up": {"uv": [3, 3, 5, 5], "rotation": 180, "texture": "#0"},
				"down": {"uv": [3, 3, 5, 5], "rotation": 180, "texture": "#0"}
			}
		},
		{
			"from": [8.41171, 20.8261, 7.50027],
			"to": [11.66171, 21.8261, 8.50027],
			"rotation": {"angle": -22.5, "axis": "z", "origin": [4.91171, 29.8261, 15.50027]},
			"faces": {
				"north": {"uv": [5, 3, 13, 5], "texture": "#0"},
				"east": {"uv": [5, 3, 13, 5], "texture": "#0"},
				"south": {"uv": [5, 3, 13, 5], "texture": "#0"},
				"west": {"uv": [5, 3, 13, 5], "texture": "#0"},
				"up": {"uv": [5, 3, 13, 5], "texture": "#0"},
				"down": {"uv": [5, 3, 13, 5], "texture": "#0"}
			}
		},
		{
			"from": [14.78062, 18.90869, 7.41305],
			"to": [18.03062, 20.10869, 8.53805],
			"rotation": {"angle": -45, "axis": "z", "origin": [11.28062, 28.00869, 15.48805]},
			"faces": {
				"north": {"uv": [5, 1, 13, 3], "rotation": 180, "texture": "#0"},
				"east": {"uv": [5, 1, 13, 3], "rotation": 180, "texture": "#0"},
				"south": {"uv": [5, 1, 13, 3], "rotation": 180, "texture": "#0"},
				"west": {"uv": [5, 1, 13, 3], "rotation": 180, "texture": "#0"},
				"up": {"uv": [5, 1, 13, 3], "rotation": 180, "texture": "#0"},
				"down": {"uv": [5, 1, 13, 3], "rotation": 180, "texture": "#0"}
			}
		},
		{
			"from": [6.59049, 19.68328, 7.43805],
			"to": [7.79066, 20.25988, 8.51306],
			"rotation": {"angle": 22.5, "axis": "z", "origin": [15.69049, 25.68328, 15.48806]},
			"faces": {
				"north": {"uv": [9, 1, 10, 3], "rotation": 270, "texture": "#0"},
				"east": {"uv": [9, 1, 10, 3], "rotation": 270, "texture": "#0"},
				"south": {"uv": [9, 1, 10, 3], "rotation": 270, "texture": "#0"},
				"west": {"uv": [9, 1, 10, 3], "rotation": 270, "texture": "#0"},
				"up": {"uv": [9, 1, 10, 3], "rotation": 270, "texture": "#0"},
				"down": {"uv": [9, 1, 10, 3], "rotation": 270, "texture": "#0"}
			}
		},
		{
			"from": [9.48811, 15.8669, 7.41299],
			"to": [10.68811, 17.1169, 8.56299],
			"rotation": {"angle": 0, "axis": "z", "origin": [18.58811, 22.6169, 15.48799]},
			"faces": {
				"north": {"uv": [8, 1, 10, 3], "rotation": 90, "texture": "#0"},
				"east": {"uv": [8, 1, 10, 3], "rotation": 90, "texture": "#0"},
				"south": {"uv": [8, 1, 10, 3], "rotation": 90, "texture": "#0"},
				"west": {"uv": [8, 1, 10, 3], "rotation": 90, "texture": "#0"},
				"up": {"uv": [8, 1, 10, 3], "rotation": 90, "texture": "#0"},
				"down": {"uv": [8, 1, 10, 3], "rotation": 90, "texture": "#0"}
			}
		},
		{
			"from": [9.48811, 8.3581, 7.41299],
			"to": [10.68811, 9.6081, 8.56299],
			"rotation": {"angle": 0, "axis": "z", "origin": [18.58811, 2.8581, 15.48799]},
			"faces": {
				"north": {"uv": [10, 1, 8, 3], "rotation": 90, "texture": "#0"},
				"east": {"uv": [10, 1, 8, 3], "rotation": 90, "texture": "#0"},
				"south": {"uv": [10, 1, 8, 3], "rotation": 90, "texture": "#0"},
				"west": {"uv": [10, 1, 8, 3], "rotation": 90, "texture": "#0"},
				"up": {"uv": [10, 1, 8, 3], "rotation": 90, "texture": "#0"},
				"down": {"uv": [10, 1, 8, 3], "rotation": 90, "texture": "#0"}
			}
		},
		{
			"from": [6.59049, 5.21512, 7.43805],
			"to": [7.79066, 5.79172, 8.53806],
			"rotation": {"angle": -22.5, "axis": "z", "origin": [15.69049, -0.20828, 15.48806]},
			"faces": {
				"north": {"uv": [10, 1, 9, 3], "rotation": 270, "texture": "#0"},
				"east": {"uv": [10, 1, 9, 3], "rotation": 270, "texture": "#0"},
				"south": {"uv": [10, 1, 9, 3], "rotation": 270, "texture": "#0"},
				"west": {"uv": [10, 1, 9, 3], "rotation": 270, "texture": "#0"},
				"up": {"uv": [10, 1, 9, 3], "rotation": 270, "texture": "#0"},
				"down": {"uv": [10, 1, 9, 3], "rotation": 270, "texture": "#0"}
			}
		},
		{
			"from": [14.78062, 5.36631, 7.41305],
			"to": [18.03062, 6.56631, 8.56305],
			"rotation": {"angle": 45, "axis": "z", "origin": [11.28062, -2.53369, 15.48805]},
			"faces": {
				"north": {"uv": [5, 3, 13, 1], "rotation": 180, "texture": "#0"},
				"east": {"uv": [5, 3, 13, 1], "rotation": 180, "texture": "#0"},
				"south": {"uv": [5, 3, 13, 1], "rotation": 180, "texture": "#0"},
				"west": {"uv": [5, 3, 13, 1], "rotation": 180, "texture": "#0"},
				"up": {"uv": [5, 3, 13, 1], "rotation": 180, "texture": "#0"},
				"down": {"uv": [5, 3, 13, 1], "rotation": 180, "texture": "#0"}
			}
		},
		{
			"from": [1.25021, 1.0087, 7.59149],
			"to": [2.09021, 2.0587, 8.43149],
			"rotation": {"angle": -22.5, "axis": "z", "origin": [8.81021, -3.6113, 14.31149]},
			"faces": {
				"north": {"uv": [3, 5, 5, 3], "rotation": 180, "texture": "#0"},
				"east": {"uv": [3, 5, 5, 3], "rotation": 180, "texture": "#0"},
				"south": {"uv": [3, 5, 5, 3], "rotation": 180, "texture": "#0"},
				"west": {"uv": [3, 5, 5, 3], "rotation": 180, "texture": "#0"},
				"up": {"uv": [3, 5, 5, 3], "rotation": 180, "texture": "#0"},
				"down": {"uv": [3, 5, 5, 3], "rotation": 180, "texture": "#0"}
			}
		},
		{
			"from": [3.59627, 2.49601, 7.5848],
			"to": [4.43627, 3.54601, 8.4248],
			"rotation": {"angle": 0, "axis": "z", "origin": [11.15627, -2.12399, 14.3048]},
			"faces": {
				"north": {"uv": [3, 5, 5, 3], "rotation": 180, "texture": "#0"},
				"east": {"uv": [3, 5, 5, 3], "rotation": 180, "texture": "#0"},
				"south": {"uv": [3, 5, 5, 3], "rotation": 180, "texture": "#0"},
				"west": {"uv": [3, 5, 5, 3], "rotation": 180, "texture": "#0"},
				"up": {"uv": [3, 5, 5, 3], "rotation": 180, "texture": "#0"},
				"down": {"uv": [3, 5, 5, 3], "rotation": 180, "texture": "#0"}
			}
		},
		{
			"from": [3.67802, 1.62867, 7.6731],
			"to": [4.37354, 2.49807, 8.36862],
			"rotation": {"angle": 0, "axis": "z", "origin": [9.9377, -2.19669, 13.23726]},
			"faces": {
				"north": {"uv": [10, 5, 12, 3], "texture": "#0"},
				"east": {"uv": [10, 5, 12, 3], "texture": "#0"},
				"south": {"uv": [10, 5, 12, 3], "texture": "#0"},
				"west": {"uv": [10, 5, 12, 3], "texture": "#0"},
				"up": {"uv": [10, 5, 12, 3], "texture": "#0"},
				"down": {"uv": [10, 5, 12, 3], "texture": "#0"}
			}
		},
		{
			"from": [4.99847, 3.51214, 7.6728],
			"to": [5.69399, 4.38154, 8.36832],
			"rotation": {"angle": 22.5, "axis": "z", "origin": [11.25815, -0.31322, 13.23696]},
			"faces": {
				"north": {"uv": [10, 5, 12, 3], "rotation": 180, "texture": "#0"},
				"east": {"uv": [10, 5, 12, 3], "rotation": 180, "texture": "#0"},
				"south": {"uv": [10, 5, 12, 3], "rotation": 180, "texture": "#0"},
				"west": {"uv": [10, 5, 12, 3], "rotation": 180, "texture": "#0"},
				"up": {"uv": [10, 5, 12, 3], "rotation": 180, "texture": "#0"},
				"down": {"uv": [10, 5, 12, 3], "rotation": 180, "texture": "#0"}
			}
		},
		{
			"from": [9.15385, 0.71333, 7.66922],
			"to": [9.79489, 1.40885, 8.36474],
			"rotation": {"angle": -45, "axis": "z", "origin": [6.71953, 6.97301, 13.23338]},
			"faces": {
				"north": {"uv": [8, 4, 10, 2], "rotation": 180, "texture": "#0"},
				"east": {"uv": [8, 4, 10, 2], "rotation": 180, "texture": "#0"},
				"south": {"uv": [8, 4, 10, 2], "rotation": 180, "texture": "#0"},
				"west": {"uv": [8, 4, 10, 2], "rotation": 180, "texture": "#0"},
				"up": {"uv": [8, 4, 10, 2], "rotation": 180, "texture": "#0"},
				"down": {"uv": [8, 4, 10, 2], "rotation": 180, "texture": "#0"}
			}
		},
		{
			"from": [8.62343, 0.33705, 7.72965],
			"to": [9.13626, 0.89347, 8.28606],
			"rotation": {"angle": -45, "axis": "z", "origin": [6.67598, 5.3448, 12.18098]},
			"faces": {
				"north": {"uv": [10, 5, 12, 3], "rotation": 180, "texture": "#0"},
				"east": {"uv": [10, 5, 12, 3], "rotation": 180, "texture": "#0"},
				"south": {"uv": [10, 5, 12, 3], "rotation": 180, "texture": "#0"},
				"west": {"uv": [10, 5, 12, 3], "rotation": 180, "texture": "#0"},
				"up": {"uv": [10, 5, 12, 3], "rotation": 180, "texture": "#0"},
				"down": {"uv": [10, 5, 12, 3], "rotation": 180, "texture": "#0"}
			}
		},
		{
			"from": [4.87476, 0.06421, 7.72965],
			"to": [5.84848, 0.62063, 8.28607],
			"rotation": {"angle": 0, "axis": "y", "origin": [9.32608, 4.51554, 12.18098]},
			"faces": {
				"north": {"uv": [3, 4, 6, 2], "texture": "#0"},
				"east": {"uv": [3, 4, 6, 2], "texture": "#0"},
				"south": {"uv": [3, 4, 6, 2], "texture": "#0"},
				"west": {"uv": [3, 4, 6, 2], "texture": "#0"},
				"up": {"uv": [3, 4, 6, 2], "texture": "#0"},
				"down": {"uv": [3, 4, 6, 2], "texture": "#0"}
			}
		},
		{
			"from": [3.67798, 0.96061, 7.72965],
			"to": [3.95618, 1.51702, 8.28607],
			"rotation": {"angle": 22.5, "axis": "z", "origin": [7.01647, 5.96835, 12.18098]},
			"faces": {
				"north": {"uv": [10, 5, 12, 3], "rotation": 180, "texture": "#0"},
				"east": {"uv": [10, 5, 12, 3], "rotation": 180, "texture": "#0"},
				"south": {"uv": [10, 5, 12, 3], "rotation": 180, "texture": "#0"},
				"west": {"uv": [10, 5, 12, 3], "rotation": 180, "texture": "#0"},
				"up": {"uv": [10, 5, 12, 3], "rotation": 180, "texture": "#0"},
				"down": {"uv": [10, 5, 12, 3], "rotation": 180, "texture": "#0"}
			}
		},
		{
			"from": [1.58664, 1.06465, 7.72965],
			"to": [2.14306, 1.62107, 8.28607],
			"rotation": {"angle": 45, "axis": "z", "origin": [4.92514, 6.07239, 12.18098]},
			"faces": {
				"north": {"uv": [10, 5, 12, 3], "rotation": 180, "texture": "#0"},
				"east": {"uv": [10, 5, 12, 3], "rotation": 180, "texture": "#0"},
				"south": {"uv": [10, 5, 12, 3], "rotation": 180, "texture": "#0"},
				"west": {"uv": [10, 5, 12, 3], "rotation": 180, "texture": "#0"},
				"up": {"uv": [10, 5, 12, 3], "rotation": 180, "texture": "#0"},
				"down": {"uv": [10, 5, 12, 3], "rotation": 180, "texture": "#0"}
			}
		},
		{
			"from": [7.65218, 2.22331, 7.78186],
			"to": [8.10859, 2.40472, 8.23827],
			"rotation": {"angle": -22.5, "axis": "z", "origin": [3.15085, 5.5618, 12.18319]},
			"faces": {
				"north": {"uv": [10, 5, 12, 3], "rotation": 270, "texture": "#0"},
				"east": {"uv": [10, 5, 12, 3], "rotation": 90, "texture": "#0"},
				"south": {"uv": [10, 5, 12, 3], "rotation": 90, "texture": "#0"},
				"west": {"uv": [10, 5, 12, 3], "rotation": 90, "texture": "#0"},
				"up": {"uv": [10, 5, 12, 3], "rotation": 90, "texture": "#0"},
				"down": {"uv": [10, 5, 12, 3], "rotation": 90, "texture": "#0"}
			}
		},
		{
			"from": [7.65218, 23.04528, 7.78186],
			"to": [8.10859, 23.22669, 8.23827],
			"rotation": {"angle": 22.5, "axis": "z", "origin": [3.15085, 19.8882, 12.18319]},
			"faces": {
				"north": {"uv": [12, 5, 10, 3], "rotation": 270, "texture": "#0"},
				"east": {"uv": [12, 5, 10, 3], "rotation": 90, "texture": "#0"},
				"south": {"uv": [12, 5, 10, 3], "rotation": 90, "texture": "#0"},
				"west": {"uv": [12, 5, 10, 3], "rotation": 90, "texture": "#0"},
				"up": {"uv": [12, 5, 10, 3], "rotation": 90, "texture": "#0"},
				"down": {"uv": [12, 5, 10, 3], "rotation": 90, "texture": "#0"}
			}
		},
		{
			"from": [7.77131, 2.39104, 7.83203],
			"to": [8.12773, 2.57245, 8.18845],
			"rotation": {"angle": -22.5, "axis": "z", "origin": [3.21998, 5.72953, 12.18336]},
			"faces": {
				"north": {"uv": [10, 5, 12, 3], "rotation": 270, "texture": "#0"},
				"east": {"uv": [10, 5, 12, 3], "rotation": 90, "texture": "#0"},
				"south": {"uv": [10, 5, 12, 3], "rotation": 90, "texture": "#0"},
				"west": {"uv": [10, 5, 12, 3], "rotation": 90, "texture": "#0"},
				"up": {"uv": [10, 5, 12, 3], "rotation": 90, "texture": "#0"},
				"down": {"uv": [10, 5, 12, 3], "rotation": 90, "texture": "#0"}
			}
		},
		{
			"from": [7.77131, 22.87755, 7.83203],
			"to": [8.12773, 23.05896, 8.18845],
			"rotation": {"angle": 22.5, "axis": "z", "origin": [3.21998, 19.72047, 12.18336]},
			"faces": {
				"north": {"uv": [12, 5, 10, 3], "rotation": 270, "texture": "#0"},
				"east": {"uv": [12, 5, 10, 3], "rotation": 90, "texture": "#0"},
				"south": {"uv": [12, 5, 10, 3], "rotation": 90, "texture": "#0"},
				"west": {"uv": [12, 5, 10, 3], "rotation": 90, "texture": "#0"},
				"up": {"uv": [12, 5, 10, 3], "rotation": 90, "texture": "#0"},
				"down": {"uv": [12, 5, 10, 3], "rotation": 90, "texture": "#0"}
			}
		},
		{
			"from": [7.89044, 2.55876, 7.8822],
			"to": [8.14686, 2.74018, 8.13862],
			"rotation": {"angle": -22.5, "axis": "z", "origin": [3.28911, 5.89726, 12.18353]},
			"faces": {
				"north": {"uv": [10, 5, 12, 3], "rotation": 270, "texture": "#0"},
				"east": {"uv": [10, 5, 12, 3], "rotation": 90, "texture": "#0"},
				"south": {"uv": [10, 5, 12, 3], "rotation": 90, "texture": "#0"},
				"west": {"uv": [10, 5, 12, 3], "rotation": 90, "texture": "#0"},
				"up": {"uv": [10, 5, 12, 3], "rotation": 90, "texture": "#0"},
				"down": {"uv": [10, 5, 12, 3], "rotation": 90, "texture": "#0"}
			}
		},
		{
			"from": [7.89044, 22.70982, 7.8822],
			"to": [8.14686, 22.89124, 8.13862],
			"rotation": {"angle": 22.5, "axis": "z", "origin": [3.28911, 19.55274, 12.18353]},
			"faces": {
				"north": {"uv": [12, 5, 10, 3], "rotation": 270, "texture": "#0"},
				"east": {"uv": [12, 5, 10, 3], "rotation": 90, "texture": "#0"},
				"south": {"uv": [12, 5, 10, 3], "rotation": 90, "texture": "#0"},
				"west": {"uv": [12, 5, 10, 3], "rotation": 90, "texture": "#0"},
				"up": {"uv": [12, 5, 10, 3], "rotation": 90, "texture": "#0"},
				"down": {"uv": [12, 5, 10, 3], "rotation": 90, "texture": "#0"}
			}
		},
		{
			"from": [10.69715, 2.615, 7.57613],
			"to": [11.74715, 3.455, 8.41613],
			"rotation": {"angle": 45, "axis": "z", "origin": [6.07715, -4.105, 14.29613]},
			"faces": {
				"north": {"uv": [3, 5, 5, 3], "rotation": 180, "texture": "#0"},
				"east": {"uv": [3, 5, 5, 3], "rotation": 180, "texture": "#0"},
				"south": {"uv": [3, 5, 5, 3], "rotation": 180, "texture": "#0"},
				"west": {"uv": [3, 5, 5, 3], "rotation": 180, "texture": "#0"},
				"up": {"uv": [3, 5, 5, 3], "rotation": 180, "texture": "#0"},
				"down": {"uv": [3, 5, 5, 3], "rotation": 180, "texture": "#0"}
			}
		},
		{
			"from": [8.41171, 3.6239, 7.50027],
			"to": [11.66171, 4.6239, 8.50027],
			"rotation": {"angle": 22.5, "axis": "z", "origin": [4.91171, -4.3761, 15.50027]},
			"faces": {
				"north": {"uv": [5, 5, 13, 3], "texture": "#0"},
				"east": {"uv": [5, 5, 13, 3], "texture": "#0"},
				"south": {"uv": [5, 5, 13, 3], "texture": "#0"},
				"west": {"uv": [5, 5, 13, 3], "texture": "#0"},
				"up": {"uv": [5, 5, 13, 3], "texture": "#0"},
				"down": {"uv": [5, 5, 13, 3], "texture": "#0"}
			}
		},
		{
			"name": "String",
			"from": [-3.7464, 7.24958, 7.95],
			"to": [-3.6464, 17.99958, 8.05],
			"rotation": {"angle": -45, "axis": "z", "origin": [4.0036, 9.24958, 15.95]},
			"faces": {
				"north": {"uv": [0, 0, 0.1, 10.75], "texture": "#2"},
				"east": {"uv": [0, 0, 0.1, 10.75], "texture": "#2"},
				"south": {"uv": [0, 0, 0.1, 10.75], "texture": "#2"},
				"west": {"uv": [0, 0, 0.1, 10.75], "texture": "#2"},
				"up": {"uv": [0, 0, 0.1, 0.1], "texture": "#2"},
				"down": {"uv": [0, 0, 0.1, 0.1], "texture": "#2"}
			}
		},
		{
			"name": "String",
			"from": [-3.74594, 7.52089, 7.95259],
			"to": [-3.64594, 18.27089, 8.05259],
			"rotation": {"angle": 45, "axis": "z", "origin": [4.00406, 16.27089, 15.95259]},
			"faces": {
				"north": {"uv": [0, 5.25, 0.1, 16], "texture": "#2"},
				"east": {"uv": [0, 5.25, 0.1, 16], "texture": "#2"},
				"south": {"uv": [0, 5.25, 0.1, 16], "texture": "#2"},
				"west": {"uv": [0, 5.25, 0.1, 16], "texture": "#2"},
				"up": {"uv": [0, 0.1, 0.1, 0.2], "texture": "#2"},
				"down": {"uv": [0, 0.1, 0.1, 0.2], "texture": "#2"}
			}
		},
		{
			"name": "String",
			"from": [-2.89023, 12.20502, 7.95259],
			"to": [-2.79081, 13.31532, 8.05025],
			"rotation": {"angle": 0, "axis": "z", "origin": [4.85919, 18.31532, 15.95025]},
			"faces": {
				"north": {"uv": [0, 5.75, 0.1, 6.85], "texture": "#2"},
				"east": {"uv": [0, 5.75, 0.1, 6.85], "texture": "#2"},
				"south": {"uv": [0, 5.75, 0.1, 6.85], "texture": "#2"},
				"west": {"uv": [0, 5.75, 0.1, 6.85], "texture": "#2"},
				"up": {"uv": [0, 0.1, 0.1, 0.2], "texture": "#2"},
				"down": {"uv": [0, 0.1, 0.1, 0.2], "texture": "#2"}
			}
		},
		{
			"from": [-2.4, 12.55, 7.1],
			"to": [10.65, 12.85, 7.4],
			"rotation": {"angle": 0, "axis": "y", "origin": [5.1, 20.55, 15.1]},
			"faces": {
				"north": {"uv": [2, 3, 14, 4], "texture": "#4"},
				"east": {"uv": [2, 3, 14, 4], "texture": "#4"},
				"south": {"uv": [2, 3, 14, 4], "texture": "#4"},
				"west": {"uv": [2, 3, 14, 4], "texture": "#4"},
				"up": {"uv": [2, 3, 14, 4], "texture": "#4"},
				"down": {"uv": [2, 3, 14, 4], "texture": "#4"}
			}
		},
		{
			"from": [1.1, 12.7, -1.95],
			"to": [4.4, 12.7, 1.2],
			"rotation": {"angle": 45, "axis": "y", "origin": [9.85, 20.7, 8.4]},
			"faces": {
				"north": {"uv": [4.5, 5.25, 9, 10], "texture": "#3"},
				"east": {"uv": [4.5, 5.25, 9, 10], "texture": "#3"},
				"south": {"uv": [4.5, 5.25, 9, 10], "texture": "#3"},
				"west": {"uv": [4.5, 5.25, 9, 10], "texture": "#3"},
				"up": {"uv": [4.5, 5.25, 9, 10], "rotation": 180, "texture": "#3"},
				"down": {"uv": [4.5, 5.25, 9, 10], "rotation": 90, "texture": "#3"}
			}
		},
		{
			"from": [-10.5, 15.225, 7.25],
			"to": [-7.35, 18.525, 7.25],
			"rotation": {"angle": 45, "axis": "z", "origin": [-0.15, 23.725, 15.25]},
			"faces": {
				"north": {"uv": [4.5, 5.25, 9, 10], "rotation": 270, "texture": "#3"},
				"east": {"uv": [4.5, 5.25, 9, 10], "rotation": 270, "texture": "#3"},
				"south": {"uv": [4.5, 5.25, 9, 10], "rotation": 180, "texture": "#3"},
				"west": {"uv": [4.5, 5.25, 9, 10], "rotation": 90, "texture": "#3"},
				"up": {"uv": [4.5, 5.25, 9, 10], "rotation": 180, "texture": "#3"},
				"down": {"uv": [4.5, 5.25, 9, 10], "texture": "#3"}
			}
		},
		{
			"from": [8.76762, 15.81199, 7.04909],
			"to": [8.86762, 16.23699, 7.44909],
			"rotation": {"angle": -22.5, "axis": "z", "origin": [1.16762, 11.01199, 15.09909]},
			"faces": {
				"north": {"uv": [4, 4, 5, 8], "texture": "#1"},
				"east": {"uv": [4, 4, 5, 8], "texture": "#1"},
				"south": {"uv": [4, 4, 5, 8], "texture": "#1"},
				"west": {"uv": [4, 4, 5, 8], "texture": "#1"},
				"up": {"uv": [4, 4, 5, 8], "texture": "#1"},
				"down": {"uv": [4, 4, 5, 8], "texture": "#1"}
			}
		},
		{
			"from": [8.46762, 15.81199, 7.04909],
			"to": [8.56762, 16.23699, 7.44909],
			"rotation": {"angle": -22.5, "axis": "z", "origin": [0.86762, 11.01199, 15.09909]},
			"faces": {
				"north": {"uv": [4, 4, 5, 8], "texture": "#1"},
				"east": {"uv": [4, 4, 5, 8], "texture": "#1"},
				"south": {"uv": [4, 4, 5, 8], "texture": "#1"},
				"west": {"uv": [4, 4, 5, 8], "texture": "#1"},
				"up": {"uv": [4, 4, 5, 8], "texture": "#1"},
				"down": {"uv": [4, 4, 5, 8], "texture": "#1"}
			}
		},
		{
			"from": [11.45738, 15.81199, 7.02409],
			"to": [11.55738, 16.23699, 7.47409],
			"rotation": {"angle": 22.5, "axis": "z", "origin": [19.15738, 11.01199, 15.09909]},
			"faces": {
				"north": {"uv": [11, 4, 12, 8], "rotation": 180, "texture": "#1"},
				"east": {"uv": [11, 4, 12, 8], "rotation": 180, "texture": "#1"},
				"south": {"uv": [11, 4, 12, 8], "rotation": 180, "texture": "#1"},
				"west": {"uv": [11, 4, 12, 8], "rotation": 180, "texture": "#1"},
				"up": {"uv": [11, 4, 12, 8], "rotation": 180, "texture": "#1"},
				"down": {"uv": [11, 4, 12, 8], "rotation": 180, "texture": "#1"}
			}
		},
		{
			"from": [11.15738, 15.81199, 7.02409],
			"to": [11.25738, 16.23699, 7.47409],
			"rotation": {"angle": 22.5, "axis": "z", "origin": [18.85738, 11.01199, 15.09909]},
			"faces": {
				"north": {"uv": [11, 4, 12, 8], "rotation": 180, "texture": "#1"},
				"east": {"uv": [11, 4, 12, 8], "rotation": 180, "texture": "#1"},
				"south": {"uv": [11, 4, 12, 8], "rotation": 180, "texture": "#1"},
				"west": {"uv": [11, 4, 12, 8], "rotation": 180, "texture": "#1"},
				"up": {"uv": [11, 4, 12, 8], "rotation": 180, "texture": "#1"},
				"down": {"uv": [11, 4, 12, 8], "rotation": 180, "texture": "#1"}
			}
		},
		{
			"from": [9.6973, 12.53162, 7.07864],
			"to": [10.3223, 12.88162, 7.42864],
			"rotation": {"angle": 0, "axis": "z", "origin": [5.0973, 20.48162, 15.10364]},
			"faces": {
				"north": {"uv": [7, 8, 9, 10], "texture": "#1"},
				"east": {"uv": [7, 8, 9, 10], "texture": "#1"},
				"south": {"uv": [7, 8, 9, 10], "texture": "#1"},
				"west": {"uv": [7, 8, 9, 10], "texture": "#1"},
				"up": {"uv": [7, 8, 9, 10], "texture": "#1"},
				"down": {"uv": [7, 8, 9, 10], "texture": "#1"}
			}
		},
		{
			"from": [18.6, 13.8, 7.125],
			"to": [19.15, 14.35, 7.375],
			"rotation": {"angle": -45, "axis": "z", "origin": [13.6, 22.05, 15.1]},
			"faces": {
				"north": {"uv": [0, 0, 2, 2], "texture": "#4"},
				"east": {"uv": [0, 0, 2, 2], "texture": "#4"},
				"south": {"uv": [0, 0, 2, 2], "texture": "#4"},
				"west": {"uv": [0, 0, 2, 2], "texture": "#4"},
				"up": {"uv": [0, 0, 2, 2], "texture": "#4"},
				"down": {"uv": [0, 0, 2, 2], "texture": "#4"}
			}
		},
		{
			"from": [13.74089, 13.71185, 7.12501],
			"to": [15.04089, 14.51185, 7.37501],
			"rotation": {"angle": -22.5, "axis": "z", "origin": [9.74089, 22.21185, 15.10001]},
			"faces": {
				"north": {"uv": [0, 0, 2, 2], "texture": "#4"},
				"east": {"uv": [0, 0, 2, 2], "texture": "#4"},
				"south": {"uv": [0, 0, 2, 2], "texture": "#4"},
				"west": {"uv": [0, 0, 2, 2], "texture": "#4"},
				"up": {"uv": [0, 0, 2, 2], "texture": "#4"},
				"down": {"uv": [0, 0, 2, 2], "texture": "#4"}
			}
		},
		{
			"from": [13.74028, 10.84983, 7.12563],
			"to": [15.04028, 11.64983, 7.37563],
			"rotation": {"angle": 22.5, "axis": "z", "origin": [9.74028, 3.14983, 15.10063]},
			"faces": {
				"north": {"uv": [0, 0.55, 2, 2.55], "texture": "#4"},
				"east": {"uv": [0, 0.55, 2, 2.55], "texture": "#4"},
				"south": {"uv": [0, 0.55, 2, 2.55], "texture": "#4"},
				"west": {"uv": [0, 0.55, 2, 2.55], "texture": "#4"},
				"up": {"uv": [0, 0.55, 2, 2.55], "texture": "#4"},
				"down": {"uv": [0, 0.55, 2, 2.55], "texture": "#4"}
			}
		}
	],
	"display": {
		"thirdperson_righthand": {
			"rotation": [0, 73.25, 0],
			"translation": [-0.75, -6.75, 1.75]
		},
		"thirdperson_lefthand": {
			"rotation": [0, 251.5, 0],
			"translation": [-0.5, -6.75, 1.75]
		},
		"firstperson_righthand": {
			"rotation": [20, 92, 0]
		},
		"firstperson_lefthand": {
			"rotation": [0, -83.25, 0]
		},
		"ground": {
			"rotation": [18.75, 0, 0],
			"translation": [0, 1.5, 0],
			"scale": [0.7, 0.7, 0.7]
		},
		"gui": {
			"rotation": [0, 0, 135],
			"translation": [1.75, 3.75, 0],
			"scale": [0.78516, 0.78516, 0.78516]
		},
		"head": {
			"rotation": [0, 0, 126.25],
			"translation": [6.25, -10.5, 4.75],
			"scale": [1.5, 1.5, 1.5]
		},
		"fixed": {
			"rotation": [-115, 0, 0],
			"translation": [0, -1.25, -13.5],
			"scale": [2, 2, 2]
		}
	},
	"groups": [
		{
			"name": "Bow",
			"origin": [16.1916, 19.94275, 22.97582],
			"children": [
				{
					"name": "Grip",
					"origin": [17.68815, 15.54474, 22.97566],
					"children": [0, 1, 2, 3, 4, 5, 6, 7, 8, 9, 10]
				},
				{
					"name": "Top Curve",
					"origin": [6.5116, 13.68659, 22.94916],
					"children": [11, 12, 13, 14, 15, 16, 17, 18, 19, 20, 21, 22, 23, 24]
				},
				{
					"name": "Bottom Curve",
					"origin": [6.5116, 13.68659, 22.94916],
					"children": [25, 26, 27, 28, 29, 30, 31, 32, 33, 34, 35, 36, 37, 38, 39, 40, 41, 42, 43, 44]
				}
			]
		},
		{
			"name": "crystalbow_pulling2",
			"origin": [8, 8, 8],
			"children": []
		},
		{
			"name": "crystalbow_pulling2",
			"origin": [8, 8, 8],
			"children": [
				{
					"name": "String",
					"origin": [4.85919, 18.31532, 15.95025],
					"children": [45, 46, 47]
				},
				{
					"name": "Arrow",
					"origin": [9.74028, 3.14983, 15.10063],
					"children": [48, 49, 50, 51, 52, 53, 54, 55, 56, 57, 58]
				}
			]
		}
	]
}