{
	"credit": "Made with Blockbench",
	"textures": {
		"0": "item/uno_cards/green/green_draw2",
		"particle": "item/uno_cards/green/green_draw2"
	},
	"elements": [
		{
			"from": [4.5, 0, 7.75],
			"to": [12.25, 10.75, 8],
			"rotation": {"angle": 0, "axis": "x", "origin": [13, 8, 0]},
			"faces": {
				"north": {"uv": [0, 0, 7.75, 10.75], "rotation": 180, "texture": "#0"},
				"east": {"uv": [0, 9, 0.25, 10], "rotation": 90, "texture": "#0"},
				"south": {"uv": [16, 10.75, 8.25, 0], "texture": "#0"},
				"west": {"uv": [0, 8.75, 0.25, 9.75], "rotation": 270, "texture": "#0"},
				"up": {"uv": [0.5, 10.5, 7.25, 10.75], "texture": "#0"},
				"down": {"uv": [0.5, 0, 7.25, 0.25], "rotation": 180, "texture": "#0"}
			}
		}
	],
	"display": {
		"thirdperson_righthand": {
			"rotation": [-148.5, 0, 0],
			"translation": [-3.25, 0.25, 1.25],
			"scale": [0.75, 0.75, 0.75]
		},
		"thirdperson_lefthand": {
			"rotation": [-148.5, 0, 0],
			"translation": [-3.25, 0.25, 1.25],
			"scale": [0.75, 0.75, 0.75]
		},
		"firstperson_righthand": {
			"rotation": [0, -180, -180],
			"translation": [1, 3.25, 1.75],
			"scale": [0.5, 0.5, 0.5]
		},
		"firstperson_lefthand": {
			"rotation": [0, -180, -180],
			"translation": [1.25, 3.25, 1.75],
			"scale": [0.5, 0.5, 0.5]
		},
		"ground": {
			"rotation": [0, 0, -180]
		},
		"gui": {
			"rotation": [0, -180, -180],
			"translation": [-0.5, -3.5, 0],
			"scale": [1.41, 1.41, 1.41]
		},
		"fixed": {
			"rotation": [0, 0, -180],
			"translation": [0.5, -4.5, 0],
			"scale": [1.75, 1.75, 1.75]
		}
	}
}