{
	"credit": "Made with Blockbench",
	"ambientocclusion": false,
	"texture_size": [64, 64],
	"textures": {
		"1": "block/twisted_books/admin_book_texture",
		"particle": "block/twisted_books/admin_book_texture"
	},
	"elements": [
		{
			"name": "Paper",
			"from": [2.5, 0.5, 6.5],
			"to": [13.5, 15.5, 9.5],
			"faces": {
				"north": {"uv": [3, 7, 5.75, 10.75], "texture": "#1"},
				"east": {"uv": [1.5, 8, 2.25, 11.75], "texture": "#1"},
				"south": {"uv": [6, 0, 8.75, 3.75], "texture": "#1"},
				"west": {"uv": [2.25, 8, 3, 11.75], "texture": "#1"},
				"up": {"uv": [5.75, 0.75, 3, 0], "texture": "#1"},
				"down": {"uv": [5.75, 0.75, 3, 1.5], "texture": "#1"}
			}
		},
		{
			"name": "Outside",
			"from": [13.5, 0, 6.5],
			"to": [14, 16, 9.5],
			"faces": {
				"north": {"uv": [9, 4, 9.25, 8], "texture": "#1"},
				"east": {"uv": [0, 8, 0.75, 12], "texture": "#1"},
				"south": {"uv": [9, 9, 9.25, 13], "texture": "#1"},
				"west": {"uv": [0.75, 8, 1.5, 12], "texture": "#1"},
				"up": {"uv": [6, 1.5, 5.75, 0.75], "texture": "#1"},
				"down": {"uv": [6, 0, 5.75, 0.75], "texture": "#1"}
			}
		},
		{
			"name": "Outside",
			"from": [2, 0, 6],
			"to": [14, 16, 6.5],
			"faces": {
				"north": {"uv": [6, 6, 9, 10], "texture": "#1"},
				"east": {"uv": [9, 0, 9.25, 4], "texture": "#1"},
				"south": {"uv": [0, 4, 3, 8], "texture": "#1"},
				"west": {"uv": [8.75, 0, 9, 4], "texture": "#1"},
				"up": {"uv": [6, 2.5, 3, 2.25], "texture": "#1"},
				"down": {"uv": [6, 1.5, 3, 1.75], "texture": "#1"}
			}
		},
		{
			"name": "Outside",
			"from": [2, 0, 9.5],
			"to": [14, 16, 10],
			"faces": {
				"north": {"uv": [0, 0, 3, 4], "texture": "#1"},
				"east": {"uv": [9.25, 9.25, 9.5, 13.25], "texture": "#1"},
				"south": {"uv": [3, 3, 6, 7], "texture": "#1"},
				"west": {"uv": [5.75, 7, 6, 11], "texture": "#1"},
				"up": {"uv": [6, 2, 3, 1.75], "texture": "#1"},
				"down": {"uv": [6, 2, 3, 2.25], "texture": "#1"}
			}
		},
		{
			"from": [2, 15.25, 5.75],
			"to": [4, 16, 6],
			"rotation": {"angle": 0, "axis": "y", "origin": [10, 6.25, 13.75]},
			"faces": {
				"north": {"uv": [7.5, 5.25, 8, 5.5], "texture": "#1"},
				"east": {"uv": [9.25, 9, 9.5, 9.25], "texture": "#1"},
				"south": {"uv": [7.75, 3.75, 8.25, 4], "texture": "#1"},
				"west": {"uv": [9.25, 7.5, 9.5, 7.75], "texture": "#1"},
				"up": {"uv": [8.25, 4.25, 7.75, 4], "texture": "#1"},
				"down": {"uv": [8.25, 4.25, 7.75, 4.5], "texture": "#1"}
			}
		},
		{
			"from": [2, 14, 5.75],
			"to": [2.75, 15.25, 6],
			"rotation": {"angle": 0, "axis": "z", "origin": [9.75, 7, 13.75]},
			"faces": {
				"north": {"uv": [9.5, 0.5, 9.75, 0.75], "texture": "#1"},
				"east": {"uv": [9.5, 1, 9.75, 1.25], "texture": "#1"},
				"south": {"uv": [9.5, 1.5, 9.75, 1.75], "texture": "#1"},
				"west": {"uv": [9.75, 1, 10, 1.25], "texture": "#1"},
				"up": {"uv": [10, 1.75, 9.75, 1.5], "texture": "#1"},
				"down": {"uv": [10, 1.75, 9.75, 2], "texture": "#1"}
			}
		},
		{
			"from": [13.25, 14, 5.75],
			"to": [14, 15.25, 6],
			"rotation": {"angle": 0, "axis": "z", "origin": [15, 7, 13.75]},
			"faces": {
				"north": {"uv": [9.75, 10, 10, 10.25], "texture": "#1"},
				"east": {"uv": [10, 0.25, 10.25, 0.5], "texture": "#1"},
				"south": {"uv": [10, 0.5, 10.25, 0.75], "texture": "#1"},
				"west": {"uv": [10, 1, 10.25, 1.25], "texture": "#1"},
				"up": {"uv": [10.25, 2, 10, 1.75], "texture": "#1"},
				"down": {"uv": [6.25, 10.25, 6, 10.5], "texture": "#1"}
			}
		},
		{
			"from": [13.25, 0.75, 5.75],
			"to": [14, 2, 6],
			"rotation": {"angle": 0, "axis": "z", "origin": [15, -0.25, 13.75]},
			"faces": {
				"north": {"uv": [6.5, 10.25, 6.75, 10.5], "texture": "#1"},
				"east": {"uv": [9.25, 3.25, 9.5, 3.5], "texture": "#1"},
				"south": {"uv": [9.25, 3.75, 9.5, 4], "texture": "#1"},
				"west": {"uv": [9.25, 4.25, 9.5, 4.5], "texture": "#1"},
				"up": {"uv": [9.5, 4.75, 9.25, 4.5], "texture": "#1"},
				"down": {"uv": [9.5, 4.75, 9.25, 5], "texture": "#1"}
			}
		},
		{
			"from": [2, 0.75, 5.75],
			"to": [2.75, 2, 6],
			"rotation": {"angle": 0, "axis": "z", "origin": [8.75, -0.25, 13.75]},
			"faces": {
				"north": {"uv": [9.25, 5.25, 9.5, 5.5], "texture": "#1"},
				"east": {"uv": [9.25, 5.75, 9.5, 6], "texture": "#1"},
				"south": {"uv": [9.25, 6, 9.5, 6.25], "texture": "#1"},
				"west": {"uv": [9.25, 6.25, 9.5, 6.5], "texture": "#1"},
				"up": {"uv": [9.5, 7, 9.25, 6.75], "texture": "#1"},
				"down": {"uv": [9.5, 7.25, 9.25, 7.5], "texture": "#1"}
			}
		},
		{
			"from": [12, 15.25, 5.75],
			"to": [14, 16, 6],
			"rotation": {"angle": 0, "axis": "y", "origin": [16, 6.25, 13.75]},
			"faces": {
				"north": {"uv": [7.75, 4.5, 8.25, 4.75], "texture": "#1"},
				"east": {"uv": [9.25, 8.25, 9.5, 8.5], "texture": "#1"},
				"south": {"uv": [8.25, 5, 8.75, 5.25], "texture": "#1"},
				"west": {"uv": [9.5, 9.5, 9.75, 9.75], "texture": "#1"},
				"up": {"uv": [8.75, 5.5, 8.25, 5.25], "texture": "#1"},
				"down": {"uv": [8.75, 5.5, 8.25, 5.75], "texture": "#1"}
			}
		},
		{
			"from": [12, 0, 5.75],
			"to": [14, 0.75, 6],
			"rotation": {"angle": 0, "axis": "y", "origin": [16, -4, 13.75]},
			"faces": {
				"north": {"uv": [8.5, 4, 9, 4.25], "texture": "#1"},
				"east": {"uv": [9.5, 1.25, 9.75, 1.5], "texture": "#1"},
				"south": {"uv": [4.5, 2.5, 5, 2.75], "texture": "#1"},
				"west": {"uv": [9.75, 0.75, 10, 1], "texture": "#1"},
				"up": {"uv": [5, 3, 4.5, 2.75], "texture": "#1"},
				"down": {"uv": [5.5, 2.5, 5, 2.75], "texture": "#1"}
			}
		},
		{
			"from": [2, 0, 5.75],
			"to": [4, 0.75, 6],
			"rotation": {"angle": 0, "axis": "y", "origin": [12, -4, 13.75]},
			"faces": {
				"north": {"uv": [5, 2.75, 5.5, 3], "texture": "#1"},
				"east": {"uv": [9.75, 2, 10, 2.25], "texture": "#1"},
				"south": {"uv": [5.5, 2.5, 6, 2.75], "texture": "#1"},
				"west": {"uv": [10, 0, 10.25, 0.25], "texture": "#1"},
				"up": {"uv": [6, 3, 5.5, 2.75], "texture": "#1"},
				"down": {"uv": [6.75, 4.5, 6.25, 4.75], "texture": "#1"}
			}
		},
		{
			"from": [2, 15.25, 10],
			"to": [4, 16, 10.25],
			"rotation": {"angle": 0, "axis": "y", "origin": [10, 6.25, 18]},
			"faces": {
				"north": {"uv": [6.25, 4.75, 6.75, 5], "texture": "#1"},
				"east": {"uv": [10, 1.5, 10.25, 1.75], "texture": "#1"},
				"south": {"uv": [6.25, 5, 6.75, 5.25], "texture": "#1"},
				"west": {"uv": [10, 2, 10.25, 2.25], "texture": "#1"},
				"up": {"uv": [6.75, 5.5, 6.25, 5.25], "texture": "#1"},
				"down": {"uv": [6.75, 5.5, 6.25, 5.75], "texture": "#1"}
			}
		},
		{
			"from": [2, 14, 10],
			"to": [2.75, 15.25, 10.25],
			"rotation": {"angle": 0, "axis": "z", "origin": [9.75, 7, 18]},
			"faces": {
				"north": {"uv": [6.75, 10.25, 7, 10.5], "texture": "#1"},
				"east": {"uv": [7, 10.25, 7.25, 10.5], "texture": "#1"},
				"south": {"uv": [10.25, 3.5, 10.5, 3.75], "texture": "#1"},
				"west": {"uv": [10.25, 4, 10.5, 4.25], "texture": "#1"},
				"up": {"uv": [10.5, 4.5, 10.25, 4.25], "texture": "#1"},
				"down": {"uv": [10.5, 4.5, 10.25, 4.75], "texture": "#1"}
			}
		},
		{
			"from": [13.25, 14, 10],
			"to": [14, 15.25, 10.25],
			"rotation": {"angle": 0, "axis": "z", "origin": [15, 7, 18]},
			"faces": {
				"north": {"uv": [10.25, 5, 10.5, 5.25], "texture": "#1"},
				"east": {"uv": [10.25, 5.5, 10.5, 5.75], "texture": "#1"},
				"south": {"uv": [10.25, 5.75, 10.5, 6], "texture": "#1"},
				"west": {"uv": [10.25, 6, 10.5, 6.25], "texture": "#1"},
				"up": {"uv": [8.75, 5, 8.5, 4.75], "texture": "#1"},
				"down": {"uv": [9.5, 0, 9.25, 0.25], "texture": "#1"}
			}
		},
		{
			"from": [13.25, 0.75, 10],
			"to": [14, 2, 10.25],
			"rotation": {"angle": 0, "axis": "z", "origin": [15, -0.25, 18]},
			"faces": {
				"north": {"uv": [9.25, 0.25, 9.5, 0.5], "texture": "#1"},
				"east": {"uv": [9.25, 0.5, 9.5, 0.75], "texture": "#1"},
				"south": {"uv": [9.25, 0.75, 9.5, 1], "texture": "#1"},
				"west": {"uv": [9.25, 1, 9.5, 1.25], "texture": "#1"},
				"up": {"uv": [9.5, 1.5, 9.25, 1.25], "texture": "#1"},
				"down": {"uv": [9.5, 1.5, 9.25, 1.75], "texture": "#1"}
			}
		},
		{
			"from": [2, 0.75, 10],
			"to": [2.75, 2, 10.25],
			"rotation": {"angle": 0, "axis": "z", "origin": [8.75, -0.25, 18]},
			"faces": {
				"north": {"uv": [9.25, 1.75, 9.5, 2], "texture": "#1"},
				"east": {"uv": [9.25, 2, 9.5, 2.25], "texture": "#1"},
				"south": {"uv": [9.25, 2.25, 9.5, 2.5], "texture": "#1"},
				"west": {"uv": [9.25, 2.5, 9.5, 2.75], "texture": "#1"},
				"up": {"uv": [9.5, 3, 9.25, 2.75], "texture": "#1"},
				"down": {"uv": [9.5, 3, 9.25, 3.25], "texture": "#1"}
			}
		},
		{
			"from": [12, 15.25, 10],
			"to": [14, 16, 10.25],
			"rotation": {"angle": 0, "axis": "y", "origin": [16, 6.25, 18]},
			"faces": {
				"north": {"uv": [6.25, 5.75, 6.75, 6], "texture": "#1"},
				"east": {"uv": [9.25, 3.5, 9.5, 3.75], "texture": "#1"},
				"south": {"uv": [9, 8.75, 9.5, 9], "texture": "#1"},
				"west": {"uv": [9.25, 4, 9.5, 4.25], "texture": "#1"},
				"up": {"uv": [7, 4.5, 6.5, 4.25], "texture": "#1"},
				"down": {"uv": [7.25, 3.75, 6.75, 4], "texture": "#1"}
			}
		},
		{
			"from": [12, 0, 10],
			"to": [14, 0.75, 10.25],
			"rotation": {"angle": 0, "axis": "y", "origin": [16, -4, 18]},
			"faces": {
				"north": {"uv": [6.75, 4, 7.25, 4.25], "texture": "#1"},
				"east": {"uv": [9.25, 5, 9.5, 5.25], "texture": "#1"},
				"south": {"uv": [6.75, 4.5, 7.25, 4.75], "texture": "#1"},
				"west": {"uv": [9.25, 5.5, 9.5, 5.75], "texture": "#1"},
				"up": {"uv": [7.25, 5, 6.75, 4.75], "texture": "#1"},
				"down": {"uv": [7.25, 5, 6.75, 5.25], "texture": "#1"}
			}
		},
		{
			"from": [2, 0, 10],
			"to": [4, 0.75, 10.25],
			"rotation": {"angle": 0, "axis": "y", "origin": [12, -4, 18]},
			"faces": {
				"north": {"uv": [6.75, 5.25, 7.25, 5.5], "texture": "#1"},
				"east": {"uv": [9.25, 6.5, 9.5, 6.75], "texture": "#1"},
				"south": {"uv": [6.75, 5.5, 7.25, 5.75], "texture": "#1"},
				"west": {"uv": [9.25, 7, 9.5, 7.25], "texture": "#1"},
				"up": {"uv": [7.25, 6, 6.75, 5.75], "texture": "#1"},
				"down": {"uv": [7.5, 4.25, 7, 4.5], "texture": "#1"}
			}
		},
		{
			"from": [14, 14.5, 7.5],
			"to": [14.25, 15.25, 9.5],
			"rotation": {"angle": 0, "axis": "y", "origin": [22, 23, 14.5]},
			"faces": {
				"north": {"uv": [9.25, 7.75, 9.5, 8], "texture": "#1"},
				"east": {"uv": [7.25, 3.75, 7.75, 4], "texture": "#1"},
				"south": {"uv": [9.25, 8.5, 9.5, 8.75], "texture": "#1"},
				"west": {"uv": [7.25, 4, 7.75, 4.25], "texture": "#1"},
				"up": {"uv": [7.5, 5, 7.25, 4.5], "texture": "#1"},
				"down": {"uv": [7.5, 5, 7.25, 5.5], "texture": "#1"}
			}
		},
		{
			"from": [14, 13, 7.5],
			"to": [14.25, 13.75, 9.5],
			"rotation": {"angle": 0, "axis": "y", "origin": [22, 23, 14.5]},
			"faces": {
				"north": {"uv": [9.5, 0.25, 9.75, 0.5], "texture": "#1"},
				"east": {"uv": [7.25, 5.5, 7.75, 5.75], "texture": "#1"},
				"south": {"uv": [9.5, 0.75, 9.75, 1], "texture": "#1"},
				"west": {"uv": [7.25, 5.75, 7.75, 6], "texture": "#1"},
				"up": {"uv": [7.75, 4.75, 7.5, 4.25], "texture": "#1"},
				"down": {"uv": [7.75, 4.75, 7.5, 5.25], "texture": "#1"}
			}
		},
		{
			"from": [14, 14.5, 7],
			"to": [14.25, 15.25, 7.5],
			"rotation": {"angle": 0, "axis": "y", "origin": [22, 23, 14.5]},
			"faces": {
				"north": {"uv": [9.5, 1.75, 9.75, 2], "texture": "#1"},
				"east": {"uv": [9.5, 2, 9.75, 2.25], "texture": "#1"},
				"south": {"uv": [9.5, 2.25, 9.75, 2.5], "texture": "#1"},
				"west": {"uv": [9.5, 2.5, 9.75, 2.75], "texture": "#1"},
				"up": {"uv": [9.75, 3, 9.5, 2.75], "texture": "#1"},
				"down": {"uv": [9.75, 3, 9.5, 3.25], "texture": "#1"}
			}
		},
		{
			"from": [14, 13, 7],
			"to": [14.25, 13.75, 7.5],
			"rotation": {"angle": 0, "axis": "y", "origin": [22, 23, 14.5]},
			"faces": {
				"north": {"uv": [9.5, 3.25, 9.75, 3.5], "texture": "#1"},
				"east": {"uv": [9.5, 3.5, 9.75, 3.75], "texture": "#1"},
				"south": {"uv": [9.5, 3.75, 9.75, 4], "texture": "#1"},
				"west": {"uv": [9.5, 4, 9.75, 4.25], "texture": "#1"},
				"up": {"uv": [9.75, 4.5, 9.5, 4.25], "texture": "#1"},
				"down": {"uv": [9.75, 4.5, 9.5, 4.75], "texture": "#1"}
			}
		},
		{
			"from": [14, 14.5, 6.5],
			"to": [14.25, 14.875, 7],
			"rotation": {"angle": 0, "axis": "y", "origin": [22, 23, 14.5]},
			"faces": {
				"north": {"uv": [9.5, 4.75, 9.75, 5], "texture": "#1"},
				"east": {"uv": [9.5, 5, 9.75, 5.25], "texture": "#1"},
				"south": {"uv": [9.5, 5.25, 9.75, 5.5], "texture": "#1"},
				"west": {"uv": [9.5, 5.5, 9.75, 5.75], "texture": "#1"},
				"up": {"uv": [9.75, 6, 9.5, 5.75], "texture": "#1"},
				"down": {"uv": [9.75, 6, 9.5, 6.25], "texture": "#1"}
			}
		},
		{
			"from": [14, 13.375, 6.5],
			"to": [14.25, 13.75, 7],
			"rotation": {"angle": 0, "axis": "y", "origin": [22, 23.125, 14.5]},
			"faces": {
				"north": {"uv": [9.5, 6.25, 9.75, 6.5], "texture": "#1"},
				"east": {"uv": [9.5, 6.5, 9.75, 6.75], "texture": "#1"},
				"south": {"uv": [9.5, 6.75, 9.75, 7], "texture": "#1"},
				"west": {"uv": [9.5, 7, 9.75, 7.25], "texture": "#1"},
				"up": {"uv": [9.75, 7.5, 9.5, 7.25], "texture": "#1"},
				"down": {"uv": [9.75, 7.5, 9.5, 7.75], "texture": "#1"}
			}
		},
		{
			"from": [14, 13.75, 6.5],
			"to": [14.25, 14.5, 7],
			"rotation": {"angle": 0, "axis": "y", "origin": [22, 23.25, 14.5]},
			"faces": {
				"north": {"uv": [9.5, 7.75, 9.75, 8], "texture": "#1"},
				"east": {"uv": [9.5, 8, 9.75, 8.25], "texture": "#1"},
				"south": {"uv": [9.5, 8.25, 9.75, 8.5], "texture": "#1"},
				"west": {"uv": [9.5, 8.5, 9.75, 8.75], "texture": "#1"},
				"up": {"uv": [9.75, 9, 9.5, 8.75], "texture": "#1"},
				"down": {"uv": [9.75, 9, 9.5, 9.25], "texture": "#1"}
			}
		},
		{
			"from": [14, 13.75, 8],
			"to": [14.25, 14.5, 8.5],
			"rotation": {"angle": 0, "axis": "y", "origin": [22, 23.25, 14.25]},
			"faces": {
				"north": {"uv": [9.5, 9.25, 9.75, 9.5], "texture": "#1"},
				"east": {"uv": [9.5, 9.75, 9.75, 10], "texture": "#1"},
				"south": {"uv": [9.75, 9.75, 10, 10], "texture": "#1"},
				"west": {"uv": [9.75, 0, 10, 0.25], "texture": "#1"},
				"up": {"uv": [10, 0.5, 9.75, 0.25], "texture": "#1"},
				"down": {"uv": [10, 0.5, 9.75, 0.75], "texture": "#1"}
			}
		},
		{
			"from": [14, 11.5, 6.5],
			"to": [14.25, 12.25, 9.5],
			"rotation": {"angle": 0, "axis": "y", "origin": [22, 23, 14.5]},
			"faces": {
				"north": {"uv": [10.5, 0.5, 10.75, 0.75], "texture": "#1"},
				"east": {"uv": [3, 2.5, 3.75, 2.75], "texture": "#1"},
				"south": {"uv": [9.75, 1.25, 10, 1.5], "texture": "#1"},
				"west": {"uv": [3.75, 2.75, 4.5, 3], "texture": "#1"},
				"up": {"uv": [6.25, 5.25, 6, 4.5], "texture": "#1"},
				"down": {"uv": [6.25, 5.25, 6, 6], "texture": "#1"}
			}
		},
		{
			"from": [14, 10.75, 6.5],
			"to": [14.25, 11.5, 7],
			"rotation": {"angle": 0, "axis": "y", "origin": [22, 20.25, 14.5]},
			"faces": {
				"north": {"uv": [9.75, 2.25, 10, 2.5], "texture": "#1"},
				"east": {"uv": [9.75, 2.5, 10, 2.75], "texture": "#1"},
				"south": {"uv": [9.75, 2.75, 10, 3], "texture": "#1"},
				"west": {"uv": [9.75, 3, 10, 3.25], "texture": "#1"},
				"up": {"uv": [10, 3.5, 9.75, 3.25], "texture": "#1"},
				"down": {"uv": [10, 3.5, 9.75, 3.75], "texture": "#1"}
			}
		},
		{
			"from": [14, 10.75, 9],
			"to": [14.25, 11.5, 9.5],
			"rotation": {"angle": 0, "axis": "y", "origin": [22, 20.25, 14.5]},
			"faces": {
				"north": {"uv": [9.75, 3.75, 10, 4], "texture": "#1"},
				"east": {"uv": [9.75, 4, 10, 4.25], "texture": "#1"},
				"south": {"uv": [9.75, 4.25, 10, 4.5], "texture": "#1"},
				"west": {"uv": [9.75, 4.5, 10, 4.75], "texture": "#1"},
				"up": {"uv": [10, 5, 9.75, 4.75], "texture": "#1"},
				"down": {"uv": [10, 5, 9.75, 5.25], "texture": "#1"}
			}
		},
		{
			"from": [14, 10, 8.5],
			"to": [14.25, 10.75, 9],
			"rotation": {"angle": 0, "axis": "y", "origin": [22, 20.25, 14.5]},
			"faces": {
				"north": {"uv": [9.75, 5.25, 10, 5.5], "texture": "#1"},
				"east": {"uv": [9.75, 5.5, 10, 5.75], "texture": "#1"},
				"south": {"uv": [9.75, 5.75, 10, 6], "texture": "#1"},
				"west": {"uv": [9.75, 6, 10, 6.25], "texture": "#1"},
				"up": {"uv": [10, 6.5, 9.75, 6.25], "texture": "#1"},
				"down": {"uv": [10, 6.5, 9.75, 6.75], "texture": "#1"}
			}
		},
		{
			"from": [14, 10, 7.5],
			"to": [14.25, 10.75, 8.5],
			"rotation": {"angle": 0, "axis": "y", "origin": [22, 20.25, 14.5]},
			"faces": {
				"north": {"uv": [9.75, 6.75, 10, 7], "texture": "#1"},
				"east": {"uv": [9.75, 7, 10, 7.25], "texture": "#1"},
				"south": {"uv": [9.75, 7.25, 10, 7.5], "texture": "#1"},
				"west": {"uv": [9.75, 7.5, 10, 7.75], "texture": "#1"},
				"up": {"uv": [10, 8, 9.75, 7.75], "texture": "#1"},
				"down": {"uv": [10, 8, 9.75, 8.25], "texture": "#1"}
			}
		},
		{
			"from": [14, 10, 7],
			"to": [14.25, 10.75, 7.5],
			"rotation": {"angle": 0, "axis": "y", "origin": [22, 20.25, 14.5]},
			"faces": {
				"north": {"uv": [9.75, 8.25, 10, 8.5], "texture": "#1"},
				"east": {"uv": [9.75, 8.5, 10, 8.75], "texture": "#1"},
				"south": {"uv": [9.75, 8.75, 10, 9], "texture": "#1"},
				"west": {"uv": [9.75, 9, 10, 9.25], "texture": "#1"},
				"up": {"uv": [10, 9.5, 9.75, 9.25], "texture": "#1"},
				"down": {"uv": [10, 9.5, 9.75, 9.75], "texture": "#1"}
			}
		},
		{
			"from": [14, 10.375, 6.5],
			"to": [14.25, 10.75, 7],
			"rotation": {"angle": 0, "axis": "y", "origin": [22, 23.125, 14.5]},
			"faces": {
				"north": {"uv": [6, 10, 6.25, 10.25], "texture": "#1"},
				"east": {"uv": [6.25, 10, 6.5, 10.25], "texture": "#1"},
				"south": {"uv": [6.5, 10, 6.75, 10.25], "texture": "#1"},
				"west": {"uv": [6.75, 10, 7, 10.25], "texture": "#1"},
				"up": {"uv": [7.25, 10.25, 7, 10], "texture": "#1"},
				"down": {"uv": [7.5, 10, 7.25, 10.25], "texture": "#1"}
			}
		},
		{
			"from": [14, 10.375, 9],
			"to": [14.25, 10.75, 9.5],
			"rotation": {"angle": 0, "axis": "y", "origin": [22, 23.125, 14.5]},
			"faces": {
				"north": {"uv": [7.5, 10, 7.75, 10.25], "texture": "#1"},
				"east": {"uv": [7.75, 10, 8, 10.25], "texture": "#1"},
				"south": {"uv": [8, 10, 8.25, 10.25], "texture": "#1"},
				"west": {"uv": [8.25, 10, 8.5, 10.25], "texture": "#1"},
				"up": {"uv": [8.75, 10.25, 8.5, 10], "texture": "#1"},
				"down": {"uv": [9, 10, 8.75, 10.25], "texture": "#1"}
			}
		},
		{
			"from": [14, 8.5, 7.5],
			"to": [14.25, 9.25, 9.5],
			"rotation": {"angle": 0, "axis": "y", "origin": [22, 23, 14.5]},
			"faces": {
				"north": {"uv": [9.5, 10, 9.75, 10.25], "texture": "#1"},
				"east": {"uv": [7.75, 4.75, 8.25, 5], "texture": "#1"},
				"south": {"uv": [10, 10, 10.25, 10.25], "texture": "#1"},
				"west": {"uv": [7.75, 5, 8.25, 5.25], "texture": "#1"},
				"up": {"uv": [8, 6, 7.75, 5.5], "texture": "#1"},
				"down": {"uv": [8.25, 5.25, 8, 5.75], "texture": "#1"}
			}
		},
		{
			"from": [14, 7, 7.5],
			"to": [14.25, 7.75, 9.5],
			"rotation": {"angle": 0, "axis": "y", "origin": [22, 23, 14.5]},
			"faces": {
				"north": {"uv": [10, 0.75, 10.25, 1], "texture": "#1"},
				"east": {"uv": [8, 5.75, 8.5, 6], "texture": "#1"},
				"south": {"uv": [10, 1.25, 10.25, 1.5], "texture": "#1"},
				"west": {"uv": [8.25, 3.75, 8.75, 4], "texture": "#1"},
				"up": {"uv": [8.5, 4.5, 8.25, 4], "texture": "#1"},
				"down": {"uv": [8.5, 4.5, 8.25, 5], "texture": "#1"}
			}
		},
		{
			"from": [14, 7.75, 7.5],
			"to": [14.25, 8.5, 8.5],
			"rotation": {"angle": 0, "axis": "y", "origin": [22, 20.25, 14.5]},
			"faces": {
				"north": {"uv": [10, 2.25, 10.25, 2.5], "texture": "#1"},
				"east": {"uv": [10, 2.5, 10.25, 2.75], "texture": "#1"},
				"south": {"uv": [10, 2.75, 10.25, 3], "texture": "#1"},
				"west": {"uv": [10, 3, 10.25, 3.25], "texture": "#1"},
				"up": {"uv": [10.25, 3.5, 10, 3.25], "texture": "#1"},
				"down": {"uv": [10.25, 3.5, 10, 3.75], "texture": "#1"}
			}
		},
		{
			"from": [14, 8.5, 7],
			"to": [14.25, 9.25, 7.5],
			"rotation": {"angle": 0, "axis": "y", "origin": [22, 23, 14.5]},
			"faces": {
				"north": {"uv": [10, 3.75, 10.25, 4], "texture": "#1"},
				"east": {"uv": [10, 4, 10.25, 4.25], "texture": "#1"},
				"south": {"uv": [10, 4.25, 10.25, 4.5], "texture": "#1"},
				"west": {"uv": [10, 4.5, 10.25, 4.75], "texture": "#1"},
				"up": {"uv": [10.25, 5, 10, 4.75], "texture": "#1"},
				"down": {"uv": [10.25, 5, 10, 5.25], "texture": "#1"}
			}
		},
		{
			"from": [14, 7, 7],
			"to": [14.25, 7.75, 7.5],
			"rotation": {"angle": 0, "axis": "y", "origin": [22, 23, 14.5]},
			"faces": {
				"north": {"uv": [10, 5.25, 10.25, 5.5], "texture": "#1"},
				"east": {"uv": [10, 5.5, 10.25, 5.75], "texture": "#1"},
				"south": {"uv": [10, 5.75, 10.25, 6], "texture": "#1"},
				"west": {"uv": [10, 6, 10.25, 6.25], "texture": "#1"},
				"up": {"uv": [10.25, 6.5, 10, 6.25], "texture": "#1"},
				"down": {"uv": [10.25, 6.5, 10, 6.75], "texture": "#1"}
			}
		},
		{
			"from": [14, 8.875, 6.5],
			"to": [14.25, 9.25, 7],
			"rotation": {"angle": 0, "axis": "y", "origin": [22, 23.125, 14.5]},
			"faces": {
				"north": {"uv": [10, 6.75, 10.25, 7], "texture": "#1"},
				"east": {"uv": [10, 7, 10.25, 7.25], "texture": "#1"},
				"south": {"uv": [10, 7.25, 10.25, 7.5], "texture": "#1"},
				"west": {"uv": [10, 7.5, 10.25, 7.75], "texture": "#1"},
				"up": {"uv": [10.25, 8, 10, 7.75], "texture": "#1"},
				"down": {"uv": [10.25, 8, 10, 8.25], "texture": "#1"}
			}
		},
		{
			"from": [14, 7, 6.5],
			"to": [14.25, 7.375, 7],
			"rotation": {"angle": 0, "axis": "y", "origin": [22, 23.25, 14.5]},
			"faces": {
				"north": {"uv": [10, 8.25, 10.25, 8.5], "texture": "#1"},
				"east": {"uv": [10, 8.5, 10.25, 8.75], "texture": "#1"},
				"south": {"uv": [10, 8.75, 10.25, 9], "texture": "#1"},
				"west": {"uv": [10, 9, 10.25, 9.25], "texture": "#1"},
				"up": {"uv": [10.25, 9.5, 10, 9.25], "texture": "#1"},
				"down": {"uv": [10.25, 9.5, 10, 9.75], "texture": "#1"}
			}
		},
		{
			"from": [14, 4.75, 6.5],
			"to": [14.25, 5.5, 9.5],
			"rotation": {"angle": 0, "axis": "y", "origin": [22, 23, 14.5]},
			"faces": {
				"north": {"uv": [10, 9.75, 10.25, 10], "texture": "#1"},
				"east": {"uv": [3, 2.75, 3.75, 3], "texture": "#1"},
				"south": {"uv": [6.25, 10.25, 6.5, 10.5], "texture": "#1"},
				"west": {"uv": [3.75, 2.5, 4.5, 2.75], "texture": "#1"},
				"up": {"uv": [6.5, 4.5, 6.25, 3.75], "texture": "#1"},
				"down": {"uv": [6.25, 3.75, 6, 4.5], "texture": "#1"}
			}
		},
		{
			"from": [14, 5.5, 6.5],
			"to": [14.25, 6.25, 7],
			"rotation": {"angle": 0, "axis": "y", "origin": [22, 23.25, 14.5]},
			"faces": {
				"north": {"uv": [7.25, 10.25, 7.5, 10.5], "texture": "#1"},
				"east": {"uv": [7.5, 10.25, 7.75, 10.5], "texture": "#1"},
				"south": {"uv": [7.75, 10.25, 8, 10.5], "texture": "#1"},
				"west": {"uv": [8, 10.25, 8.25, 10.5], "texture": "#1"},
				"up": {"uv": [8.5, 10.5, 8.25, 10.25], "texture": "#1"},
				"down": {"uv": [8.75, 10.25, 8.5, 10.5], "texture": "#1"}
			}
		},
		{
			"from": [14, 5.5, 9],
			"to": [14.25, 6.25, 9.5],
			"rotation": {"angle": 0, "axis": "y", "origin": [22, 23.25, 14.5]},
			"faces": {
				"north": {"uv": [8.75, 10.25, 9, 10.5], "texture": "#1"},
				"east": {"uv": [9.5, 10.25, 9.75, 10.5], "texture": "#1"},
				"south": {"uv": [9.75, 10.25, 10, 10.5], "texture": "#1"},
				"west": {"uv": [10, 10.25, 10.25, 10.5], "texture": "#1"},
				"up": {"uv": [10.5, 10.5, 10.25, 10.25], "texture": "#1"},
				"down": {"uv": [10.5, 0, 10.25, 0.25], "texture": "#1"}
			}
		},
		{
			"from": [14, 4, 9],
			"to": [14.25, 4.75, 9.5],
			"rotation": {"angle": 0, "axis": "y", "origin": [22, 23.25, 14.5]},
			"faces": {
				"north": {"uv": [10.25, 0.25, 10.5, 0.5], "texture": "#1"},
				"east": {"uv": [10.25, 0.5, 10.5, 0.75], "texture": "#1"},
				"south": {"uv": [10.25, 0.75, 10.5, 1], "texture": "#1"},
				"west": {"uv": [10.25, 1, 10.5, 1.25], "texture": "#1"},
				"up": {"uv": [10.5, 1.5, 10.25, 1.25], "texture": "#1"},
				"down": {"uv": [10.5, 1.5, 10.25, 1.75], "texture": "#1"}
			}
		},
		{
			"from": [14, 4, 6.5],
			"to": [14.25, 4.75, 7],
			"rotation": {"angle": 0, "axis": "y", "origin": [22, 23.25, 14.5]},
			"faces": {
				"north": {"uv": [10.25, 1.75, 10.5, 2], "texture": "#1"},
				"east": {"uv": [10.25, 2, 10.5, 2.25], "texture": "#1"},
				"south": {"uv": [10.25, 2.25, 10.5, 2.5], "texture": "#1"},
				"west": {"uv": [10.25, 2.5, 10.5, 2.75], "texture": "#1"},
				"up": {"uv": [10.5, 3, 10.25, 2.75], "texture": "#1"},
				"down": {"uv": [10.5, 3, 10.25, 3.25], "texture": "#1"}
			}
		},
		{
			"from": [14, 2.5, 7.5],
			"to": [14.25, 3.25, 9.5],
			"rotation": {"angle": 0, "axis": "y", "origin": [22, 23, 14.5]},
			"faces": {
				"north": {"uv": [10.25, 3.25, 10.5, 3.5], "texture": "#1"},
				"east": {"uv": [8.5, 4.25, 9, 4.5], "texture": "#1"},
				"south": {"uv": [10.25, 3.75, 10.5, 4], "texture": "#1"},
				"west": {"uv": [8.5, 4.5, 9, 4.75], "texture": "#1"},
				"up": {"uv": [9, 5.25, 8.75, 4.75], "texture": "#1"},
				"down": {"uv": [9, 5.25, 8.75, 5.75], "texture": "#1"}
			}
		},
		{
			"from": [14, 1, 6.5],
			"to": [14.25, 1.75, 8.5],
			"rotation": {"angle": 0, "axis": "y", "origin": [22, 23, 14.5]},
			"faces": {
				"north": {"uv": [10.25, 4.75, 10.5, 5], "texture": "#1"},
				"east": {"uv": [8.5, 5.75, 9, 6], "texture": "#1"},
				"south": {"uv": [10.25, 5.25, 10.5, 5.5], "texture": "#1"},
				"west": {"uv": [9, 8, 9.5, 8.25], "texture": "#1"},
				"up": {"uv": [9.25, 8.75, 9, 8.25], "texture": "#1"},
				"down": {"uv": [6.75, 3.75, 6.5, 4.25], "texture": "#1"}
			}
		},
		{
			"from": [14, 2.5, 7],
			"to": [14.25, 3.25, 7.5],
			"rotation": {"angle": 0, "axis": "y", "origin": [22, 23.25, 14.5]},
			"faces": {
				"north": {"uv": [10.25, 6.25, 10.5, 6.5], "texture": "#1"},
				"east": {"uv": [10.25, 6.5, 10.5, 6.75], "texture": "#1"},
				"south": {"uv": [10.25, 6.75, 10.5, 7], "texture": "#1"},
				"west": {"uv": [10.25, 7, 10.5, 7.25], "texture": "#1"},
				"up": {"uv": [10.5, 7.5, 10.25, 7.25], "texture": "#1"},
				"down": {"uv": [10.5, 7.5, 10.25, 7.75], "texture": "#1"}
			}
		},
		{
			"from": [14, 1.75, 8],
			"to": [14.25, 2.5, 8.5],
			"rotation": {"angle": 0, "axis": "y", "origin": [22, 23.25, 14.5]},
			"faces": {
				"north": {"uv": [10.25, 7.75, 10.5, 8], "texture": "#1"},
				"east": {"uv": [10.25, 8, 10.5, 8.25], "texture": "#1"},
				"south": {"uv": [10.25, 8.25, 10.5, 8.5], "texture": "#1"},
				"west": {"uv": [10.25, 8.5, 10.5, 8.75], "texture": "#1"},
				"up": {"uv": [10.5, 9, 10.25, 8.75], "texture": "#1"},
				"down": {"uv": [10.5, 9, 10.25, 9.25], "texture": "#1"}
			}
		},
		{
			"from": [14, 1, 8.5],
			"to": [14.25, 1.75, 9],
			"rotation": {"angle": 0, "axis": "y", "origin": [22, 23.25, 14.5]},
			"faces": {
				"north": {"uv": [10.25, 9.25, 10.5, 9.5], "texture": "#1"},
				"east": {"uv": [10.25, 9.5, 10.5, 9.75], "texture": "#1"},
				"south": {"uv": [10.25, 9.75, 10.5, 10], "texture": "#1"},
				"west": {"uv": [10.25, 10, 10.5, 10.25], "texture": "#1"},
				"up": {"uv": [6.25, 10.75, 6, 10.5], "texture": "#1"},
				"down": {"uv": [6.5, 10.5, 6.25, 10.75], "texture": "#1"}
			}
		},
		{
			"from": [14, 2.875, 6.5],
			"to": [14.25, 3.25, 7],
			"rotation": {"angle": 0, "axis": "y", "origin": [22, 23.375, 14.5]},
			"faces": {
				"north": {"uv": [6.5, 10.5, 6.75, 10.75], "texture": "#1"},
				"east": {"uv": [6.75, 10.5, 7, 10.75], "texture": "#1"},
				"south": {"uv": [7, 10.5, 7.25, 10.75], "texture": "#1"},
				"west": {"uv": [7.25, 10.5, 7.5, 10.75], "texture": "#1"},
				"up": {"uv": [7.75, 10.75, 7.5, 10.5], "texture": "#1"},
				"down": {"uv": [8, 10.5, 7.75, 10.75], "texture": "#1"}
			}
		},
		{
			"from": [14, 2.125, 7.5],
			"to": [14.25, 2.5, 8],
			"rotation": {"angle": 0, "axis": "y", "origin": [22, 23.625, 15.5]},
			"faces": {
				"north": {"uv": [8, 10.5, 8.25, 10.75], "texture": "#1"},
				"east": {"uv": [8.25, 10.5, 8.5, 10.75], "texture": "#1"},
				"south": {"uv": [8.5, 10.5, 8.75, 10.75], "texture": "#1"},
				"west": {"uv": [8.75, 10.5, 9, 10.75], "texture": "#1"},
				"up": {"uv": [9.75, 10.75, 9.5, 10.5], "texture": "#1"},
				"down": {"uv": [10, 10.5, 9.75, 10.75], "texture": "#1"}
			}
		},
		{
			"from": [14, 1, 9],
			"to": [14.25, 1.375, 9.5],
			"rotation": {"angle": 0, "axis": "y", "origin": [22, 24.5, 17]},
			"faces": {
				"north": {"uv": [10, 10.5, 10.25, 10.75], "texture": "#1"},
				"east": {"uv": [10.25, 10.5, 10.5, 10.75], "texture": "#1"},
				"south": {"uv": [10.5, 10.5, 10.75, 10.75], "texture": "#1"},
				"west": {"uv": [10.5, 0, 10.75, 0.25], "texture": "#1"},
				"up": {"uv": [10.75, 0.5, 10.5, 0.25], "texture": "#1"},
				"down": {"uv": [9.75, 0, 9.5, 0.25], "texture": "#1"}
			}
		}
	],
	"display": {
		"thirdperson_righthand": {
			"rotation": [0, 90, 0],
			"scale": [0.5, 0.5, 0.5]
		},
		"thirdperson_lefthand": {
			"rotation": [0, -90, 0],
			"scale": [0.5, 0.5, 0.5]
		},
		"firstperson_righthand": {
			"rotation": [3.25, 161.5, 0],
			"translation": [1.25, 2.5, 0],
			"scale": [0.5, 0.5, 0.5]
		},
		"firstperson_lefthand": {
			"rotation": [3.25, 161.5, 0],
			"translation": [1.25, 2.5, 0],
			"scale": [0.5, 0.5, 0.5]
		},
		"ground": {
			"translation": [0, 2.5, 0],
			"scale": [0.5, 0.5, 0.5]
		},
		"gui": {
			"rotation": [15, 165, 0],
			"translation": [0, -0.25, 0],
			"scale": [0.75, 0.75, 0.75]
		},
		"head": {
			"rotation": [90, 0, -30],
			"translation": [0, 8, 0],
			"scale": [0.75, 0.75, 0.75]
		},
		"fixed": {
			"translation": [0, 0, -1.5],
			"scale": [0.75, 0.75, 0.75]
		}
	},
	"groups": [0, 1, 2, 3,
		{
			"name": "corner_clasp",
			"origin": [8, 8, 8],
			"children": [
				{
					"name": "front_cover",
					"origin": [8, 8, 8],
					"children": [4, 5, 6, 7, 8, 9, 10, 11]
				},
				{
					"name": "back_cover",
					"origin": [8, 8, 8],
					"children": [12, 13, 14, 15, 16, 17, 18, 19]
				}
			]
		},
		{
			"name": "Binding Title",
			"origin": [8, 8, 8],
			"children": [
				{
					"name": "letter_a",
					"origin": [8, 8, 8],
					"children": [20, 21, 22, 23, 24, 25, 26, 27]
				},
				{
					"name": "letter_d",
					"origin": [8, 8, 8],
					"children": [28, 29, 30, 31, 32, 33, 34, 35]
				},
				{
					"name": "letter_m",
					"origin": [8, 8, 8],
					"children": [36, 37, 38, 39, 40, 41, 42]
				},
				{
					"name": "letter_i",
					"origin": [8, 8, 8],
					"children": [43, 44, 45, 46, 47]
				},
				{
					"name": "letter_n",
					"origin": [8, 8, 8],
					"children": [48, 49, 50, 51, 52, 53, 54, 55]
				}
			]
		}
	]
}