{
	"credit": "Made with Blockbench",
	"texture_size": [32, 32],
	"textures": {
		"0": "block/armor/reindeer/rudolph_helmet",
		"particle": "block/armor/reindeer/rudolph_helmet"
	},
	"elements": [
		{
			"from": [3, 6, 6],
			"to": [4, 13, 7],
			"rotation": {"angle": 0, "axis": "y", "origin": [11, 15, 14]},
			"faces": {
				"north": {"uv": [5, 1, 5.5, 4.5], "texture": "#0"},
				"east": {"uv": [5, 1, 5.5, 4.5], "texture": "#0"},
				"south": {"uv": [5, 1, 5.5, 4.5], "texture": "#0"},
				"west": {"uv": [5, 1, 5.5, 4.5], "texture": "#0"},
				"up": {"uv": [5, 1, 5.5, 4.5], "texture": "#0"},
				"down": {"uv": [5, 1, 5.5, 4.5], "texture": "#0"}
			}
		},
		{
			"from": [1, 10, 7],
			"to": [3, 12, 8],
			"rotation": {"angle": 0, "axis": "y", "origin": [9, 19, 15]},
			"faces": {
				"north": {"uv": [5, 1, 5.5, 4.5], "texture": "#0"},
				"east": {"uv": [5, 1, 5.5, 4.5], "texture": "#0"},
				"south": {"uv": [5, 1, 5.5, 4.5], "texture": "#0"},
				"west": {"uv": [5, 1, 5.5, 4.5], "texture": "#0"},
				"up": {"uv": [5, 1, 5.5, 4.5], "texture": "#0"},
				"down": {"uv": [5, 1, 5.5, 4.5], "texture": "#0"}
			}
		},
		{
			"from": [0, 10, 8],
			"to": [1, 13, 9],
			"rotation": {"angle": 0, "axis": "y", "origin": [8, 19, 16]},
			"faces": {
				"north": {"uv": [5, 1, 5.5, 4.5], "texture": "#0"},
				"east": {"uv": [5, 1, 5.5, 4.5], "texture": "#0"},
				"south": {"uv": [5, 1, 5.5, 4.5], "texture": "#0"},
				"west": {"uv": [5, 1, 5.5, 4.5], "texture": "#0"},
				"up": {"uv": [5, 1, 5.5, 4.5], "texture": "#0"},
				"down": {"uv": [5, 1, 5.5, 4.5], "texture": "#0"}
			}
		},
		{
			"from": [12, 6, 6],
			"to": [13, 13, 7],
			"rotation": {"angle": 0, "axis": "y", "origin": [5, 15, 14]},
			"faces": {
				"north": {"uv": [5, 1, 5.5, 4.5], "texture": "#0"},
				"east": {"uv": [5, 1, 5.5, 4.5], "texture": "#0"},
				"south": {"uv": [5, 1, 5.5, 4.5], "texture": "#0"},
				"west": {"uv": [5, 1, 5.5, 4.5], "texture": "#0"},
				"up": {"uv": [5, 1, 5.5, 4.5], "texture": "#0"},
				"down": {"uv": [5, 1, 5.5, 4.5], "texture": "#0"}
			}
		},
		{
			"from": [13, 10, 7],
			"to": [15, 12, 8],
			"rotation": {"angle": 0, "axis": "y", "origin": [7, 19, 15]},
			"faces": {
				"north": {"uv": [5, 1, 5.5, 4.5], "texture": "#0"},
				"east": {"uv": [5, 1, 5.5, 4.5], "texture": "#0"},
				"south": {"uv": [5, 1, 5.5, 4.5], "texture": "#0"},
				"west": {"uv": [5, 1, 5.5, 4.5], "texture": "#0"},
				"up": {"uv": [5, 1, 5.5, 4.5], "texture": "#0"},
				"down": {"uv": [5, 1, 5.5, 4.5], "texture": "#0"}
			}
		},
		{
			"from": [15, 10, 8],
			"to": [16, 13, 9],
			"rotation": {"angle": 0, "axis": "y", "origin": [8, 19, 16]},
			"faces": {
				"north": {"uv": [5, 1, 5.5, 4.5], "texture": "#0"},
				"east": {"uv": [5, 1, 5.5, 4.5], "texture": "#0"},
				"south": {"uv": [5, 1, 5.5, 4.5], "texture": "#0"},
				"west": {"uv": [5, 1, 5.5, 4.5], "texture": "#0"},
				"up": {"uv": [5, 1, 5.5, 4.5], "texture": "#0"},
				"down": {"uv": [5, 1, 5.5, 4.5], "texture": "#0"}
			}
		},
		{
			"from": [3, 4, 8],
			"to": [4, 9, 9],
			"rotation": {"angle": 0, "axis": "y", "origin": [11, 12, 16]},
			"faces": {
				"north": {"uv": [6, 0.5, 6.5, 3], "texture": "#0"},
				"east": {"uv": [6, 0.5, 6.5, 3], "texture": "#0"},
				"south": {"uv": [6, 0.5, 6.5, 3], "texture": "#0"},
				"west": {"uv": [6, 0.5, 6.5, 3], "texture": "#0"},
				"up": {"uv": [6, 0.5, 6.5, 1], "texture": "#0"},
				"down": {"uv": [6, 2.5, 6.5, 3], "texture": "#0"}
			}
		},
		{
			"from": [3, 5, 9],
			"to": [4, 9, 10],
			"rotation": {"angle": 0, "axis": "y", "origin": [11, 12, 17]},
			"faces": {
				"north": {"uv": [6.5, 0.5, 7, 2.5], "texture": "#0"},
				"east": {"uv": [6.5, 0.5, 7, 2.5], "texture": "#0"},
				"south": {"uv": [6.5, 0.5, 7, 2.5], "texture": "#0"},
				"west": {"uv": [6.5, 0.5, 7, 2.5], "texture": "#0"},
				"up": {"uv": [6.5, 0.5, 7, 2.5], "texture": "#0"},
				"down": {"uv": [6.5, 0.5, 7, 2.5], "texture": "#0"}
			}
		},
		{
			"from": [12, 4, 8],
			"to": [13, 9, 9],
			"rotation": {"angle": 0, "axis": "y", "origin": [5, 12, 16]},
			"faces": {
				"north": {"uv": [6, 0.5, 6.5, 3], "texture": "#0"},
				"east": {"uv": [6, 0.5, 6.5, 3], "texture": "#0"},
				"south": {"uv": [6, 0.5, 6.5, 3], "texture": "#0"},
				"west": {"uv": [6, 0.5, 6.5, 3], "texture": "#0"},
				"up": {"uv": [6, 0.5, 6.5, 1], "texture": "#0"},
				"down": {"uv": [6, 2.5, 6.5, 3], "texture": "#0"}
			}
		},
		{
			"from": [12, 5, 9],
			"to": [13, 9, 10],
			"rotation": {"angle": 0, "axis": "y", "origin": [5, 12, 17]},
			"faces": {
				"north": {"uv": [6.5, 0.5, 7, 2.5], "texture": "#0"},
				"east": {"uv": [6.5, 0.5, 7, 2.5], "texture": "#0"},
				"south": {"uv": [6.5, 0.5, 7, 2.5], "texture": "#0"},
				"west": {"uv": [6.5, 0.5, 7, 2.5], "texture": "#0"},
				"up": {"uv": [6.5, 0.5, 7, 2.5], "texture": "#0"},
				"down": {"uv": [6.5, 0.5, 7, 2.5], "texture": "#0"}
			}
		},
		{
			"from": [6, 8.2, 3.875],
			"to": [9, 8.35, 4.625],
			"rotation": {"angle": 0, "axis": "y", "origin": [14, 15.25, 11.625]},
			"faces": {
				"north": {"uv": [4.5, 5, 6, 5.5], "texture": "#0"},
				"east": {"uv": [4.5, 5, 5, 5.5], "texture": "#0"},
				"south": {"uv": [4.5, 5, 6, 5.5], "rotation": 180, "texture": "#0"},
				"west": {"uv": [5.5, 5, 6, 5.5], "texture": "#0"},
				"up": {"uv": [4.5, 5, 6, 5.5], "rotation": 180, "texture": "#0"},
				"down": {"uv": [4.5, 5, 6, 5.5], "rotation": 180, "texture": "#0"}
			}
		},
		{
			"from": [7, 7.35, 3.725],
			"to": [9, 8.35, 3.875],
			"rotation": {"angle": 0, "axis": "y", "origin": [14, 14.5, 11.725]},
			"faces": {
				"north": {"uv": [4.5, 5, 5.5, 5.5], "texture": "#0"},
				"east": {"uv": [4.5, 5, 5, 5.5], "texture": "#0"},
				"south": {"uv": [4.5, 5, 5.5, 5.5], "rotation": 180, "texture": "#0"},
				"west": {"uv": [5.5, 5, 6, 5.5], "texture": "#0"},
				"up": {"uv": [4.5, 5, 5.5, 5.5], "rotation": 180, "texture": "#0"},
				"down": {"uv": [4.5, 5, 5.5, 5.5], "rotation": 180, "texture": "#0"}
			}
		},
		{
			"name": "head",
			"from": [4, 0, 4],
			"to": [12, 8, 12],
			"faces": {
				"north": {"uv": [0.5, 0.5, 4.5, 4.5], "texture": "#0"},
				"east": {"uv": [7.5, 5, 11.5, 9], "texture": "#0"},
				"south": {"uv": [1, 1, 0.5, 0.5], "texture": "#0"},
				"west": {"uv": [7.5, 0.5, 11.5, 4.5], "texture": "#0"},
				"up": {"uv": [1, 1, 0.5, 0.5], "texture": "#0"},
				"down": {"uv": [1, 1, 0.5, 0.5], "texture": "#0"}
			}
		},
		{
			"name": "mouth",
			"from": [6, 0, 3],
			"to": [10, 3, 4],
			"rotation": {"angle": 0, "axis": "y", "origin": [14, 8, 11]},
			"faces": {
				"north": {"uv": [0.5, 5, 2.5, 6.5], "texture": "#0"},
				"east": {"uv": [0.5, 5, 1, 6.5], "texture": "#0"},
				"south": {"uv": [0.5, 5, 2.5, 6.5], "texture": "#0"},
				"west": {"uv": [2, 5, 2.5, 6.5], "texture": "#0"},
				"up": {"uv": [0.5, 5, 2.5, 5.5], "texture": "#0"},
				"down": {"uv": [0.5, 6, 2.5, 6.5], "texture": "#0"}
			}
		},
		{
			"name": "nose",
			"from": [7, 2, 2],
			"to": [9, 4, 4],
			"rotation": {"angle": 0, "axis": "y", "origin": [15, 8, 8]},
			"faces": {
				"north": {"uv": [3, 5.5, 4, 6.5], "texture": "#0"},
				"east": {"uv": [3, 6, 3.5, 6.5], "texture": "#0"},
				"south": {"uv": [3, 6, 3.5, 6.5], "texture": "#0"},
				"west": {"uv": [3, 5.5, 4, 6.5], "rotation": 270, "texture": "#0"},
				"up": {"uv": [3, 5.5, 4, 6.5], "rotation": 270, "texture": "#0"},
				"down": {"uv": [3, 6, 3.5, 6.5], "texture": "#0"}
			}
		}
	],
	"display": {
		"thirdperson_righthand": {
			"rotation": [72, 0, 0]
		},
		"thirdperson_lefthand": {
			"rotation": [72, 0, 0]
		},
		"ground": {
			"translation": [0, 5, 0]
		},
		"gui": {
			"rotation": [0, -180, 0],
			"translation": [0, 2, 0],
			"scale": [0.95, 0.95, 0.95]
		},
		"head": {
			"translation": [0, 7.3, 0],
			"scale": [1.82, 1.82, 1.82]
		},
		"fixed": {
			"translation": [0, 2.25, -2.5],
			"scale": [1.15, 1.15, 1.15]
		}
	},
	"groups": [
		{
			"name": "reindeer_helmet",
			"origin": [8, 8, 8],
			"children": [
				{
					"name": "antlers",
					"origin": [8, 8, 8],
					"children": [
						{
							"name": "left_antler",
							"origin": [8, 8, 8],
							"children": [0, 1, 2]
						},
						{
							"name": "right_antler",
							"origin": [8, 8, 8],
							"children": [3, 4, 5]
						}
					]
				},
				{
					"name": "ears",
					"origin": [8, 8, 8],
					"children": [
						{
							"name": "left_ear",
							"origin": [8, 8, 8],
							"children": [6, 7]
						},
						{
							"name": "right_ear",
							"origin": [8, 8, 8],
							"children": [8, 9]
						}
					]
				},
				{
					"name": "fur_tuft",
					"origin": [8, 8, 8],
					"children": [10, 11]
				}, 12, 13, 14]
		}
	]
}