{
	"credit": "Made with Blockbench",
	"textures": {
		"0": "item/spectral_bow",
		"1": "entity/projectiles/arrow",
		"particle": "item/spectral_bow"
	},
	"elements": [
		{
			"from": [7, 2, 0],
			"to": [9, 7, 2],
			"faces": {
				"north": {"uv": [1, 4, 3, 9], "texture": "#0"},
				"east": {"uv": [0.5, 4, 2.5, 9], "texture": "#0"},
				"south": {"uv": [0, 4, 2, 9], "texture": "#0"},
				"west": {"uv": [1.5, 4, 3.5, 9], "texture": "#0"},
				"up": {"uv": [1, 4, 3, 6], "texture": "#0"},
				"down": {"uv": [1, 12, 3, 14], "texture": "#0"}
			}
		},
		{
			"from": [6.9, 2.5, 0.6],
			"to": [9.1, 6.5, 0.9],
			"faces": {
				"north": {"uv": [4.5, 9.5, 6.7, 13.5], "texture": "#0"},
				"east": {"uv": [6.5, 10, 7.2, 14], "texture": "#0"},
				"south": {"uv": [5, 3.5, 7.2, 7.5], "texture": "#0"},
				"west": {"uv": [5, 3, 5.7, 7], "texture": "#0"},
				"up": {"uv": [4.5, 13.5, 6.7, 14.2], "texture": "#0"},
				"down": {"uv": [5, 15, 7.2, 15.7], "texture": "#0"}
			}
		},
		{
			"from": [7.7, 4.4, 0.7],
			"to": [8.3, 9.4, 2.4],
			"faces": {
				"north": {"uv": [1.5, 4, 2.1, 9], "texture": "#0"},
				"east": {"uv": [3, 4, 3.6, 9], "texture": "#0"},
				"south": {"uv": [0.5, 4, 1.1, 9], "texture": "#0"},
				"west": {"uv": [2, 4, 2.6, 9], "texture": "#0"},
				"up": {"uv": [1.5, 5, 2.1, 6.7], "texture": "#0"},
				"down": {"uv": [1.5, 10, 2.1, 11.7], "texture": "#0"}
			}
		},
		{
			"from": [7.8, 9.2, 1.9],
			"to": [8.2, 13.8, 3.2],
			"faces": {
				"north": {"uv": [2, 2, 2.4, 6.6], "texture": "#0"},
				"east": {"uv": [0.5, 2, 1.8, 6.6], "texture": "#0"},
				"south": {"uv": [2, 2, 2.4, 6.6], "texture": "#0"},
				"west": {"uv": [1.5, 2, 2.8, 6.6], "texture": "#0"},
				"up": {"uv": [1.5, 1.5, 1.9, 2.8], "texture": "#0"},
				"down": {"uv": [1.5, 12.5, 1.9, 13.8], "texture": "#0"}
			}
		},
		{
			"from": [7.2, 6, 1],
			"to": [8.8, 11, 2.7],
			"faces": {
				"north": {"uv": [1, 3, 2.6, 8], "texture": "#0"},
				"east": {"uv": [2, 3, 3.6, 8], "texture": "#0"},
				"south": {"uv": [1, 3, 2.6, 8], "texture": "#0"},
				"west": {"uv": [0, 3, 1.6, 8], "texture": "#0"},
				"up": {"uv": [1, 3.5, 2.6, 5.2], "texture": "#0"},
				"down": {"uv": [1, 12, 3, 14], "texture": "#0"}
			}
		},
		{
			"from": [7.6, 10, 2.4],
			"to": [8.4, 15, 3.4],
			"faces": {
				"north": {"uv": [1.5, 0, 2.3, 5], "texture": "#0"},
				"east": {"uv": [2.5, 0, 3.3, 5], "texture": "#0"},
				"south": {"uv": [1.5, 0, 2.3, 5], "texture": "#0"},
				"west": {"uv": [0.5, 0, 1.3, 5], "texture": "#0"},
				"up": {"uv": [1, 0.2, 2.6, 1.9], "texture": "#0"},
				"down": {"uv": [1, 12, 3, 14], "texture": "#0"}
			}
		},
		{
			"from": [7.8, 14.8, 3],
			"to": [8.2, 15.8, 3.9],
			"faces": {
				"north": {"uv": [1, 0, 1.4, 1], "texture": "#0"},
				"east": {"uv": [2.5, 0, 3.4, 1], "texture": "#0"},
				"south": {"uv": [1.5, 0, 1.9, 1], "texture": "#0"},
				"west": {"uv": [1, 0, 1.9, 1], "texture": "#0"},
				"up": {"uv": [1.5, 0, 1.9, 0.9], "texture": "#0"},
				"down": {"uv": [1.5, 0, 1.9, 0.9], "texture": "#0"}
			}
		},
		{
			"from": [7.9, 14.4, 2.8],
			"to": [8.1, 15.4, 3.7],
			"faces": {
				"north": {"uv": [0, 0, 0.2, 1], "texture": "#0"},
				"east": {"uv": [2, 0, 2.9, 1], "texture": "#0"},
				"south": {"uv": [2, 0, 2.2, 1], "texture": "#0"},
				"west": {"uv": [1, 0, 1.9, 1], "texture": "#0"},
				"up": {"uv": [3, 0, 3.2, 0.9], "texture": "#0"},
				"down": {"uv": [3.5, 0, 3.7, 0.9], "texture": "#0"}
			}
		},
		{
			"from": [7, -7, 0],
			"to": [9, -2, 2],
			"faces": {
				"north": {"uv": [1, 4, 3, 9], "rotation": 180, "texture": "#0"},
				"east": {"uv": [1.5, 4, 3.5, 9], "rotation": 180, "texture": "#0"},
				"south": {"uv": [0, 4, 2, 9], "rotation": 180, "texture": "#0"},
				"west": {"uv": [0.5, 4, 2.5, 9], "rotation": 180, "texture": "#0"},
				"up": {"uv": [1.5, 10.5, 3.5, 12.5], "rotation": 180, "texture": "#0"},
				"down": {"uv": [1, 4, 3, 6], "rotation": 180, "texture": "#0"}
			}
		},
		{
			"from": [7.7, -9.4, 0.7],
			"to": [8.3, -4.4, 2.4],
			"faces": {
				"north": {"uv": [1.5, 4, 2.1, 9], "rotation": 180, "texture": "#0"},
				"east": {"uv": [2, 4, 2.6, 9], "rotation": 180, "texture": "#0"},
				"south": {"uv": [0.5, 4, 1.1, 9], "rotation": 180, "texture": "#0"},
				"west": {"uv": [3, 4, 3.6, 9], "rotation": 180, "texture": "#0"},
				"up": {"uv": [1.5, 10, 2.1, 11.7], "rotation": 180, "texture": "#0"},
				"down": {"uv": [1.5, 5, 2.1, 6.7], "rotation": 180, "texture": "#0"}
			}
		},
		{
			"from": [7.8, -13.8, 1.9],
			"to": [8.2, -9.2, 3.2],
			"faces": {
				"north": {"uv": [2, 2, 2.4, 6.6], "rotation": 180, "texture": "#0"},
				"east": {"uv": [1.5, 2, 2.8, 6.6], "rotation": 180, "texture": "#0"},
				"south": {"uv": [2, 2, 2.4, 6.6], "rotation": 180, "texture": "#0"},
				"west": {"uv": [0.5, 2, 1.8, 6.6], "rotation": 180, "texture": "#0"},
				"up": {"uv": [1.5, 12.5, 1.9, 13.8], "rotation": 180, "texture": "#0"},
				"down": {"uv": [1.5, 1.5, 1.9, 2.8], "rotation": 180, "texture": "#0"}
			}
		},
		{
			"from": [7.2, -11, 1],
			"to": [8.8, -6, 2.7],
			"faces": {
				"north": {"uv": [1, 3, 2.6, 8], "rotation": 180, "texture": "#0"},
				"east": {"uv": [0, 3, 1.6, 8], "rotation": 180, "texture": "#0"},
				"south": {"uv": [1, 3, 2.6, 8], "rotation": 180, "texture": "#0"},
				"west": {"uv": [2, 3, 3.6, 8], "rotation": 180, "texture": "#0"},
				"up": {"uv": [1, 12, 3, 14], "rotation": 180, "texture": "#0"},
				"down": {"uv": [1, 3.5, 2.6, 5.2], "rotation": 180, "texture": "#0"}
			}
		},
		{
			"from": [7.6, -15, 2.4],
			"to": [8.4, -10, 3.4],
			"faces": {
				"north": {"uv": [1.5, 0, 2.3, 5], "rotation": 180, "texture": "#0"},
				"east": {"uv": [0.5, 0, 1.3, 5], "rotation": 180, "texture": "#0"},
				"south": {"uv": [1.5, 0, 2.3, 5], "rotation": 180, "texture": "#0"},
				"west": {"uv": [2.5, 0, 3.3, 5], "rotation": 180, "texture": "#0"},
				"up": {"uv": [1, 12, 3, 14], "rotation": 180, "texture": "#0"},
				"down": {"uv": [1, 0.2, 2.6, 1.9], "rotation": 180, "texture": "#0"}
			}
		},
		{
			"from": [7.8, -15.8, 3],
			"to": [8.2, -14.8, 3.9],
			"faces": {
				"north": {"uv": [1, 0, 1.4, 1], "rotation": 180, "texture": "#0"},
				"east": {"uv": [1, 0, 1.9, 1], "rotation": 180, "texture": "#0"},
				"south": {"uv": [1.5, 0, 1.9, 1], "rotation": 180, "texture": "#0"},
				"west": {"uv": [2.5, 0, 3.4, 1], "rotation": 180, "texture": "#0"},
				"up": {"uv": [1.5, 0, 1.9, 0.9], "rotation": 180, "texture": "#0"},
				"down": {"uv": [1.5, 0, 1.9, 0.9], "rotation": 180, "texture": "#0"}
			}
		},
		{
			"from": [7.9, -15.4, 2.8],
			"to": [8.1, -14.4, 3.7],
			"faces": {
				"north": {"uv": [0, 0, 0.2, 1], "rotation": 180, "texture": "#0"},
				"east": {"uv": [1, 0, 1.9, 1], "rotation": 180, "texture": "#0"},
				"south": {"uv": [2, 0, 2.2, 1], "rotation": 180, "texture": "#0"},
				"west": {"uv": [2, 0, 2.9, 1], "rotation": 180, "texture": "#0"},
				"up": {"uv": [3.5, 0, 3.7, 0.9], "rotation": 180, "texture": "#0"},
				"down": {"uv": [3, 0, 3.2, 0.9], "rotation": 180, "texture": "#0"}
			}
		},
		{
			"from": [6.9, -6.5, 0.6],
			"to": [9.1, -2.5, 0.9],
			"faces": {
				"north": {"uv": [4.5, 9.5, 6.7, 13.5], "rotation": 180, "texture": "#0"},
				"east": {"uv": [5, 3, 5.7, 7], "rotation": 180, "texture": "#0"},
				"south": {"uv": [5, 3.5, 7.2, 7.5], "rotation": 180, "texture": "#0"},
				"west": {"uv": [6.5, 10, 7.2, 14], "rotation": 180, "texture": "#0"},
				"up": {"uv": [5, 15, 7.2, 15.7], "rotation": 180, "texture": "#0"},
				"down": {"uv": [4.5, 13.5, 6.7, 14.2], "rotation": 180, "texture": "#0"}
			}
		},
		{
			"from": [7.3, -6, 1],
			"to": [8.7, 6, 2.2],
			"faces": {
				"north": {"uv": [9, 2, 10.4, 14], "texture": "#0"},
				"east": {"uv": [9.5, 2.5, 10.7, 14.5], "texture": "#0"},
				"south": {"uv": [9, 1.5, 10.4, 13.5], "texture": "#0"},
				"west": {"uv": [8.5, 1.5, 9.9, 13.5], "texture": "#0"},
				"up": {"uv": [8.5, 0.5, 9.9, 1.7], "texture": "#0"},
				"down": {"uv": [10.5, 14.5, 11.9, 15.7], "texture": "#0"}
			}
		},
		{
			"from": [7.1, -6, 1.2],
			"to": [8.9, 6, 1.9],
			"faces": {
				"north": {"uv": [9, 2, 10.4, 14], "texture": "#0"},
				"east": {"uv": [9.5, 2.5, 10.7, 14.5], "texture": "#0"},
				"south": {"uv": [9, 1.5, 10.4, 13.5], "texture": "#0"},
				"west": {"uv": [8.5, 1.5, 9.9, 13.5], "texture": "#0"},
				"up": {"uv": [8.5, 0.5, 9.9, 1.7], "texture": "#0"},
				"down": {"uv": [10.5, 14.5, 11.9, 15.7], "texture": "#0"}
			}
		},
		{
			"from": [7.5, -6, 0.7],
			"to": [8.5, 6, 2],
			"faces": {
				"north": {"uv": [9, 2, 10.4, 14], "texture": "#0"},
				"east": {"uv": [9.5, 2.5, 10.7, 14.5], "texture": "#0"},
				"south": {"uv": [9, 1.5, 10.4, 13.5], "texture": "#0"},
				"west": {"uv": [8.5, 2, 9.9, 14], "texture": "#0"},
				"up": {"uv": [8.5, 0.5, 9.9, 1.7], "texture": "#0"},
				"down": {"uv": [10.5, 14.5, 11.9, 15.7], "texture": "#0"}
			}
		},
		{
			"from": [7.4, 1.2, 0.4],
			"to": [8.6, 2, 1],
			"faces": {
				"north": {"uv": [5.5, 2.5, 6.7, 3.3], "texture": "#0"},
				"east": {"uv": [7, 7, 7.6, 7.8], "texture": "#0"},
				"south": {"uv": [5.5, 2.5, 6.7, 3.3], "texture": "#0"},
				"west": {"uv": [5.5, 7, 6.1, 7.8], "texture": "#0"},
				"up": {"uv": [5, 13, 6.2, 13.6], "texture": "#0"},
				"down": {"uv": [6, 15, 7.2, 15.6], "texture": "#0"}
			}
		},
		{
			"from": [7.4, -2, 0.4],
			"to": [8.6, -1.2, 1],
			"faces": {
				"north": {"uv": [5, 10, 6.2, 10.8], "texture": "#0"},
				"east": {"uv": [7, 7, 7.6, 7.8], "texture": "#0"},
				"south": {"uv": [5.5, 2.5, 6.7, 3.3], "texture": "#0"},
				"west": {"uv": [5.5, 7, 6.1, 7.8], "texture": "#0"},
				"up": {"uv": [5, 13, 6.2, 13.6], "texture": "#0"},
				"down": {"uv": [6, 15, 7.2, 15.6], "texture": "#0"}
			}
		},
		{
			"from": [7.9, 10, 3.8],
			"to": [8.1, 14.9, 4],
			"faces": {
				"north": {"uv": [14, 0, 14.2, 4], "texture": "#0"},
				"east": {"uv": [14.5, 0, 14.7, 4], "texture": "#0"},
				"south": {"uv": [13.5, 0, 13.7, 4], "texture": "#0"},
				"west": {"uv": [12.5, 0, 12.7, 4], "texture": "#0"},
				"up": {"uv": [13, 8.5, 13.2, 8.7], "texture": "#0"},
				"down": {"uv": [13, 8, 13.2, 8.2], "texture": "#0"}
			}
		},
		{
			"from": [7.9, -10.2, 4],
			"to": [8.1, 10.2, 4.2],
			"faces": {
				"north": {"uv": [15.5, 4, 15.7, 12], "texture": "#0"},
				"east": {"uv": [12.5, 4, 12.7, 12], "texture": "#0"},
				"south": {"uv": [14, 4, 14.2, 12], "texture": "#0"},
				"west": {"uv": [13, 4, 13.2, 12], "texture": "#0"},
				"up": {"uv": [13, 8.5, 13.2, 8.7], "texture": "#0"},
				"down": {"uv": [13, 8, 13.2, 8.2], "texture": "#0"}
			}
		},
		{
			"from": [7.9, -14.9, 3.8],
			"to": [8.1, -10, 4],
			"faces": {
				"north": {"uv": [15.5, 12, 15.7, 16], "texture": "#0"},
				"east": {"uv": [13, 12, 13.2, 16], "texture": "#0"},
				"south": {"uv": [14.5, 12, 14.7, 16], "texture": "#0"},
				"west": {"uv": [14, 12, 14.2, 16], "texture": "#0"},
				"up": {"uv": [13, 8.5, 13.2, 8.7], "texture": "#0"},
				"down": {"uv": [12.5, 14.5, 12.7, 14.7], "texture": "#0"}
			}
		},
		{
			"from": [7.75, 0, -8.2],
			"to": [8.25, 0.5, 4.8],
			"faces": {
				"north": {"uv": [6, 1, 6.5, 1.5], "texture": "#1"},
				"east": {"uv": [0, 1, 6.5, 1.5], "texture": "#1"},
				"south": {"uv": [0, 1, 0.5, 1.5], "texture": "#1"},
				"west": {"uv": [0, 1, 6.5, 1.5], "rotation": 180, "texture": "#1"},
				"up": {"uv": [0, 1, 6.5, 1.5], "rotation": 90, "texture": "#1"},
				"down": {"uv": [0, 1, 6.5, 1.5], "rotation": 90, "texture": "#1"}
			}
		},
		{
			"from": [7.75, 0, -9.6],
			"to": [8.25, 0.5, -8.2],
			"faces": {
				"north": {"uv": [6.5, 1, 7, 1.5], "texture": "#1"},
				"east": {"uv": [6.5, 1, 7.9, 1.5], "rotation": 180, "texture": "#1"},
				"south": {"uv": [7.5, 1, 8, 1.5], "texture": "#1"},
				"west": {"uv": [6.5, 1, 7.9, 1.5], "texture": "#1"},
				"up": {"uv": [6.5, 1, 7.9, 1.5], "rotation": 90, "texture": "#1"},
				"down": {"uv": [6.5, 1, 7.9, 1.5], "rotation": 270, "texture": "#1"}
			}
		},
		{
			"from": [7.75, 0.5, -9.1],
			"to": [8.25, 1, -8.2],
			"faces": {
				"north": {"uv": [6.5, 0.5, 7, 1], "texture": "#1"},
				"east": {"uv": [6.5, 0.5, 7.4, 1], "rotation": 180, "texture": "#1"},
				"south": {"uv": [6.5, 0.5, 7, 1], "texture": "#1"},
				"west": {"uv": [6.5, 1, 7.4, 1.5], "texture": "#1"},
				"up": {"uv": [6.5, 1, 7.4, 1.5], "rotation": 90, "texture": "#1"},
				"down": {"uv": [6.5, 0.5, 7.4, 1], "rotation": 90, "texture": "#1"}
			}
		},
		{
			"from": [7.75, -0.5, -9.1],
			"to": [8.25, 0, -8.2],
			"faces": {
				"north": {"uv": [6.5, 0.5, 7, 1], "texture": "#1"},
				"east": {"uv": [6.5, 0.5, 7.4, 1], "rotation": 180, "texture": "#1"},
				"south": {"uv": [6.5, 0.5, 7, 1], "texture": "#1"},
				"west": {"uv": [6.5, 1, 7.4, 1.5], "texture": "#1"},
				"up": {"uv": [6.5, 1, 7.4, 1.5], "rotation": 90, "texture": "#1"},
				"down": {"uv": [6.5, 0.5, 7.4, 1], "rotation": 90, "texture": "#1"}
			}
		},
		{
			"from": [8.25, 0, -9.1],
			"to": [8.75, 0.5, -8.2],
			"faces": {
				"north": {"uv": [6.5, 0.5, 7, 1], "texture": "#1"},
				"east": {"uv": [6.5, 0.5, 7.4, 1], "rotation": 180, "texture": "#1"},
				"south": {"uv": [6.5, 0.5, 7, 1], "texture": "#1"},
				"west": {"uv": [6.5, 1, 7.4, 1.5], "texture": "#1"},
				"up": {"uv": [6.5, 1, 7.4, 1.5], "rotation": 90, "texture": "#1"},
				"down": {"uv": [6.5, 0.5, 7.4, 1], "rotation": 90, "texture": "#1"}
			}
		},
		{
			"from": [7.25, 0, -9.1],
			"to": [7.75, 0.5, -8.2],
			"faces": {
				"north": {"uv": [6.5, 0.5, 7, 1], "texture": "#1"},
				"east": {"uv": [6.5, 0.5, 7.4, 1], "rotation": 180, "texture": "#1"},
				"south": {"uv": [6.5, 0.5, 7, 1], "texture": "#1"},
				"west": {"uv": [6.5, 1, 7.4, 1.5], "texture": "#1"},
				"up": {"uv": [6.5, 1, 7.4, 1.5], "rotation": 90, "texture": "#1"},
				"down": {"uv": [6.5, 0.5, 7.4, 1], "rotation": 90, "texture": "#1"}
			}
		},
		{
			"from": [7.75, -1, 3.3],
			"to": [8.25, -0.5, 4.8],
			"rotation": {"angle": -45, "axis": "z", "origin": [8.0062, 0.25735, 3.78646]},
			"faces": {
				"north": {"uv": [0, 0, 0.5, 0.5], "rotation": 90, "texture": "#1"},
				"east": {"uv": [0.5, 0.5, 2, 1], "texture": "#1"},
				"south": {"uv": [0.5, 0, 1, 0.5], "rotation": 90, "texture": "#1"},
				"west": {"uv": [0, 0, 1.5, 0.5], "texture": "#1"},
				"up": {"uv": [0.5, 0.5, 2, 1], "rotation": 90, "texture": "#1"},
				"down": {"uv": [0.5, 1.5, 2, 2], "rotation": 90, "texture": "#1"}
			}
		},
		{
			"from": [7.75, 0.5, 2.8],
			"to": [8.25, 1, 4.3],
			"rotation": {"angle": -45, "axis": "z", "origin": [8.0062, 0.25735, 3.78646]},
			"faces": {
				"north": {"uv": [0, 0, 0.5, 0.5], "rotation": 90, "texture": "#1"},
				"east": {"uv": [0.5, 0.5, 2, 1], "texture": "#1"},
				"south": {"uv": [0.5, 0, 1, 0.5], "rotation": 90, "texture": "#1"},
				"west": {"uv": [0, 0, 1.5, 0.5], "texture": "#1"},
				"up": {"uv": [0.5, 0.5, 2, 1], "rotation": 90, "texture": "#1"},
				"down": {"uv": [0.5, 1.5, 2, 2], "rotation": 90, "texture": "#1"}
			}
		},
		{
			"from": [7.75, -0.5, 2.8],
			"to": [8.25, 0, 4.3],
			"rotation": {"angle": -45, "axis": "z", "origin": [8.0062, 0.25735, 3.78646]},
			"faces": {
				"north": {"uv": [0, 0, 0.5, 0.5], "rotation": 90, "texture": "#1"},
				"east": {"uv": [0.5, 0.5, 2, 1], "texture": "#1"},
				"south": {"uv": [0.5, 0, 1, 0.5], "rotation": 90, "texture": "#1"},
				"west": {"uv": [0, 0, 1.5, 0.5], "texture": "#1"},
				"up": {"uv": [0.5, 0.5, 2, 1], "rotation": 90, "texture": "#1"},
				"down": {"uv": [0.5, 1.5, 2, 2], "rotation": 90, "texture": "#1"}
			}
		},
		{
			"from": [7.25, 0, 2.8],
			"to": [7.75, 0.5, 4.3],
			"rotation": {"angle": -45, "axis": "z", "origin": [8.0062, 0.25735, 3.78646]},
			"faces": {
				"north": {"uv": [0, 0, 0.5, 0.5], "rotation": 90, "texture": "#1"},
				"east": {"uv": [0.5, 0.5, 2, 1], "texture": "#1"},
				"south": {"uv": [0.5, 0, 1, 0.5], "rotation": 90, "texture": "#1"},
				"west": {"uv": [0, 0, 1.5, 0.5], "texture": "#1"},
				"up": {"uv": [0.5, 0.5, 2, 1], "rotation": 90, "texture": "#1"},
				"down": {"uv": [0.5, 1.5, 2, 2], "rotation": 90, "texture": "#1"}
			}
		},
		{
			"from": [8.25, 0, 2.8],
			"to": [8.75, 0.5, 4.3],
			"rotation": {"angle": -45, "axis": "z", "origin": [8.0062, 0.25735, 3.78646]},
			"faces": {
				"north": {"uv": [0, 0, 0.5, 0.5], "rotation": 90, "texture": "#1"},
				"east": {"uv": [0.5, 0.5, 2, 1], "texture": "#1"},
				"south": {"uv": [0.5, 0, 1, 0.5], "rotation": 90, "texture": "#1"},
				"west": {"uv": [0, 0, 1.5, 0.5], "texture": "#1"},
				"up": {"uv": [0.5, 0.5, 2, 1], "rotation": 90, "texture": "#1"},
				"down": {"uv": [0.5, 1.5, 2, 2], "rotation": 90, "texture": "#1"}
			}
		},
		{
			"from": [6.75, 0, 3.3],
			"to": [7.25, 0.5, 4.8],
			"rotation": {"angle": -45, "axis": "z", "origin": [8.0062, 0.25735, 3.78646]},
			"faces": {
				"north": {"uv": [0, 0, 0.5, 0.5], "rotation": 90, "texture": "#1"},
				"east": {"uv": [0.5, 0.5, 2, 1], "texture": "#1"},
				"south": {"uv": [0.5, 0, 1, 0.5], "rotation": 90, "texture": "#1"},
				"west": {"uv": [0, 0, 1.5, 0.5], "texture": "#1"},
				"up": {"uv": [0.5, 0.5, 2, 1], "rotation": 90, "texture": "#1"},
				"down": {"uv": [0.5, 1.5, 2, 2], "rotation": 90, "texture": "#1"}
			}
		},
		{
			"from": [8.75, 0, 3.3],
			"to": [9.25, 0.5, 4.8],
			"rotation": {"angle": -45, "axis": "z", "origin": [8.0062, 0.25735, 3.78646]},
			"faces": {
				"north": {"uv": [0, 0, 0.5, 0.5], "rotation": 90, "texture": "#1"},
				"east": {"uv": [0.5, 0.5, 2, 1], "texture": "#1"},
				"south": {"uv": [0.5, 0, 1, 0.5], "rotation": 90, "texture": "#1"},
				"west": {"uv": [0, 0, 1.5, 0.5], "texture": "#1"},
				"up": {"uv": [0.5, 0.5, 2, 1], "rotation": 90, "texture": "#1"},
				"down": {"uv": [0.5, 1.5, 2, 2], "rotation": 90, "texture": "#1"}
			}
		},
		{
			"from": [7.75, 1, 3.3],
			"to": [8.25, 1.5, 4.8],
			"rotation": {"angle": -45, "axis": "z", "origin": [8.0062, 0.25735, 3.78646]},
			"faces": {
				"north": {"uv": [0, 0, 0.5, 0.5], "rotation": 90, "texture": "#1"},
				"east": {"uv": [0.5, 0.5, 2, 1], "texture": "#1"},
				"south": {"uv": [0.5, 0, 1, 0.5], "rotation": 90, "texture": "#1"},
				"west": {"uv": [0, 0, 1.5, 0.5], "texture": "#1"},
				"up": {"uv": [0.5, 0.5, 2, 1], "rotation": 90, "texture": "#1"},
				"down": {"uv": [0.5, 1.5, 2, 2], "rotation": 90, "texture": "#1"}
			}
		}
	],
	"display": {
		"thirdperson_righthand": {
			"translation": [-2.25, 5.75, 6],
			"scale": [0.8, 0.8, 0.8]
		},
		"thirdperson_lefthand": {
			"translation": [-2.25, 5.75, 6],
			"scale": [0.8, 0.8, 0.8]
		},
		"firstperson_righthand": {
			"rotation": [24, 9, 4],
			"translation": [5.75, 9, 1],
			"scale": [1.3, 1.3, 1.3]
		},
		"firstperson_lefthand": {
			"rotation": [24, 9, 4],
			"translation": [5.75, 9, 1],
			"scale": [1.3, 1.3, 1.3]
		},
		"ground": {
			"rotation": [0, 0, 90],
			"translation": [-4.75, -2.75, 3.25],
			"scale": [0.6, 0.6, 0.6]
		},
		"gui": {
			"rotation": [90, 45, 90],
			"translation": [-0.75, -6.75, -0.5],
			"scale": [0.65, 0.65, 0.88]
		},
		"head": {
			"rotation": [90, 0, 90],
			"translation": [-1.65, -5, -6.75],
			"scale": [0.2, 0.2, 0.2]
		},
		"fixed": {
			"rotation": [90, 45, 90],
			"translation": [-1.5, -6, -0.5],
			"scale": [0.7, 0.7, 0.7]
		}
	},
	"groups": [
		{
			"name": "limbs",
			"origin": [8, 8, 8],
			"children": [
				{
					"name": "upper",
					"origin": [8, 8, 8],
					"children": [0, 1, 2, 3, 4, 5, 6, 7]
				},
				{
					"name": "lower",
					"origin": [8, 8, 8],
					"children": [8, 9, 10, 11, 12, 13, 14, 15]
				}
			]
		},
		{
			"name": "grip",
			"origin": [8, 8, 8],
			"children": [16, 17, 18, 19, 20]
		},
		{
			"name": "string",
			"origin": [8, 8, 8],
			"children": [21, 22, 23]
		},
		{
			"name": "arrow",
			"origin": [8, 8, 8],
			"children": [
				{
					"name": "shaft",
					"origin": [8, 8, 8],
					"children": [24]
				},
				{
					"name": "head",
					"origin": [8, 8, 8],
					"children": [25, 26, 27, 28, 29]
				},
				{
					"name": "fletching",
					"origin": [8, 8, 8],
					"children": [30, 31, 32, 33, 34, 35, 36, 37]
				}
			]
		}
	]
}