{
	"credit": "Made with Blockbench",
	"textures": {
		"0": "block/mizuno_archive/keyhole_inner_black",
		"2": "block/mizuno_archive/kam_iron_block",
		"3": "block/mizuno_archive/furnace_top",
		"particle": "block/mizuno_archive/keyhole_inner_black"
	},
	"elements": [
		{
			"from": [1, 0, 1],
			"to": [3, 2, 3],
			"rotation": {"angle": 0, "axis": "y", "origin": [0, 0, 0]},
			"faces": {
				"north": {"uv": [9, 10, 11, 12], "texture": "#3"},
				"east": {"uv": [9, 10, 11, 12], "texture": "#3"},
				"south": {"uv": [9, 10, 11, 12], "texture": "#3"},
				"west": {"uv": [9, 10, 11, 12], "texture": "#3"},
				"up": {"uv": [9, 10, 11, 12], "texture": "#3"},
				"down": {"uv": [9, 10, 11, 12], "texture": "#3"}
			}
		},
		{
			"from": [13, 0, 1],
			"to": [15, 2, 3],
			"rotation": {"angle": 0, "axis": "y", "origin": [0, 0, 0]},
			"faces": {
				"north": {"uv": [9, 10, 11, 12], "texture": "#3"},
				"east": {"uv": [9, 10, 11, 12], "texture": "#3"},
				"south": {"uv": [9, 10, 11, 12], "texture": "#3"},
				"west": {"uv": [9, 10, 11, 12], "texture": "#3"},
				"up": {"uv": [9, 10, 11, 12], "texture": "#3"},
				"down": {"uv": [9, 10, 11, 12], "texture": "#3"}
			}
		},
		{
			"from": [13, 0, 13],
			"to": [15, 2, 15],
			"rotation": {"angle": 0, "axis": "y", "origin": [0, 0, 0]},
			"faces": {
				"north": {"uv": [9, 10, 11, 12], "texture": "#3"},
				"east": {"uv": [9, 10, 11, 12], "texture": "#3"},
				"south": {"uv": [9, 10, 11, 12], "texture": "#3"},
				"west": {"uv": [9, 10, 11, 12], "texture": "#3"},
				"up": {"uv": [9, 10, 11, 12], "texture": "#3"},
				"down": {"uv": [9, 10, 11, 12], "texture": "#3"}
			}
		},
		{
			"from": [1, 0, 13],
			"to": [3, 2, 15],
			"rotation": {"angle": 0, "axis": "y", "origin": [0, 0, 0]},
			"faces": {
				"north": {"uv": [9, 10, 11, 12], "texture": "#3"},
				"east": {"uv": [9, 10, 11, 12], "texture": "#3"},
				"south": {"uv": [9, 10, 11, 12], "texture": "#3"},
				"west": {"uv": [9, 10, 11, 12], "texture": "#3"},
				"up": {"uv": [9, 10, 11, 12], "texture": "#3"},
				"down": {"uv": [9, 10, 11, 12], "texture": "#3"}
			}
		},
		{
			"from": [1, 8, 1],
			"to": [3, 10, 3],
			"rotation": {"angle": 0, "axis": "y", "origin": [0, 0, 0]},
			"faces": {
				"north": {"uv": [9, 10, 11, 12], "texture": "#3"},
				"east": {"uv": [9, 10, 11, 12], "texture": "#3"},
				"south": {"uv": [9, 10, 11, 12], "texture": "#3"},
				"west": {"uv": [9, 10, 11, 12], "texture": "#3"},
				"up": {"uv": [9, 10, 11, 12], "texture": "#3"},
				"down": {"uv": [9, 10, 11, 12], "texture": "#3"}
			}
		},
		{
			"from": [13, 8, 1],
			"to": [15, 10, 3],
			"rotation": {"angle": 0, "axis": "y", "origin": [0, 0, 0]},
			"faces": {
				"north": {"uv": [9, 10, 11, 12], "texture": "#3"},
				"east": {"uv": [9, 10, 11, 12], "texture": "#3"},
				"south": {"uv": [9, 10, 11, 12], "texture": "#3"},
				"west": {"uv": [9, 10, 11, 12], "texture": "#3"},
				"up": {"uv": [9, 10, 11, 12], "texture": "#3"},
				"down": {"uv": [9, 10, 11, 12], "texture": "#3"}
			}
		},
		{
			"from": [13, 8, 13],
			"to": [15, 10, 15],
			"rotation": {"angle": 0, "axis": "y", "origin": [0, 0, 0]},
			"faces": {
				"north": {"uv": [9, 10, 11, 12], "texture": "#3"},
				"east": {"uv": [9, 10, 11, 12], "texture": "#3"},
				"south": {"uv": [9, 10, 11, 12], "texture": "#3"},
				"west": {"uv": [9, 10, 11, 12], "texture": "#3"},
				"up": {"uv": [9, 10, 11, 12], "texture": "#3"},
				"down": {"uv": [9, 10, 11, 12], "texture": "#3"}
			}
		},
		{
			"from": [1, 8, 13],
			"to": [3, 10, 15],
			"rotation": {"angle": 0, "axis": "y", "origin": [0, 0, 0]},
			"faces": {
				"north": {"uv": [9, 10, 11, 12], "texture": "#3"},
				"east": {"uv": [9, 10, 11, 12], "texture": "#3"},
				"south": {"uv": [9, 10, 11, 12], "texture": "#3"},
				"west": {"uv": [9, 10, 11, 12], "texture": "#3"},
				"up": {"uv": [9, 10, 11, 12], "texture": "#3"},
				"down": {"uv": [9, 10, 11, 12], "texture": "#3"}
			}
		},
		{
			"from": [3, 0, 1.3],
			"to": [13, 1.7, 2.7],
			"rotation": {"angle": 0, "axis": "y", "origin": [0, 0, 0]},
			"faces": {
				"north": {"uv": [2, 6, 3, 7], "texture": "#3"},
				"east": {"uv": [2, 6, 3, 7], "texture": "#3"},
				"south": {"uv": [2, 6, 3, 7], "texture": "#3"},
				"west": {"uv": [2, 6, 3, 7], "texture": "#3"},
				"up": {"uv": [2, 6, 3, 7], "texture": "#3"},
				"down": {"uv": [2, 6, 3, 7], "texture": "#3"}
			}
		},
		{
			"from": [3, 8.3, 1.3],
			"to": [13, 10, 2.7],
			"rotation": {"angle": 0, "axis": "y", "origin": [0, 0, 0]},
			"faces": {
				"north": {"uv": [2, 6, 3, 7], "texture": "#3"},
				"east": {"uv": [2, 6, 3, 7], "texture": "#3"},
				"south": {"uv": [2, 6, 3, 7], "texture": "#3"},
				"west": {"uv": [2, 6, 3, 7], "texture": "#3"},
				"up": {"uv": [2, 6, 3, 7], "texture": "#3"},
				"down": {"uv": [2, 6, 3, 7], "texture": "#3"}
			}
		},
		{
			"from": [3, 0, 13.3],
			"to": [13, 1.7, 14.7],
			"rotation": {"angle": 0, "axis": "y", "origin": [0, 0, 0]},
			"faces": {
				"north": {"uv": [2, 6, 3, 7], "texture": "#3"},
				"east": {"uv": [2, 6, 3, 7], "texture": "#3"},
				"south": {"uv": [2, 6, 3, 7], "texture": "#3"},
				"west": {"uv": [2, 6, 3, 7], "texture": "#3"},
				"up": {"uv": [2, 6, 3, 7], "texture": "#3"},
				"down": {"uv": [2, 6, 3, 7], "texture": "#3"}
			}
		},
		{
			"from": [3, 8.3, 13.3],
			"to": [13, 10, 14.7],
			"rotation": {"angle": 0, "axis": "y", "origin": [0, 0, 0]},
			"faces": {
				"north": {"uv": [2, 6, 3, 7], "texture": "#3"},
				"east": {"uv": [2, 6, 3, 7], "texture": "#3"},
				"south": {"uv": [2, 6, 3, 7], "texture": "#3"},
				"west": {"uv": [2, 6, 3, 7], "texture": "#3"},
				"up": {"uv": [2, 6, 3, 7], "texture": "#3"},
				"down": {"uv": [2, 6, 3, 7], "texture": "#3"}
			}
		},
		{
			"from": [1.3, 0, 3],
			"to": [2.7, 1.7, 13],
			"rotation": {"angle": 0, "axis": "y", "origin": [0, 0, 0]},
			"faces": {
				"north": {"uv": [2, 6, 3, 7], "texture": "#3"},
				"east": {"uv": [2, 6, 3, 7], "texture": "#3"},
				"south": {"uv": [2, 6, 3, 7], "texture": "#3"},
				"west": {"uv": [2, 6, 3, 7], "texture": "#3"},
				"up": {"uv": [2, 6, 3, 7], "texture": "#3"},
				"down": {"uv": [2, 6, 3, 7], "texture": "#3"}
			}
		},
		{
			"from": [13.3, 0, 3],
			"to": [14.7, 1.7, 13],
			"rotation": {"angle": 0, "axis": "y", "origin": [0, 0, 0]},
			"faces": {
				"north": {"uv": [2, 6, 3, 7], "texture": "#3"},
				"east": {"uv": [2, 6, 3, 7], "texture": "#3"},
				"south": {"uv": [2, 6, 3, 7], "texture": "#3"},
				"west": {"uv": [2, 6, 3, 7], "texture": "#3"},
				"up": {"uv": [2, 6, 3, 7], "texture": "#3"},
				"down": {"uv": [2, 6, 3, 7], "texture": "#3"}
			}
		},
		{
			"from": [13.3, 8.3, 3],
			"to": [14.7, 10, 13],
			"rotation": {"angle": 0, "axis": "y", "origin": [0, 0, 0]},
			"faces": {
				"north": {"uv": [2, 6, 3, 7], "texture": "#3"},
				"east": {"uv": [2, 6, 3, 7], "texture": "#3"},
				"south": {"uv": [2, 6, 3, 7], "texture": "#3"},
				"west": {"uv": [2, 6, 3, 7], "texture": "#3"},
				"up": {"uv": [2, 6, 3, 7], "texture": "#3"},
				"down": {"uv": [2, 6, 3, 7], "texture": "#3"}
			}
		},
		{
			"from": [1.3, 8.3, 3],
			"to": [2.7, 10, 13],
			"rotation": {"angle": 0, "axis": "y", "origin": [0, 0, 0]},
			"faces": {
				"north": {"uv": [2, 6, 3, 7], "texture": "#3"},
				"east": {"uv": [2, 6, 3, 7], "texture": "#3"},
				"south": {"uv": [2, 6, 3, 7], "texture": "#3"},
				"west": {"uv": [2, 6, 3, 7], "texture": "#3"},
				"up": {"uv": [2, 6, 3, 7], "texture": "#3"},
				"down": {"uv": [2, 6, 3, 7], "texture": "#3"}
			}
		},
		{
			"from": [1.3, 2, 1.3],
			"to": [2.7, 8, 2.7],
			"rotation": {"angle": 0, "axis": "y", "origin": [0, 0, 0]},
			"faces": {
				"north": {"uv": [2, 6, 3, 7], "texture": "#3"},
				"east": {"uv": [2, 6, 3, 7], "texture": "#3"},
				"south": {"uv": [2, 6, 3, 7], "texture": "#3"},
				"west": {"uv": [2, 6, 3, 7], "texture": "#3"},
				"up": {"uv": [2, 6, 3, 7], "texture": "#3"},
				"down": {"uv": [2, 6, 3, 7], "texture": "#3"}
			}
		},
		{
			"from": [1.3, 2, 13.3],
			"to": [2.7, 8, 14.7],
			"rotation": {"angle": 0, "axis": "y", "origin": [0, 0, 0]},
			"faces": {
				"north": {"uv": [2, 6, 3, 7], "texture": "#3"},
				"east": {"uv": [2, 6, 3, 7], "texture": "#3"},
				"south": {"uv": [2, 6, 3, 7], "texture": "#3"},
				"west": {"uv": [2, 6, 3, 7], "texture": "#3"},
				"up": {"uv": [2, 6, 3, 7], "texture": "#3"},
				"down": {"uv": [2, 6, 3, 7], "texture": "#3"}
			}
		},
		{
			"from": [13.3, 2, 13.3],
			"to": [14.7, 8, 14.7],
			"rotation": {"angle": 0, "axis": "y", "origin": [0, 0, 0]},
			"faces": {
				"north": {"uv": [2, 6, 3, 7], "texture": "#3"},
				"east": {"uv": [2, 6, 3, 7], "texture": "#3"},
				"south": {"uv": [2, 6, 3, 7], "texture": "#3"},
				"west": {"uv": [2, 6, 3, 7], "texture": "#3"},
				"up": {"uv": [2, 6, 3, 7], "texture": "#3"},
				"down": {"uv": [2, 6, 3, 7], "texture": "#3"}
			}
		},
		{
			"from": [13.3, 2, 1.3],
			"to": [14.7, 8, 2.7],
			"rotation": {"angle": 0, "axis": "y", "origin": [0, 0, 0]},
			"faces": {
				"north": {"uv": [2, 6, 3, 7], "texture": "#3"},
				"east": {"uv": [2, 6, 3, 7], "texture": "#3"},
				"south": {"uv": [2, 6, 3, 7], "texture": "#3"},
				"west": {"uv": [2, 6, 3, 7], "texture": "#3"},
				"up": {"uv": [2, 6, 3, 7], "texture": "#3"},
				"down": {"uv": [2, 6, 3, 7], "texture": "#3"}
			}
		},
		{
			"from": [1.5, 0.3, 1.5],
			"to": [14.5, 9.7, 14.5],
			"rotation": {"angle": 0, "axis": "y", "origin": [-7, 10, -7]},
			"faces": {
				"north": {"uv": [2, 1, 15, 10], "texture": "#2"},
				"east": {"uv": [2, 1, 15, 10], "texture": "#2"},
				"south": {"uv": [2, 1, 15, 10], "texture": "#2"},
				"west": {"uv": [2, 1, 15, 10], "texture": "#2"},
				"up": {"uv": [2, 1, 15, 10], "texture": "#2"},
				"down": {"uv": [2, 1, 15, 10], "texture": "#2"}
			}
		},
		{
			"from": [1.299, 9.00036, 1.279],
			"to": [2.699, 12.56236, 2.679],
			"rotation": {"angle": 0, "axis": "y", "origin": [1, 0, 0]},
			"faces": {
				"north": {"uv": [2, 6, 3, 7], "texture": "#3"},
				"east": {"uv": [2, 6, 3, 7], "texture": "#3"},
				"south": {"uv": [2, 6, 3, 7], "texture": "#3"},
				"west": {"uv": [2, 6, 3, 7], "texture": "#3"},
				"up": {"uv": [2, 6, 3, 7], "texture": "#3"},
				"down": {"uv": [2, 6, 3, 7], "texture": "#3"}
			}
		},
		{
			"from": [1.299, 9.00036, 13.321],
			"to": [2.699, 12.56236, 14.721],
			"rotation": {"angle": 0, "axis": "y", "origin": [1, 0, 0]},
			"faces": {
				"north": {"uv": [2, 6, 3, 7], "texture": "#3"},
				"east": {"uv": [2, 6, 3, 7], "texture": "#3"},
				"south": {"uv": [2, 6, 3, 7], "texture": "#3"},
				"west": {"uv": [2, 6, 3, 7], "texture": "#3"},
				"up": {"uv": [2, 6, 3, 7], "texture": "#3"},
				"down": {"uv": [2, 6, 3, 7], "texture": "#3"}
			}
		},
		{
			"from": [1.299, 12.6, 4.75],
			"to": [2.699, 14, 11.25],
			"rotation": {"angle": 0, "axis": "y", "origin": [-6, 6, 6.6]},
			"faces": {
				"north": {"uv": [2, 6, 3, 7], "texture": "#3"},
				"east": {"uv": [2, 6, 3, 7], "texture": "#3"},
				"south": {"uv": [2, 6, 3, 7], "texture": "#3"},
				"west": {"uv": [2, 6, 3, 7], "texture": "#3"},
				"up": {"uv": [2, 6, 3, 7], "texture": "#3"},
				"down": {"uv": [2, 6, 3, 7], "texture": "#3"}
			}
		},
		{
			"from": [1.3, 14.18934, 4.68227],
			"to": [2.7, 15.58934, 8.43827],
			"rotation": {"angle": -22.5, "axis": "x", "origin": [-6.001, 5.52359, 10.58921]},
			"faces": {
				"north": {"uv": [2, 6, 3, 7], "texture": "#3"},
				"east": {"uv": [2, 6, 3, 7], "texture": "#3"},
				"south": {"uv": [2, 6, 3, 7], "texture": "#3"},
				"west": {"uv": [2, 6, 3, 7], "texture": "#3"},
				"up": {"uv": [2, 6, 3, 7], "texture": "#3"},
				"down": {"uv": [2, 6, 3, 7], "texture": "#3"}
			}
		},
		{
			"from": [1.3, 11.10572, 6.94836],
			"to": [2.7, 12.50572, 10.70436],
			"rotation": {"angle": 22.5, "axis": "x", "origin": [-6.001, 2.43997, 12.85531]},
			"faces": {
				"north": {"uv": [2, 6, 3, 7], "texture": "#3"},
				"east": {"uv": [2, 6, 3, 7], "texture": "#3"},
				"south": {"uv": [2, 6, 3, 7], "texture": "#3"},
				"west": {"uv": [2, 6, 3, 7], "texture": "#3"},
				"up": {"uv": [2, 6, 3, 7], "texture": "#3"},
				"down": {"uv": [2, 6, 3, 7], "texture": "#3"}
			}
		},
		{
			"from": [13.301, 9.00036, 1.279],
			"to": [14.701, 12.56236, 2.679],
			"rotation": {"angle": 0, "axis": "y", "origin": [13.002, 0, 0]},
			"faces": {
				"north": {"uv": [2, 6, 3, 7], "texture": "#3"},
				"east": {"uv": [2, 6, 3, 7], "texture": "#3"},
				"south": {"uv": [2, 6, 3, 7], "texture": "#3"},
				"west": {"uv": [2, 6, 3, 7], "texture": "#3"},
				"up": {"uv": [2, 6, 3, 7], "texture": "#3"},
				"down": {"uv": [2, 6, 3, 7], "texture": "#3"}
			}
		},
		{
			"from": [13.301, 9.00036, 13.321],
			"to": [14.701, 12.56236, 14.721],
			"rotation": {"angle": 0, "axis": "y", "origin": [13.002, 0, 0]},
			"faces": {
				"north": {"uv": [2, 6, 3, 7], "texture": "#3"},
				"east": {"uv": [2, 6, 3, 7], "texture": "#3"},
				"south": {"uv": [2, 6, 3, 7], "texture": "#3"},
				"west": {"uv": [2, 6, 3, 7], "texture": "#3"},
				"up": {"uv": [2, 6, 3, 7], "texture": "#3"},
				"down": {"uv": [2, 6, 3, 7], "texture": "#3"}
			}
		},
		{
			"from": [13.301, 12.6, 4.75],
			"to": [14.701, 14, 11.25],
			"rotation": {"angle": 0, "axis": "y", "origin": [6.002, 6, 6.6]},
			"faces": {
				"north": {"uv": [2, 6, 3, 7], "texture": "#3"},
				"east": {"uv": [2, 6, 3, 7], "texture": "#3"},
				"south": {"uv": [2, 6, 3, 7], "texture": "#3"},
				"west": {"uv": [2, 6, 3, 7], "texture": "#3"},
				"up": {"uv": [2, 6, 3, 7], "texture": "#3"},
				"down": {"uv": [2, 6, 3, 7], "texture": "#3"}
			}
		},
		{
			"from": [13.302, 14.18934, 4.68227],
			"to": [14.702, 15.58934, 8.43827],
			"rotation": {"angle": -22.5, "axis": "x", "origin": [6.001, 5.52359, 10.58921]},
			"faces": {
				"north": {"uv": [2, 6, 3, 7], "texture": "#3"},
				"east": {"uv": [2, 6, 3, 7], "texture": "#3"},
				"south": {"uv": [2, 6, 3, 7], "texture": "#3"},
				"west": {"uv": [2, 6, 3, 7], "texture": "#3"},
				"up": {"uv": [2, 6, 3, 7], "texture": "#3"},
				"down": {"uv": [2, 6, 3, 7], "texture": "#3"}
			}
		},
		{
			"from": [13.302, 11.10572, 6.94836],
			"to": [14.702, 12.50572, 10.70436],
			"rotation": {"angle": 22.5, "axis": "x", "origin": [6.001, 2.43997, 12.85531]},
			"faces": {
				"north": {"uv": [2, 6, 3, 7], "texture": "#3"},
				"east": {"uv": [2, 6, 3, 7], "texture": "#3"},
				"south": {"uv": [2, 6, 3, 7], "texture": "#3"},
				"west": {"uv": [2, 6, 3, 7], "texture": "#3"},
				"up": {"uv": [2, 6, 3, 7], "texture": "#3"},
				"down": {"uv": [2, 6, 3, 7], "texture": "#3"}
			}
		},
		{
			"from": [1.498, 9.3004, 1.5],
			"to": [14.502, 12.3544, 14.5],
			"rotation": {"angle": 0, "axis": "y", "origin": [-7, 10, -7]},
			"faces": {
				"north": {"uv": [2, 4, 15, 7], "texture": "#2"},
				"east": {"uv": [2, 4, 15, 7], "texture": "#2"},
				"south": {"uv": [2, 4, 15, 7], "texture": "#2"},
				"west": {"uv": [2, 4, 15, 7], "texture": "#2"},
				"up": {"uv": [15, 14, 2, 1], "texture": "#2"},
				"down": {"uv": [15, 1, 2, 14], "texture": "#2"}
			}
		},
		{
			"from": [1.499, 12, 4.75],
			"to": [14.501, 13.7, 11.25],
			"rotation": {"angle": 0, "axis": "y", "origin": [-6.799, 4.6004, 3.35]},
			"faces": {
				"north": {"uv": [2, 8, 15, 10], "texture": "#2"},
				"east": {"uv": [9, 9, 15, 11], "texture": "#2"},
				"south": {"uv": [2, 8, 15, 10], "texture": "#2"},
				"west": {"uv": [9, 9, 15, 11], "texture": "#2"},
				"up": {"uv": [14, 12, 1, 6], "texture": "#2"},
				"down": {"uv": [14, 12, 1, 6], "texture": "#2"}
			}
		},
		{
			"from": [1.5, 13.98157, 4.90492],
			"to": [14.5, 15.38157, 8.41992],
			"rotation": {"angle": -22.5, "axis": "x", "origin": [-6.801, 5.31581, 10.81187]},
			"faces": {
				"north": {"uv": [2, 4, 15, 5], "texture": "#2"},
				"east": {"uv": [7, 1, 10, 2], "texture": "#2"},
				"south": {"uv": [2, 4, 15, 5], "texture": "#2"},
				"west": {"uv": [7, 1, 10, 2], "texture": "#2"},
				"up": {"uv": [15, 13, 2, 10], "texture": "#2"},
				"down": {"uv": [15, 13, 2, 10], "texture": "#2"}
			}
		},
		{
			"from": [1.5, 10.80572, 6.94836],
			"to": [14.5, 12.20572, 10.46336],
			"rotation": {"angle": 22.5, "axis": "x", "origin": [-9.801, 2.13997, 12.85531]},
			"faces": {
				"north": {"uv": [2, 4, 15, 5], "texture": "#2"},
				"east": {"uv": [7, 1, 10, 2], "texture": "#2"},
				"south": {"uv": [2, 4, 15, 5], "texture": "#2"},
				"west": {"uv": [7, 1, 10, 2], "texture": "#2"},
				"up": {"uv": [15, 13, 2, 10], "texture": "#2"},
				"down": {"uv": [15, 13, 2, 10], "texture": "#2"}
			}
		},
		{
			"from": [7.49475, 3.25001, 1.00524],
			"to": [8.49475, 5.25001, 2.00524],
			"rotation": {"angle": 0, "axis": "y", "origin": [0, 0, 0]},
			"faces": {
				"north": {"uv": [0, 0, 16, 16], "texture": "#0"},
				"east": {"uv": [0, 0, 16, 16], "texture": "#0"},
				"south": {"uv": [0, 0, 16, 16], "texture": "#0"},
				"west": {"uv": [0, 0, 16, 16], "texture": "#0"},
				"up": {"uv": [0, 0, 16, 16], "texture": "#0"},
				"down": {"uv": [0, 0, 16, 16], "texture": "#0"}
			}
		},
		{
			"from": [6.99475, 5.25001, 1.00524],
			"to": [8.99475, 7.25001, 2.00524],
			"rotation": {"angle": 0, "axis": "y", "origin": [0, 0, 0]},
			"faces": {
				"north": {"uv": [0, 0, 16, 16], "texture": "#0"},
				"east": {"uv": [0, 0, 16, 16], "texture": "#0"},
				"south": {"uv": [0, 0, 16, 16], "texture": "#0"},
				"west": {"uv": [0, 0, 16, 16], "texture": "#0"},
				"up": {"uv": [0, 0, 16, 16], "texture": "#0"},
				"down": {"uv": [0, 0, 16, 16], "texture": "#0"}
			}
		},
		{
			"from": [8.49475, 3.25001, 0.75524],
			"to": [8.99475, 5.25001, 1.75524],
			"rotation": {"angle": 0, "axis": "y", "origin": [0, 0, 0]},
			"faces": {
				"north": {"uv": [7, 5, 7, 7], "texture": "#3"},
				"east": {"uv": [4, 8, 5, 10], "texture": "#3"},
				"south": {"uv": [5, 5, 5, 7], "texture": "#3"},
				"west": {"uv": [6, 6, 7, 8], "texture": "#3"},
				"up": {"uv": [8, 5, 8, 4], "texture": "#3"},
				"down": {"uv": [4, 7, 4, 8], "texture": "#3"}
			}
		},
		{
			"from": [6.99475, 2.75001, 0.75524],
			"to": [8.99475, 3.25001, 1.75524],
			"rotation": {"angle": 0, "axis": "y", "origin": [0, 0, 0]},
			"faces": {
				"north": {"uv": [4, 8, 6, 8], "texture": "#3"},
				"east": {"uv": [7, 4, 8, 4], "texture": "#3"},
				"south": {"uv": [11, 4, 13, 4], "texture": "#3"},
				"west": {"uv": [10, 4, 11, 4], "texture": "#3"},
				"up": {"uv": [10, 4, 8, 3], "texture": "#3"},
				"down": {"uv": [12, 3, 10, 4], "texture": "#3"}
			}
		},
		{
			"from": [6.99475, 3.25001, 0.75524],
			"to": [7.49475, 5.25001, 1.75524],
			"rotation": {"angle": 0, "axis": "y", "origin": [0, 0, 0]},
			"faces": {
				"north": {"uv": [7, 7, 7, 9], "texture": "#3"},
				"east": {"uv": [4, 6, 5, 8], "texture": "#3"},
				"south": {"uv": [8, 9, 8, 11], "texture": "#3"},
				"west": {"uv": [6, 6, 7, 8], "texture": "#3"},
				"up": {"uv": [7, 9, 7, 8], "texture": "#3"},
				"down": {"uv": [7, 8, 7, 9], "texture": "#3"}
			}
		},
		{
			"from": [6.49475, 7.25001, 0.75524],
			"to": [9.49475, 7.75001, 1.75524],
			"rotation": {"angle": 0, "axis": "y", "origin": [0, 0, 0]},
			"faces": {
				"north": {"uv": [6, 5, 9, 5], "texture": "#3"},
				"east": {"uv": [5, 5, 6, 5], "texture": "#3"},
				"south": {"uv": [6, 5, 9, 5], "texture": "#3"},
				"west": {"uv": [9, 5, 10, 5], "texture": "#3"},
				"up": {"uv": [9, 5, 6, 4], "texture": "#3"},
				"down": {"uv": [12, 4, 9, 5], "texture": "#3"}
			}
		},
		{
			"from": [8.99475, 4.75001, 0.75524],
			"to": [9.49475, 7.25001, 1.75524],
			"rotation": {"angle": 0, "axis": "y", "origin": [0, 0, 0]},
			"faces": {
				"north": {"uv": [6, 6, 6, 8], "texture": "#3"},
				"east": {"uv": [6, 6, 6, 8], "texture": "#3"},
				"south": {"uv": [6, 6, 6, 8], "texture": "#3"},
				"west": {"uv": [6, 6, 6, 8], "texture": "#3"},
				"up": {"uv": [4, 5, 4, 4], "texture": "#3"},
				"down": {"uv": [6, 6, 6, 7], "texture": "#3"}
			}
		},
		{
			"from": [6.49475, 4.75001, 0.75524],
			"to": [6.99475, 7.25001, 1.75524],
			"rotation": {"angle": 0, "axis": "y", "origin": [0, 0, 0]},
			"faces": {
				"north": {"uv": [6, 7, 6, 9], "texture": "#3"},
				"east": {"uv": [6, 6, 7, 8], "texture": "#3"},
				"south": {"uv": [4, 6, 4, 8], "texture": "#3"},
				"west": {"uv": [5, 9, 6, 11], "texture": "#3"},
				"up": {"uv": [3, 7, 3, 6], "texture": "#3"},
				"down": {"uv": [4, 8, 4, 9], "texture": "#3"}
			}
		}
	],
	"display": {
		"thirdperson_righthand": {
			"rotation": [67, 0, 0],
			"translation": [0, -0.75, -1.75],
			"scale": [0.5, 0.5, 0.5]
		},
		"thirdperson_lefthand": {
			"rotation": [67, 0, 0],
			"translation": [0, -0.75, -1.75],
			"scale": [0.5, 0.5, 0.5]
		},
		"firstperson_righthand": {
			"rotation": [0, -180, 0],
			"translation": [-2.5, 5, 4],
			"scale": [0.3, 0.3, 0.3]
		},
		"firstperson_lefthand": {
			"rotation": [0, -180, 0],
			"translation": [-2.5, 5, 4],
			"scale": [0.3, 0.3, 0.3]
		},
		"ground": {
			"translation": [0, 2.5, 0],
			"scale": [0.5, 0.5, 0.5]
		},
		"gui": {
			"rotation": [25, -135, 0],
			"translation": [-0.25, 0.75, 0],
			"scale": [0.75, 0.75, 0.75]
		},
		"head": {
			"translation": [0, 15.5, 0]
		},
		"fixed": {
			"rotation": [90, 0, 0],
			"translation": [0, 0, 21],
			"scale": [2.55, 2.55, 2.55]
		}
	},
	"groups": [
		{
			"name": "base",
			"origin": [-7, 10, -7],
			"children": [
				{
					"name": "corners",
					"origin": [0, 0, 0],
					"children": [
						{
							"name": "bottom",
							"origin": [0, 0, 0],
							"children": [0, 1, 2, 3]
						},
						{
							"name": "top",
							"origin": [0, 0, 0],
							"children": [4, 5, 6, 7]
						}
					]
				},
				{
					"name": "frame",
					"origin": [0, 0, 0],
					"children": [
						{
							"name": "horizontal",
							"origin": [0, 0, 0],
							"children": [
								{
									"name": "long",
									"origin": [0, 0, 0],
									"children": [8, 9, 10, 11]
								},
								{
									"name": "short",
									"origin": [0, 0, 0],
									"children": [12, 13, 14, 15]
								}
							]
						},
						{
							"name": "vertical",
							"origin": [0, 0, 0],
							"children": [16, 17, 18, 19]
						}
					]
				},
				{
					"name": "box",
					"origin": [-7, 10, -7],
					"children": [20]
				}
			]
		},
		{
			"name": "lid",
			"origin": [-7, 9, 7],
			"children": [
				{
					"name": "lid_frame",
					"origin": [-7, 9, 7],
					"children": [
						{
							"name": "right_frame",
							"origin": [-6, 6, 6.6],
							"children": [21, 22, 23, 24, 25]
						},
						{
							"name": "left_frame",
							"origin": [-6, 6, 6.6],
							"children": [26, 27, 28, 29, 30]
						}
					]
				},
				{
					"name": "lid_box",
					"origin": [-7, 9, 7],
					"children": [31, 32, 33, 34]
				}
			]
		},
		{
			"name": "knob",
			"origin": [0, 9, 7],
			"children": [
				{
					"name": "keyhole",
					"origin": [0, 9, 7],
					"children": [
						{
							"name": "inner",
							"origin": [0, 9, 7],
							"children": [35, 36]
						},
						{
							"name": "border",
							"origin": [0, 9, 7],
							"children": [37, 38, 39, 40, 41, 42]
						}
					]
				}
			]
		}
	]
}