{
	"credit": "Made with Blockbench by SHsuperCM",
	"parent": "block/block",
	"ambientocclusion": false,
	"textures": {
		"1": "block/cobblestone",
		"2": "block/mossy_cobblestone",
		"3": "block/coarse_dirt",
		"4": "block/grave_writing",
		"particle": "block/grave_writing"
	},
	"elements": [
		{
			"from": [4, 0, 3],
			"to": [12, 0, 9],
			"rotation": {"angle": 0, "axis": "y", "origin": [12, 8, 11]},
			"faces": {
				"north": {"uv": [0, 0, 8, 0], "texture": "#missing"},
				"east": {"uv": [0, 0, 6, 0], "texture": "#missing"},
				"south": {"uv": [0, 0, 8, 0], "texture": "#missing"},
				"west": {"uv": [0, 0, 6, 0], "texture": "#missing"},
				"up": {"uv": [3, 5, 11, 11], "texture": "#3"},
				"down": {"uv": [2, 5, 10, 11], "texture": "#3"}
			}
		},
		{
			"from": [5, 0, 4],
			"to": [11, 0.5, 7],
			"rotation": {"angle": 0, "axis": "y", "origin": [12, 8, 11]},
			"faces": {
				"north": {"uv": [3, 0, 9, 0.5], "texture": "#3"},
				"east": {"uv": [4, 8, 7, 8.5], "texture": "#3"},
				"west": {"uv": [0, 8, 3, 8.5], "texture": "#3"},
				"up": {"uv": [4, 6, 10, 9], "texture": "#3"}
			}
		},
		{
			"from": [4, 0, 7],
			"to": [12, 0.5, 9],
			"rotation": {"angle": 0, "axis": "y", "origin": [12, 8, 11]},
			"faces": {
				"north": {"uv": [3, 0, 11, 0.5], "texture": "#3"},
				"east": {"uv": [4, 8, 6, 8.5], "texture": "#3"},
				"west": {"uv": [0, 8, 2, 8.5], "texture": "#3"},
				"up": {"uv": [4, 6, 12, 8], "texture": "#3"}
			}
		},
		{
			"from": [4, 0, 13],
			"to": [12, 0, 15],
			"rotation": {"angle": 0, "axis": "y", "origin": [12, 8, 17]},
			"faces": {
				"north": {"uv": [0, 0, 8, 0], "texture": "#missing"},
				"east": {"uv": [0, 0, 2, 0], "texture": "#missing"},
				"south": {"uv": [0, 0, 8, 0], "texture": "#missing"},
				"west": {"uv": [0, 0, 2, 0], "texture": "#missing"},
				"up": {"uv": [2, 14, 10, 16], "rotation": 180, "texture": "#3"},
				"down": {"uv": [2, 5, 10, 7], "texture": "#3"}
			}
		},
		{
			"from": [1, 0, 6],
			"to": [4, 0, 9],
			"rotation": {"angle": 0, "axis": "y", "origin": [10, 8, 11]},
			"faces": {
				"north": {"uv": [0, 0, 3, 0], "texture": "#missing"},
				"east": {"uv": [0, 0, 3, 0], "texture": "#missing"},
				"south": {"uv": [0, 0, 3, 0], "texture": "#missing"},
				"west": {"uv": [0, 0, 3, 0], "texture": "#missing"},
				"up": {"uv": [8, 7, 11, 10], "texture": "#3"},
				"down": {"uv": [2, 5, 5, 8], "texture": "#3"}
			}
		},
		{
			"from": [12, 0, 6],
			"to": [14, 0, 9],
			"rotation": {"angle": 0, "axis": "y", "origin": [20, 8, 11]},
			"faces": {
				"north": {"uv": [0, 0, 2, 0], "texture": "#missing"},
				"east": {"uv": [0, 0, 3, 0], "texture": "#missing"},
				"south": {"uv": [0, 0, 2, 0], "texture": "#missing"},
				"west": {"uv": [0, 0, 3, 0], "texture": "#missing"},
				"up": {"uv": [10, 7, 12, 10], "texture": "#3"},
				"down": {"uv": [2, 5, 4, 8], "texture": "#3"}
			}
		},
		{
			"from": [14, 0, 9],
			"to": [16, 0, 12],
			"rotation": {"angle": 0, "axis": "y", "origin": [22, 8, 14]},
			"faces": {
				"north": {"uv": [0, 0, 2, 0], "texture": "#missing"},
				"east": {"uv": [0, 0, 3, 0], "texture": "#missing"},
				"south": {"uv": [0, 0, 2, 0], "texture": "#missing"},
				"west": {"uv": [0, 0, 3, 0], "texture": "#missing"},
				"up": {"uv": [13, 9, 15, 12], "texture": "#3"},
				"down": {"uv": [2, 5, 4, 8], "texture": "#3"}
			}
		},
		{
			"from": [5, 0, 1],
			"to": [10, 0, 3],
			"rotation": {"angle": 0, "axis": "y", "origin": [12, 8, 5]},
			"faces": {
				"north": {"uv": [0, 0, 5, 0], "texture": "#missing"},
				"east": {"uv": [0, 0, 2, 0], "texture": "#missing"},
				"south": {"uv": [0, 0, 5, 0], "texture": "#missing"},
				"west": {"uv": [0, 0, 2, 0], "texture": "#missing"},
				"up": {"uv": [3, 1, 8, 3], "texture": "#3"},
				"down": {"uv": [2, 5, 7, 7], "texture": "#3"}
			}
		},
		{
			"from": [0, 0, 10],
			"to": [2, 0, 12],
			"rotation": {"angle": 0, "axis": "y", "origin": [6, 8, 14]},
			"faces": {
				"north": {"uv": [0, 0, 2, 0], "texture": "#missing"},
				"east": {"uv": [0, 0, 2, 0], "texture": "#missing"},
				"south": {"uv": [0, 0, 2, 0], "texture": "#missing"},
				"west": {"uv": [0, 0, 2, 0], "texture": "#missing"},
				"up": {"uv": [8, 10, 10, 12], "texture": "#3"},
				"down": {"uv": [2, 5, 4, 7], "texture": "#3"}
			}
		},
		{
			"from": [1, 0, 3],
			"to": [2, 0, 4],
			"rotation": {"angle": 0, "axis": "y", "origin": [6, 8, 6]},
			"faces": {
				"north": {"uv": [0, 0, 1, 0], "texture": "#missing"},
				"east": {"uv": [0, 0, 1, 0], "texture": "#missing"},
				"south": {"uv": [0, 0, 1, 0], "texture": "#missing"},
				"west": {"uv": [0, 0, 1, 0], "texture": "#missing"},
				"up": {"uv": [3, 1, 4, 2], "texture": "#3"},
				"down": {"uv": [2, 5, 3, 6], "texture": "#3"}
			}
		},
		{
			"from": [14, 0, 1],
			"to": [15, 0, 2],
			"rotation": {"angle": 0, "axis": "y", "origin": [19, 8, 4]},
			"faces": {
				"north": {"uv": [0, 0, 1, 0], "texture": "#missing"},
				"east": {"uv": [0, 0, 1, 0], "texture": "#missing"},
				"south": {"uv": [0, 0, 1, 0], "texture": "#missing"},
				"west": {"uv": [0, 0, 1, 0], "texture": "#missing"},
				"up": {"uv": [4, 4, 5, 5], "texture": "#3"},
				"down": {"uv": [2, 5, 3, 6], "texture": "#3"}
			}
		},
		{
			"from": [14, 0, 13],
			"to": [15, 0, 14],
			"rotation": {"angle": 0, "axis": "y", "origin": [19, 8, 16]},
			"faces": {
				"north": {"uv": [0, 0, 1, 0], "texture": "#missing"},
				"east": {"uv": [0, 0, 1, 0], "texture": "#missing"},
				"south": {"uv": [0, 0, 1, 0], "texture": "#missing"},
				"west": {"uv": [0, 0, 1, 0], "texture": "#missing"},
				"up": {"uv": [4, 4, 5, 5], "texture": "#3"},
				"down": {"uv": [2, 5, 3, 6], "texture": "#3"}
			}
		},
		{
			"from": [2, 0, 13],
			"to": [4, 0, 14],
			"rotation": {"angle": 0, "axis": "y", "origin": [8, 8, 16]},
			"faces": {
				"north": {"uv": [0, 0, 2, 0], "texture": "#missing"},
				"east": {"uv": [0, 0, 1, 0], "texture": "#missing"},
				"south": {"uv": [0, 0, 2, 0], "texture": "#missing"},
				"west": {"uv": [0, 0, 1, 0], "texture": "#missing"},
				"up": {"uv": [9, 4, 11, 5], "texture": "#3"},
				"down": {"uv": [2, 5, 4, 6], "texture": "#3"}
			}
		},
		{
			"from": [13, 0, 4],
			"to": [15, 0, 6],
			"rotation": {"angle": 0, "axis": "y", "origin": [18, 8, 8]},
			"faces": {
				"north": {"uv": [0, 0, 2, 0], "texture": "#missing"},
				"east": {"uv": [0, 0, 2, 0], "texture": "#missing"},
				"south": {"uv": [0, 0, 2, 0], "texture": "#missing"},
				"west": {"uv": [0, 0, 2, 0], "texture": "#missing"},
				"up": {"uv": [5, 5, 7, 7], "texture": "#3"},
				"down": {"uv": [2, 5, 4, 7], "texture": "#3"}
			}
		},
		{
			"from": [4, 0, 9],
			"to": [12, 11, 13],
			"rotation": {"angle": 0, "axis": "y", "origin": [11, 8, 17]},
			"faces": {
				"north": {"uv": [4, 3, 12, 14], "texture": "#1"},
				"east": {"uv": [12, 0, 16, 11], "texture": "#1"},
				"south": {"uv": [2, 1, 10, 12], "texture": "#2"},
				"west": {"uv": [0, 0, 4, 11], "texture": "#1"},
				"down": {"uv": [5, 0, 13, 4], "texture": "#3"}
			}
		},
		{
			"from": [2, 0, 11],
			"to": [4, 11, 13],
			"rotation": {"angle": 0, "axis": "y", "origin": [8, 8, 17]},
			"faces": {
				"north": {"uv": [0, 0, 2, 11], "texture": "#1"},
				"south": {"uv": [1, 0, 3, 11], "texture": "#2"},
				"west": {"uv": [10, 3, 12, 14], "rotation": 180, "texture": "#2"},
				"up": {"uv": [0, 0, 2, 2], "texture": "#missing"},
				"down": {"uv": [11, 2, 13, 4], "texture": "#3"}
			}
		},
		{
			"from": [2, 0, 9],
			"to": [4, 3, 11],
			"rotation": {"angle": 0, "axis": "y", "origin": [8, 8, 15]},
			"faces": {
				"north": {"uv": [11, 12, 13, 15], "texture": "#2"},
				"west": {"uv": [13, 7, 15, 10], "texture": "#2"},
				"up": {"uv": [0, 0, 2, 2], "texture": "#1"},
				"down": {"uv": [11, 0, 13, 2], "texture": "#3"}
			}
		},
		{
			"from": [2.15, 3, 9.15],
			"to": [4.15, 6, 11.15],
			"rotation": {"angle": 0, "axis": "y", "origin": [8.15, 11, 15.15]},
			"faces": {
				"north": {"uv": [3, 5, 5, 8], "texture": "#2"},
				"west": {"uv": [12, 13, 14, 16], "texture": "#2"},
				"up": {"uv": [0, 0, 10, 4], "texture": "#missing"},
				"down": {"uv": [0, 0, 10, 9], "texture": "#missing"}
			}
		},
		{
			"from": [2, 6, 9],
			"to": [4, 11, 11],
			"rotation": {"angle": 0, "axis": "y", "origin": [8, 14, 15]},
			"faces": {
				"north": {"uv": [11, 11, 13, 16], "texture": "#2"},
				"east": {"uv": [12, 0, 14, 5], "texture": "#missing"},
				"south": {"uv": [0, 0, 2, 5], "texture": "#missing"},
				"west": {"uv": [14, 11, 16, 16], "texture": "#1"},
				"up": {"uv": [0, 0, 2, 2], "texture": "#missing"},
				"down": {"uv": [0, 0, 2, 2], "texture": "#2"}
			}
		},
		{
			"from": [12, 0, 11],
			"to": [14, 11, 13],
			"rotation": {"angle": 0, "axis": "y", "origin": [18, 8, 17]},
			"faces": {
				"north": {"uv": [2, 2, 4, 13], "texture": "#1"},
				"east": {"uv": [13, 0, 15, 11], "texture": "#2"},
				"south": {"uv": [1, 0, 3, 11], "rotation": 180, "texture": "#2"},
				"west": {"uv": [0, 0, 2, 11], "texture": "#missing"},
				"up": {"uv": [0, 0, 2, 2], "texture": "#missing"},
				"down": {"uv": [3, 2, 5, 4], "texture": "#3"}
			}
		},
		{
			"from": [12, 0, 9],
			"to": [14, 6, 11],
			"rotation": {"angle": 0, "axis": "y", "origin": [18, 8, 15]},
			"faces": {
				"north": {"uv": [14, 10, 16, 16], "texture": "#2"},
				"east": {"uv": [13, 5, 15, 11], "texture": "#2"},
				"up": {"uv": [3, 0, 5, 2], "texture": "#2"},
				"down": {"uv": [3, 0, 5, 2], "texture": "#3"}
			}
		},
		{
			"from": [11.75, 6, 9.5],
			"to": [13.75, 11, 11.5],
			"rotation": {"angle": 0, "axis": "y", "origin": [17.75, 11, 15.5]},
			"faces": {
				"north": {"uv": [14, 1, 16, 6], "texture": "#2"},
				"east": {"uv": [14, 10, 16, 15], "texture": "#2"},
				"up": {"uv": [0, 0, 2, 2], "texture": "#missing"},
				"down": {"uv": [0, 0, 2, 2], "texture": "#missing"}
			}
		},
		{
			"from": [2, 11, 9],
			"to": [14, 13, 13],
			"rotation": {"angle": 0, "axis": "y", "origin": [11, 19, 17]},
			"faces": {
				"north": {"uv": [2, 0, 14, 2], "texture": "#1"},
				"east": {"uv": [11, 7, 15, 9], "texture": "#2"},
				"south": {"uv": [1, 3, 13, 5], "texture": "#2"},
				"west": {"uv": [11, 3, 15, 5], "texture": "#1"},
				"up": {"uv": [3, 12, 15, 16], "texture": "#2"},
				"down": {"uv": [3, 3, 15, 7], "texture": "#1"}
			}
		},
		{
			"from": [3, 13, 9],
			"to": [13, 14, 13],
			"rotation": {"angle": 0, "axis": "y", "origin": [11, 21, 17]},
			"faces": {
				"north": {"uv": [1, 0, 11, 1], "texture": "#1"},
				"east": {"uv": [12, 0, 16, 1], "rotation": 180, "texture": "#2"},
				"south": {"uv": [4, 13, 14, 13.99], "texture": "#2"},
				"west": {"uv": [9, 10, 13, 11], "texture": "#2"},
				"up": {"uv": [1, 2, 11, 6], "texture": "#1"}
			}
		},
		{
			"from": [6, 14, 10],
			"to": [10, 15, 12],
			"rotation": {"angle": 0, "axis": "y", "origin": [11, 22, 17]},
			"faces": {
				"north": {"uv": [2, 2, 6, 3], "texture": "#1"},
				"east": {"uv": [2, 2, 4, 3], "texture": "#1"},
				"south": {"uv": [3, 3, 7, 4], "texture": "#1"},
				"west": {"uv": [6, 3, 8, 4], "texture": "#1"},
				"up": {"uv": [2, 2, 6, 4], "texture": "#1"}
			}
		},
		{
			"name": "writing",
			"from": [4, 8, 8.99],
			"to": [12, 11, 8.99],
			"rotation": {"angle": 0, "axis": "y", "origin": [15, 17, 15.9]},
			"faces": {
				"north": {"uv": [0, 0, 16, 6], "texture": "#4"}
			}
		},
		{
			"name": "writing",
			"from": [4, 5, 8.99],
			"to": [12, 8, 8.99],
			"rotation": {"angle": 0, "axis": "y", "origin": [15, 14, 15.9]},
			"faces": {
				"north": {"uv": [0, 6, 16, 12], "texture": "#4"}
			}
		}
	],
	"display": {
		"head": {
			"translation": [0, -40.5, 0],
			"scale": [1.603, 1.603, 1.603]
		}
	},
	"groups": [
		{
			"name": "ground",
			"origin": [8, 8, 8],
			"children": [0, 1, 2, 3, 4, 5, 6, 7, 8, 9, 10, 11, 12, 13]
		},
		{
			"name": "stone",
			"origin": [8, 8, 8],
			"children": [14, 15, 16, 17, 18, 19, 20, 21, 22, 23, 24, 25, 26]
		}
	]
}