{
	"credit": "Made with Blockbench",
	"parent": "./cit_item",
	"textures": {
		"0": "block/mizuno_archive/snow",
		"1": "block/mizuno_archive/oak_log",
		"2": "block/mizuno_archive/coal_block",
		"4": "block/mizuno_archive/black_concrete",
		"5": "block/mizuno_archive/red_wool",
		"6": "block/mizuno_archive/gold_ingot_0",
		"1_1": "block/mizuno_archive/carrot_0",
		"particle": "block/mizuno_archive/gold_ingot_0"
	},
	"elements": [
		{
			"from": [2.5, 0, 2.5],
			"to": [13.5, 12, 13.5],
			"rotation": {"angle": 0, "axis": "y", "origin": [15.5, 9, 15.5]},
			"faces": {
				"north": {"uv": [0, 0, 11, 12], "texture": "#0"},
				"east": {"uv": [0, 0, 11, 12], "texture": "#0"},
				"south": {"uv": [0, 0, 11, 12], "texture": "#0"},
				"west": {"uv": [0, 0, 11, 12], "texture": "#0"},
				"up": {"uv": [0, 0, 11, 11], "texture": "#0"},
				"down": {"uv": [0, 0, 11, 11], "texture": "#0"}
			}
		},
		{
			"from": [2.5, 1, 1.5],
			"to": [13.5, 11, 14.5],
			"rotation": {"angle": 0, "axis": "y", "origin": [15.5, 10, 15.5]},
			"faces": {
				"north": {"uv": [0, 0, 11, 10], "texture": "#0"},
				"east": {"uv": [0, 0, 13, 10], "texture": "#0"},
				"south": {"uv": [0, 0, 11, 10], "texture": "#0"},
				"west": {"uv": [0, 0, 13, 10], "texture": "#0"},
				"up": {"uv": [0, 0, 11, 13], "texture": "#0"},
				"down": {"uv": [0, 0, 11, 13], "texture": "#0"}
			}
		},
		{
			"from": [1.49999, 1, 2.49127],
			"to": [14.49999, 11, 13.49127],
			"rotation": {"angle": 0, "axis": "y", "origin": [8.00436, 6.50001, 7.99563]},
			"faces": {
				"north": {"uv": [0, 0, 13, 10], "texture": "#0"},
				"east": {"uv": [0, 0, 11, 10], "texture": "#0"},
				"south": {"uv": [0, 0, 13, 10], "texture": "#0"},
				"west": {"uv": [0, 0, 11, 10], "texture": "#0"},
				"up": {"uv": [0, 0, 11, 13], "rotation": 90, "texture": "#0"},
				"down": {"uv": [0, 0, 11, 13], "rotation": 270, "texture": "#0"}
			}
		},
		{
			"from": [3.71096, 11.14, 3.70904],
			"to": [12.29096, 20.72, 12.28904],
			"rotation": {"angle": 0, "axis": "y", "origin": [13.85096, 17.38, 13.84904]},
			"faces": {
				"north": {"uv": [0, 0, 11, 11], "texture": "#0"},
				"east": {"uv": [0, 0, 11, 11], "texture": "#0"},
				"south": {"uv": [0, 0, 11, 11], "texture": "#0"},
				"west": {"uv": [0, 0, 11, 11], "texture": "#0"},
				"up": {"uv": [0, 0, 11, 11], "texture": "#0"},
				"down": {"uv": [0, 0, 11, 11], "texture": "#0"}
			}
		},
		{
			"from": [3.71096, 11.92, 2.92904],
			"to": [12.29096, 19.94, 13.06904],
			"rotation": {"angle": 0, "axis": "y", "origin": [13.85096, 18.16, 13.84904]},
			"faces": {
				"north": {"uv": [0, 0, 11, 9], "texture": "#0"},
				"east": {"uv": [0, 0, 13, 9], "texture": "#0"},
				"south": {"uv": [0, 0, 11, 9], "texture": "#0"},
				"west": {"uv": [0, 0, 13, 9], "texture": "#0"},
				"up": {"uv": [0, 0, 11, 13], "texture": "#0"},
				"down": {"uv": [0, 0, 11, 13], "texture": "#0"}
			}
		},
		{
			"from": [2.93095, 11.92, 3.70223],
			"to": [13.07095, 19.94, 12.28223],
			"rotation": {"angle": 0, "axis": "y", "origin": [8.00436, 15.43001, 7.99563]},
			"faces": {
				"north": {"uv": [0, 0, 13, 9], "texture": "#0"},
				"east": {"uv": [0, 0, 11, 9], "texture": "#0"},
				"south": {"uv": [0, 0, 13, 9], "texture": "#0"},
				"west": {"uv": [0, 0, 11, 9], "texture": "#0"},
				"up": {"uv": [0, 0, 11, 13], "rotation": 90, "texture": "#0"},
				"down": {"uv": [0, 0, 11, 13], "rotation": 270, "texture": "#0"}
			}
		},
		{
			"from": [4.3979, 20.0776, 4.39489],
			"to": [11.6051, 28.2848, 11.60209],
			"rotation": {"angle": 0, "axis": "y", "origin": [12.9155, 26.3192, 12.91249]},
			"faces": {
				"north": {"uv": [0, 0, 11, 11], "texture": "#0"},
				"east": {"uv": [0, 0, 11, 11], "texture": "#0"},
				"south": {"uv": [0, 0, 11, 11], "texture": "#0"},
				"west": {"uv": [0, 0, 11, 11], "texture": "#0"},
				"up": {"uv": [0, 0, 11, 11], "texture": "#0"},
				"down": {"uv": [0, 0, 11, 11], "texture": "#0"}
			}
		},
		{
			"from": [4.3979, 20.7328, 3.73969],
			"to": [11.6051, 27.6296, 12.25729],
			"rotation": {"angle": 0, "axis": "y", "origin": [12.9155, 26.9744, 12.91249]},
			"faces": {
				"north": {"uv": [0, 0, 11, 9], "texture": "#0"},
				"east": {"uv": [0, 0, 13, 9], "texture": "#0"},
				"south": {"uv": [0, 0, 11, 9], "texture": "#0"},
				"west": {"uv": [0, 0, 13, 9], "texture": "#0"},
				"up": {"uv": [0, 0, 11, 13], "texture": "#0"},
				"down": {"uv": [0, 0, 11, 13], "texture": "#0"}
			}
		},
		{
			"from": [3.7427, 20.7328, 4.38917],
			"to": [12.2603, 27.6296, 11.59637],
			"rotation": {"angle": 0, "axis": "y", "origin": [8.00436, 24.68121, 7.99563]},
			"faces": {
				"north": {"uv": [0, 0, 13, 9], "texture": "#0"},
				"east": {"uv": [0, 0, 11, 9], "texture": "#0"},
				"south": {"uv": [0, 0, 13, 9], "texture": "#0"},
				"west": {"uv": [0, 0, 11, 9], "texture": "#0"},
				"up": {"uv": [0, 0, 11, 13], "rotation": 90, "texture": "#0"},
				"down": {"uv": [0, 0, 11, 13], "rotation": 270, "texture": "#0"}
			}
		},
		{
			"from": [-6.5, 19.1, 7.6],
			"to": [3.5, 19.9, 8.4],
			"rotation": {"angle": -22.5, "axis": "z", "origin": [-2.29178, 19.4781, 8.00917]},
			"faces": {
				"north": {"uv": [2, 0, 5, 15.8], "rotation": 90, "texture": "#1"},
				"east": {"uv": [2, 0, 5, 15.8], "rotation": 90, "texture": "#1"},
				"south": {"uv": [2, 0, 5, 15.8], "rotation": 90, "texture": "#1"},
				"west": {"uv": [2, 0, 5, 15.8], "rotation": 90, "texture": "#1"},
				"up": {"uv": [2, 0, 5, 15.8], "rotation": 90, "texture": "#1"},
				"down": {"uv": [2, 0, 5, 15.8], "rotation": 90, "texture": "#1"}
			}
		},
		{
			"from": [-5.7871, 19.37301, 7.625],
			"to": [-1.7871, 20.12301, 8.375],
			"rotation": {"angle": -45, "axis": "z", "origin": [-2.29178, 19.4781, 8.00917]},
			"faces": {
				"north": {"uv": [2, 2, 5, 13], "rotation": 90, "texture": "#1"},
				"east": {"uv": [2, 2, 5, 13], "rotation": 90, "texture": "#1"},
				"south": {"uv": [2, 2, 5, 13], "rotation": 90, "texture": "#1"},
				"west": {"uv": [2, 2, 5, 13], "rotation": 90, "texture": "#1"},
				"up": {"uv": [2, 2, 5, 13], "rotation": 90, "texture": "#1"},
				"down": {"uv": [2, 2, 5, 13], "rotation": 90, "texture": "#1"}
			}
		},
		{
			"from": [-4.15474, 18.16337, 7.625],
			"to": [-0.15474, 18.91337, 8.375],
			"rotation": {"angle": 0, "axis": "z", "origin": [-2.29178, 19.4781, 8.00917]},
			"faces": {
				"north": {"uv": [2, 2, 5, 13], "rotation": 90, "texture": "#1"},
				"east": {"uv": [2, 2, 5, 13], "rotation": 90, "texture": "#1"},
				"south": {"uv": [2, 2, 5, 13], "rotation": 90, "texture": "#1"},
				"west": {"uv": [2, 2, 5, 13], "rotation": 90, "texture": "#1"},
				"up": {"uv": [2, 2, 5, 13], "rotation": 90, "texture": "#1"},
				"down": {"uv": [2, 2, 5, 13], "rotation": 90, "texture": "#1"}
			}
		},
		{
			"from": [13.17952, 16.56921, 7.6],
			"to": [23.17952, 17.36921, 8.4],
			"rotation": {"angle": 22.5, "axis": "z", "origin": [12.26996, 16.50462, 8.00041]},
			"faces": {
				"north": {"uv": [2, 15.8, 5, 0], "rotation": 90, "texture": "#1"},
				"east": {"uv": [2, 15.8, 5, 0], "rotation": 90, "texture": "#1"},
				"south": {"uv": [2, 15.8, 5, 0], "rotation": 90, "texture": "#1"},
				"west": {"uv": [2, 15.8, 5, 0], "rotation": 90, "texture": "#1"},
				"up": {"uv": [2, 15.8, 5, 0], "rotation": 90, "texture": "#1"},
				"down": {"uv": [2, 15.8, 5, 0], "rotation": 90, "texture": "#1"}
			}
		},
		{
			"from": [18.12591, 14.24404, 7.625],
			"to": [22.12591, 14.99404, 8.375],
			"rotation": {"angle": 45, "axis": "z", "origin": [12.26996, 16.50462, 8.00041]},
			"faces": {
				"north": {"uv": [2, 13, 5, 2], "rotation": 90, "texture": "#1"},
				"east": {"uv": [2, 13, 5, 2], "rotation": 90, "texture": "#1"},
				"south": {"uv": [2, 13, 5, 2], "rotation": 90, "texture": "#1"},
				"west": {"uv": [2, 13, 5, 2], "rotation": 90, "texture": "#1"},
				"up": {"uv": [2, 13, 5, 2], "rotation": 90, "texture": "#1"},
				"down": {"uv": [2, 13, 5, 2], "rotation": 90, "texture": "#1"}
			}
		},
		{
			"from": [16.15474, 18.16337, 7.625],
			"to": [20.15474, 18.91337, 8.375],
			"rotation": {"angle": 0, "axis": "z", "origin": [12.26996, 16.50462, 8.00041]},
			"faces": {
				"north": {"uv": [2, 13, 5, 2], "rotation": 90, "texture": "#1"},
				"east": {"uv": [2, 13, 5, 2], "rotation": 90, "texture": "#1"},
				"south": {"uv": [2, 13, 5, 2], "rotation": 90, "texture": "#1"},
				"west": {"uv": [2, 13, 5, 2], "rotation": 90, "texture": "#1"},
				"up": {"uv": [2, 13, 5, 2], "rotation": 90, "texture": "#1"},
				"down": {"uv": [2, 13, 5, 2], "rotation": 90, "texture": "#1"}
			}
		},
		{
			"from": [7.31486, 17.53295, 2.4],
			"to": [8.81486, 18.93295, 3.4],
			"rotation": {"angle": 0, "axis": "z", "origin": [8.07391, 18.35905, 2.91706]},
			"faces": {
				"north": {"uv": [0, 2, 2, 4], "rotation": 270, "texture": "#2"},
				"east": {"uv": [0, 2, 2, 4], "rotation": 90, "texture": "#2"},
				"south": {"uv": [0, 2, 2, 4], "rotation": 90, "texture": "#2"},
				"west": {"uv": [0, 2, 2, 4], "rotation": 90, "texture": "#2"},
				"up": {"uv": [0, 2, 2, 4], "rotation": 90, "texture": "#2"},
				"down": {"uv": [0, 2, 2, 4], "rotation": 90, "texture": "#2"}
			}
		},
		{
			"from": [7.41486, 21.43295, 3.2],
			"to": [8.41486, 22.33295, 4.2],
			"rotation": {"angle": 0, "axis": "z", "origin": [7.67391, 22.25905, 3.71706]},
			"faces": {
				"north": {"uv": [0, 2, 2, 4], "rotation": 270, "texture": "#2"},
				"east": {"uv": [0, 2, 2, 4], "rotation": 90, "texture": "#2"},
				"south": {"uv": [0, 2, 2, 4], "rotation": 90, "texture": "#2"},
				"west": {"uv": [0, 2, 2, 4], "rotation": 90, "texture": "#2"},
				"up": {"uv": [0, 2, 2, 4], "rotation": 90, "texture": "#2"},
				"down": {"uv": [0, 2, 2, 4], "rotation": 90, "texture": "#2"}
			}
		},
		{
			"from": [6.01486, 21.73295, 3.2],
			"to": [7.01486, 22.63295, 4.2],
			"rotation": {"angle": -22.5, "axis": "z", "origin": [6.48261, 22.18817, 3.72705]},
			"faces": {
				"north": {"uv": [0, 2, 2, 4], "rotation": 270, "texture": "#2"},
				"east": {"uv": [0, 2, 2, 4], "rotation": 90, "texture": "#2"},
				"south": {"uv": [0, 2, 2, 4], "rotation": 90, "texture": "#2"},
				"west": {"uv": [0, 2, 2, 4], "rotation": 90, "texture": "#2"},
				"up": {"uv": [0, 2, 2, 4], "rotation": 90, "texture": "#2"},
				"down": {"uv": [0, 2, 2, 4], "rotation": 90, "texture": "#2"}
			}
		},
		{
			"from": [8.88514, 21.73295, 3.2],
			"to": [9.88514, 22.63295, 4.2],
			"rotation": {"angle": 22.5, "axis": "z", "origin": [9.41739, 22.18817, 3.72705]},
			"faces": {
				"north": {"uv": [0, 4, 2, 2], "rotation": 270, "texture": "#2"},
				"east": {"uv": [0, 4, 2, 2], "rotation": 90, "texture": "#2"},
				"south": {"uv": [0, 4, 2, 2], "rotation": 90, "texture": "#2"},
				"west": {"uv": [0, 4, 2, 2], "rotation": 90, "texture": "#2"},
				"up": {"uv": [0, 4, 2, 2], "rotation": 90, "texture": "#2"},
				"down": {"uv": [0, 4, 2, 2], "rotation": 90, "texture": "#2"}
			}
		},
		{
			"from": [6.11486, 25.53295, 3.2],
			"to": [7.11486, 26.43295, 4.2],
			"rotation": {"angle": -45, "axis": "z", "origin": [6.37391, 26.35905, 3.71706]},
			"faces": {
				"north": {"uv": [0, 2, 2, 4], "rotation": 270, "texture": "#2"},
				"east": {"uv": [0, 2, 2, 4], "rotation": 90, "texture": "#2"},
				"south": {"uv": [0, 2, 2, 4], "rotation": 90, "texture": "#2"},
				"west": {"uv": [0, 2, 2, 4], "rotation": 90, "texture": "#2"},
				"up": {"uv": [0, 2, 2, 4], "rotation": 90, "texture": "#2"},
				"down": {"uv": [0, 2, 2, 4], "rotation": 90, "texture": "#2"}
			}
		},
		{
			"from": [8.88514, 25.53295, 3.2],
			"to": [9.88514, 26.43295, 4.2],
			"rotation": {"angle": 45, "axis": "z", "origin": [9.62609, 26.35905, 3.71706]},
			"faces": {
				"north": {"uv": [0, 4, 2, 2], "rotation": 270, "texture": "#2"},
				"east": {"uv": [0, 4, 2, 2], "rotation": 90, "texture": "#2"},
				"south": {"uv": [0, 4, 2, 2], "rotation": 90, "texture": "#2"},
				"west": {"uv": [0, 4, 2, 2], "rotation": 90, "texture": "#2"},
				"up": {"uv": [0, 4, 2, 2], "rotation": 90, "texture": "#2"},
				"down": {"uv": [0, 4, 2, 2], "rotation": 90, "texture": "#2"}
			}
		},
		{
			"from": [7.6, 15, 2.4],
			"to": [9, 16.5, 3.4],
			"rotation": {"angle": -22.5, "axis": "z", "origin": [8.27783, 15.85993, 2.91226]},
			"faces": {
				"north": {"uv": [0, 2, 2, 4], "texture": "#2"},
				"east": {"uv": [0, 2, 2, 4], "texture": "#2"},
				"south": {"uv": [0, 2, 2, 4], "texture": "#2"},
				"west": {"uv": [0, 2, 2, 4], "texture": "#2"},
				"up": {"uv": [0, 2, 2, 4], "texture": "#2"},
				"down": {"uv": [0, 2, 2, 4], "texture": "#2"}
			}
		},
		{
			"from": [7.4, 12.5, 2.4],
			"to": [8.8, 14, 3.4],
			"rotation": {"angle": 0, "axis": "y", "origin": [15, 20.4, 10.4]},
			"faces": {
				"north": {"uv": [0, 2, 2, 4], "texture": "#2"},
				"east": {"uv": [0, 2, 2, 4], "texture": "#2"},
				"south": {"uv": [0, 2, 2, 4], "texture": "#2"},
				"west": {"uv": [0, 2, 2, 4], "texture": "#2"},
				"up": {"uv": [0, 2, 2, 4], "texture": "#2"},
				"down": {"uv": [0, 2, 2, 4], "texture": "#2"}
			}
		},
		{
			"from": [7.35694, 23.36816, -0.26845],
			"to": [8.83813, 24.84936, 1.21274],
			"rotation": {"angle": 0, "axis": "x", "origin": [7.85067, 24.10876, 6.39693]},
			"faces": {
				"north": {"uv": [3, 0, 6, 3], "texture": "#1_1"},
				"east": {"uv": [0, 3, 3, 6], "texture": "#1_1"},
				"west": {"uv": [3, 3, 0, 6], "texture": "#1_1"},
				"up": {"uv": [0, 3, 3, 6], "rotation": 90, "texture": "#1_1"},
				"down": {"uv": [0, 0, 3, 3], "rotation": 270, "texture": "#1_1"}
			}
		},
		{
			"from": [7.11007, 23.1213, 1.21274],
			"to": [9.085, 25.09622, 4.17514],
			"rotation": {"angle": 0, "axis": "x", "origin": [7.85067, 24.10876, 6.39693]},
			"faces": {
				"north": {"uv": [6, 12, 10, 16], "rotation": 180, "texture": "#1_1"},
				"east": {"uv": [0, 12, 6, 16], "rotation": 180, "texture": "#1_1"},
				"south": {"uv": [6, 12, 10, 16], "rotation": 180, "texture": "#1_1"},
				"west": {"uv": [6, 12, 0, 16], "texture": "#1_1"},
				"up": {"uv": [0, 12, 6, 16], "rotation": 90, "texture": "#1_1"},
				"down": {"uv": [0, 8, 6, 12], "rotation": 270, "texture": "#1_1"}
			}
		},
		{
			"name": "Neck",
			"from": [12.86, 23.88, -8.53],
			"to": [16.1, 24.69, -7.45],
			"rotation": {"angle": 22.5, "axis": "x", "origin": [8, -6.63, 8.21]},
			"faces": {
				"north": {"uv": [0, 0, 3, 0], "texture": "#4"},
				"east": {"uv": [0, 0, 1, 0], "texture": "#4"},
				"south": {"uv": [0, 0, 3, 0], "texture": "#4"},
				"west": {"uv": [0, 0, 1, 0], "texture": "#4"},
				"up": {"uv": [0, 0, 3, 1], "texture": "#4"},
				"down": {"uv": [0, 0, 3, 1], "texture": "#4"}
			}
		},
		{
			"name": "Neck",
			"from": [12.86, 23.88, -10.69],
			"to": [15.02, 24.69, -8.53],
			"rotation": {"angle": 22.5, "axis": "x", "origin": [8, -6.63, 8.21]},
			"faces": {
				"north": {"uv": [0, 0, 2, 0], "texture": "#4"},
				"east": {"uv": [0, 0, 2, 0], "texture": "#4"},
				"south": {"uv": [0, 0, 2, 0], "texture": "#4"},
				"west": {"uv": [0, 0, 2, 0], "texture": "#4"},
				"up": {"uv": [0, 0, 2, 2], "texture": "#4"},
				"down": {"uv": [0, 0, 2, 2], "texture": "#4"}
			}
		},
		{
			"name": "Neck",
			"from": [11.78, 23.88, -11.77],
			"to": [12.86, 24.69, -7.45],
			"rotation": {"angle": 22.5, "axis": "x", "origin": [8, -6.63, 8.21]},
			"faces": {
				"north": {"uv": [0, 0, 1, 0], "texture": "#4"},
				"east": {"uv": [0, 0, 4, 0], "texture": "#4"},
				"south": {"uv": [0, 0, 1, 0], "texture": "#4"},
				"west": {"uv": [0, 0, 4, 0], "texture": "#4"},
				"up": {"uv": [0, 0, 1, 4], "texture": "#4"},
				"down": {"uv": [0, 0, 1, 4], "texture": "#4"}
			}
		},
		{
			"name": "Neck",
			"from": [4.22, 23.88, -12.85],
			"to": [11.78, 24.69, -7.45],
			"rotation": {"angle": 22.5, "axis": "x", "origin": [8, -6.63, 8.21]},
			"faces": {
				"north": {"uv": [0, 0, 9, 0], "texture": "#4"},
				"east": {"uv": [0, 0, 6, 0], "texture": "#4"},
				"south": {"uv": [0, 0, 9, 0], "texture": "#4"},
				"west": {"uv": [0, 0, 6, 0], "texture": "#4"},
				"up": {"uv": [0, 0, 6, 5], "texture": "#4"},
				"down": {"uv": [0, 0, 6, 5], "texture": "#4"}
			}
		},
		{
			"name": "Neck",
			"from": [3.14, 23.88, -11.77],
			"to": [4.22, 24.69, -7.45],
			"rotation": {"angle": 22.5, "axis": "x", "origin": [8, -6.63, 8.21]},
			"faces": {
				"north": {"uv": [0, 0, 1, 0], "texture": "#4"},
				"east": {"uv": [0, 0, 4, 0], "texture": "#4"},
				"south": {"uv": [0, 0, 1, 0], "texture": "#4"},
				"west": {"uv": [0, 0, 4, 0], "texture": "#4"},
				"up": {"uv": [0, 0, 1, 4], "texture": "#4"},
				"down": {"uv": [0, 0, 1, 4], "texture": "#4"}
			}
		},
		{
			"name": "Neck",
			"from": [0.98, 23.88, -10.69],
			"to": [3.14, 24.69, -8.53],
			"rotation": {"angle": 22.5, "axis": "x", "origin": [8, -6.63, 8.21]},
			"faces": {
				"north": {"uv": [0, 0, 2, 0], "texture": "#4"},
				"east": {"uv": [0, 0, 2, 0], "texture": "#4"},
				"south": {"uv": [0, 0, 2, 0], "texture": "#4"},
				"west": {"uv": [0, 0, 2, 0], "texture": "#4"},
				"up": {"uv": [0, 0, 2, 2], "texture": "#4"},
				"down": {"uv": [0, 0, 2, 2], "texture": "#4"}
			}
		},
		{
			"name": "Neck",
			"from": [-0.1, 23.88, -8.53],
			"to": [3.14, 24.69, -7.45],
			"rotation": {"angle": 22.5, "axis": "x", "origin": [8, -6.63, 8.21]},
			"faces": {
				"north": {"uv": [0, 0, 3, 0], "texture": "#4"},
				"east": {"uv": [0, 0, 1, 0], "texture": "#4"},
				"south": {"uv": [0, 0, 3, 0], "texture": "#4"},
				"west": {"uv": [0, 0, 1, 0], "texture": "#4"},
				"up": {"uv": [0, 0, 3, 1], "texture": "#4"},
				"down": {"uv": [0, 0, 3, 1], "texture": "#4"}
			}
		},
		{
			"name": "Neck",
			"from": [-1.18, 23.88, -7.45],
			"to": [4.22, 24.69, -2.05],
			"rotation": {"angle": 22.5, "axis": "x", "origin": [8, -6.63, 8.21]},
			"faces": {
				"north": {"uv": [0, 0, 6, 0], "texture": "#4"},
				"east": {"uv": [0, 0, 7, 0], "texture": "#4"},
				"south": {"uv": [0, 0, 6, 0], "texture": "#4"},
				"west": {"uv": [0, 0, 7, 0], "texture": "#4"},
				"up": {"uv": [0, 0, 5, 5], "texture": "#4"},
				"down": {"uv": [0, 0, 5, 5], "texture": "#4"}
			}
		},
		{
			"name": "Neck",
			"from": [-0.1, 23.88, -2.05],
			"to": [3.14, 24.69, -0.97],
			"rotation": {"angle": 22.5, "axis": "x", "origin": [8, -6.63, 8.21]},
			"faces": {
				"north": {"uv": [0, 0, 3, 0], "texture": "#4"},
				"east": {"uv": [0, 0, 1, 0], "texture": "#4"},
				"south": {"uv": [0, 0, 3, 0], "texture": "#4"},
				"west": {"uv": [0, 0, 1, 0], "texture": "#4"},
				"up": {"uv": [0, 0, 3, 1], "texture": "#4"},
				"down": {"uv": [0, 0, 3, 1], "texture": "#4"}
			}
		},
		{
			"name": "Neck",
			"from": [0.98, 23.88, -0.97],
			"to": [3.14, 24.69, 1.19],
			"rotation": {"angle": 22.5, "axis": "x", "origin": [8, -6.63, 8.21]},
			"faces": {
				"north": {"uv": [0, 0, 2, 0], "texture": "#4"},
				"east": {"uv": [0, 0, 2, 0], "texture": "#4"},
				"south": {"uv": [0, 0, 2, 0], "texture": "#4"},
				"west": {"uv": [0, 0, 2, 0], "texture": "#4"},
				"up": {"uv": [0, 0, 2, 2], "texture": "#4"},
				"down": {"uv": [0, 0, 2, 2], "texture": "#4"}
			}
		},
		{
			"name": "Neck",
			"from": [3.14, 23.88, -2.05],
			"to": [4.22, 24.69, 2.27],
			"rotation": {"angle": 22.5, "axis": "x", "origin": [8, -6.63, 8.21]},
			"faces": {
				"north": {"uv": [0, 0, 1, 0], "texture": "#4"},
				"east": {"uv": [0, 0, 4, 0], "texture": "#4"},
				"south": {"uv": [0, 0, 1, 0], "texture": "#4"},
				"west": {"uv": [0, 0, 4, 0], "texture": "#4"},
				"up": {"uv": [0, 0, 1, 4], "texture": "#4"},
				"down": {"uv": [0, 0, 1, 4], "texture": "#4"}
			}
		},
		{
			"name": "Neck",
			"from": [4.22, 23.88, -2.05],
			"to": [11.78, 24.69, 3.35],
			"rotation": {"angle": 22.5, "axis": "x", "origin": [8, -6.63, 8.21]},
			"faces": {
				"north": {"uv": [0, 0, 9, 0], "texture": "#4"},
				"east": {"uv": [0, 0, 6, 0], "texture": "#4"},
				"south": {"uv": [0, 0, 9, 0], "texture": "#4"},
				"west": {"uv": [0, 0, 6, 0], "texture": "#4"},
				"up": {"uv": [0, 0, 6, 5], "texture": "#4"},
				"down": {"uv": [0, 0, 6, 5], "texture": "#4"}
			}
		},
		{
			"name": "Neck",
			"from": [11.78, 23.88, -2.05],
			"to": [12.86, 24.69, 2.27],
			"rotation": {"angle": 22.5, "axis": "x", "origin": [8, -6.63, 8.21]},
			"faces": {
				"north": {"uv": [0, 0, 1, 0], "texture": "#4"},
				"east": {"uv": [0, 0, 4, 0], "texture": "#4"},
				"south": {"uv": [0, 0, 1, 0], "texture": "#4"},
				"west": {"uv": [0, 0, 4, 0], "texture": "#4"},
				"up": {"uv": [0, 0, 1, 4], "texture": "#4"},
				"down": {"uv": [0, 0, 1, 4], "texture": "#4"}
			}
		},
		{
			"name": "Neck",
			"from": [12.86, 23.88, -0.97],
			"to": [15.02, 24.69, 1.19],
			"rotation": {"angle": 22.5, "axis": "x", "origin": [8, -6.63, 8.21]},
			"faces": {
				"north": {"uv": [0, 0, 2, 0], "texture": "#4"},
				"east": {"uv": [0, 0, 2, 0], "texture": "#4"},
				"south": {"uv": [0, 0, 2, 0], "texture": "#4"},
				"west": {"uv": [0, 0, 2, 0], "texture": "#4"},
				"up": {"uv": [0, 0, 2, 2], "texture": "#4"},
				"down": {"uv": [0, 0, 2, 2], "texture": "#4"}
			}
		},
		{
			"name": "Neck",
			"from": [12.86, 23.88, -2.05],
			"to": [16.1, 24.69, -0.97],
			"rotation": {"angle": 22.5, "axis": "x", "origin": [8, -6.63, 8.21]},
			"faces": {
				"north": {"uv": [0, 0, 3, 0], "texture": "#4"},
				"east": {"uv": [0, 0, 1, 0], "texture": "#4"},
				"south": {"uv": [0, 0, 3, 0], "texture": "#4"},
				"west": {"uv": [0, 0, 1, 0], "texture": "#4"},
				"up": {"uv": [0, 0, 3, 1], "texture": "#4"},
				"down": {"uv": [0, 0, 3, 1], "texture": "#4"}
			}
		},
		{
			"name": "Neck",
			"from": [11.78, 23.88, -7.45],
			"to": [17.18, 24.69, -2.05],
			"rotation": {"angle": 22.5, "axis": "x", "origin": [8, -6.63, 8.21]},
			"faces": {
				"north": {"uv": [0, 0, 6, 0], "texture": "#4"},
				"east": {"uv": [0, 0, 7, 0], "texture": "#4"},
				"south": {"uv": [0, 0, 6, 0], "texture": "#4"},
				"west": {"uv": [0, 0, 7, 0], "texture": "#4"},
				"up": {"uv": [0, 0, 5, 5], "texture": "#4"},
				"down": {"uv": [0, 0, 5, 5], "texture": "#4"}
			}
		},
		{
			"name": "Neck",
			"from": [11.78, 24.698, -8.53],
			"to": [12.428, 26.642, -0.97],
			"rotation": {"angle": 22.5, "axis": "x", "origin": [8, -6.63, 8.21]},
			"faces": {
				"north": {"uv": [0, 0, 0.6, 1.8], "texture": "#5"},
				"east": {"uv": [0, 0, 7, 1.8], "texture": "#5"},
				"south": {"uv": [0, 0, 0.6, 1.8], "texture": "#5"},
				"west": {"uv": [0, 0, 7, 1.8], "texture": "#5"},
				"up": {"uv": [0, 0, 0.6, 7], "texture": "#5"},
				"down": {"uv": [0, 0, 0.6, 7], "texture": "#5"}
			}
		},
		{
			"name": "Neck",
			"from": [4.22, 24.698, -0.97],
			"to": [11.78, 26.642, -0.322],
			"rotation": {"angle": 22.5, "axis": "x", "origin": [8, -6.63, 8.21]},
			"faces": {
				"north": {"uv": [0, 0, 7, 1.8], "texture": "#5"},
				"east": {"uv": [0, 0, 0.6, 1.8], "texture": "#5"},
				"south": {"uv": [0, 0, 7, 1.8], "texture": "#5"},
				"west": {"uv": [0, 0, 0.6, 1.8], "texture": "#5"},
				"up": {"uv": [0, 0, 7, 0.6], "texture": "#5"},
				"down": {"uv": [0, 0, 7, 0.6], "texture": "#5"}
			}
		},
		{
			"name": "Neck",
			"from": [4.004, 26.642, -8.53],
			"to": [11.888, 32, -0.862],
			"rotation": {"angle": 22.5, "axis": "x", "origin": [8, -6.63, 8.21]},
			"faces": {
				"north": {"uv": [0, 0, 7.3, 2], "texture": "#4"},
				"east": {"uv": [0, 0, 7.1, 2], "texture": "#4"},
				"south": {"uv": [0, 0, 7.3, 2], "texture": "#4"},
				"west": {"uv": [0, 0, 7.1, 2], "texture": "#4"},
				"up": {"uv": [0, 0, 7.3, 7.1], "texture": "#4"},
				"down": {"uv": [0, 0, 7.3, 7.1], "texture": "#4"}
			}
		},
		{
			"name": "Neck",
			"from": [3.464, 24.698, -8.53],
			"to": [4.22, 26.642, -0.97],
			"rotation": {"angle": 22.5, "axis": "x", "origin": [8, -6.63, 8.21]},
			"faces": {
				"north": {"uv": [0, 0, 0.7, 1.8], "texture": "#5"},
				"east": {"uv": [0, 0, 7, 1.8], "texture": "#5"},
				"south": {"uv": [0, 0, 0.7, 1.8], "texture": "#5"},
				"west": {"uv": [0, 0, 7, 1.8], "texture": "#5"},
				"up": {"uv": [0, 0, 0.7, 7], "texture": "#5"},
				"down": {"uv": [0, 0, 0.7, 7], "texture": "#5"}
			}
		},
		{
			"name": "Neck",
			"from": [4.22, 24.698, -9.07],
			"to": [11.78, 26.642, -8.53],
			"rotation": {"angle": 22.5, "axis": "x", "origin": [8, -6.63, 8.21]},
			"faces": {
				"north": {"uv": [0, 0, 7, 1.8], "texture": "#5"},
				"east": {"uv": [0, 0, 0.5, 1.8], "texture": "#5"},
				"south": {"uv": [0, 0, 7, 1.8], "texture": "#5"},
				"west": {"uv": [0, 0, 0.5, 1.8], "texture": "#5"},
				"up": {"uv": [0, 0, 7, 0.5], "texture": "#5"},
				"down": {"uv": [0, 0, 7, 0.5], "texture": "#5"}
			}
		},
		{
			"from": [5.2509, 24.50042, 2.75044],
			"to": [7.0009, 25.00042, 3.75044],
			"rotation": {"angle": 0, "axis": "y", "origin": [13.0009, 32.50042, 10.75044]},
			"faces": {
				"north": {"uv": [5, 0, 7, 0.5], "texture": "#6"},
				"east": {"uv": [5, 0, 7, 0.5], "texture": "#6"},
				"south": {"uv": [5, 0, 7, 0.5], "texture": "#6"},
				"west": {"uv": [5, 0, 7, 0.5], "texture": "#6"},
				"up": {"uv": [5, 0, 7, 0.5], "texture": "#6"},
				"down": {"uv": [5, 0, 7, 0.5], "texture": "#6"}
			}
		},
		{
			"from": [5.25006, 26.75435, 2.75],
			"to": [7.00006, 27.25435, 3.75],
			"rotation": {"angle": 0, "axis": "z", "origin": [5.37503, 26.37718, 3.24867]},
			"faces": {
				"north": {"uv": [5, 0, 7, 0.5], "rotation": 180, "texture": "#6"},
				"east": {"uv": [5, 0, 7, 0.5], "rotation": 180, "texture": "#6"},
				"south": {"uv": [5, 0, 7, 0.5], "rotation": 180, "texture": "#6"},
				"west": {"uv": [5, 0, 7, 0.5], "rotation": 180, "texture": "#6"},
				"up": {"uv": [5, 0, 7, 0.5], "rotation": 180, "texture": "#6"},
				"down": {"uv": [5, 0, 7, 0.5], "rotation": 180, "texture": "#6"}
			}
		},
		{
			"from": [7.00133, 25.00042, 2.75],
			"to": [7.50133, 26.75042, 3.75],
			"rotation": {"angle": 0, "axis": "z", "origin": [6.00046, 24.50087, 3.24867]},
			"faces": {
				"north": {"uv": [5, 0, 7, 0.5], "rotation": 90, "texture": "#6"},
				"east": {"uv": [5, 0, 7, 0.5], "rotation": 90, "texture": "#6"},
				"south": {"uv": [5, 0, 7, 0.5], "rotation": 90, "texture": "#6"},
				"west": {"uv": [5, 0, 7, 0.5], "rotation": 90, "texture": "#6"},
				"up": {"uv": [5, 0, 7, 0.5], "rotation": 90, "texture": "#6"},
				"down": {"uv": [5, 0, 7, 0.5], "rotation": 90, "texture": "#6"}
			}
		},
		{
			"from": [4.7509, 25.00086, 2.74999],
			"to": [5.2509, 26.75086, 3.74999],
			"rotation": {"angle": 0, "axis": "z", "origin": [5.6272, 26.3741, 3.24866]},
			"faces": {
				"north": {"uv": [5, 0, 7, 0.5], "rotation": 270, "texture": "#6"},
				"east": {"uv": [5, 0, 7, 0.5], "rotation": 270, "texture": "#6"},
				"south": {"uv": [5, 0, 7, 0.5], "rotation": 270, "texture": "#6"},
				"west": {"uv": [5, 0, 7, 0.5], "rotation": 270, "texture": "#6"},
				"up": {"uv": [5, 0, 7, 0.5], "rotation": 270, "texture": "#6"},
				"down": {"uv": [5, 0, 7, 0.5], "rotation": 270, "texture": "#6"}
			}
		},
		{
			"from": [4.5009, 24.00086, 3.24999],
			"to": [5.0009, 24.50086, 3.74999],
			"rotation": {"angle": 0, "axis": "z", "origin": [5.6272, 26.3741, 3.24866]},
			"faces": {
				"north": {"uv": [5, 0, 7, 0.5], "rotation": 270, "texture": "#6"},
				"east": {"uv": [5, 0, 7, 0.5], "rotation": 270, "texture": "#6"},
				"south": {"uv": [5, 0, 7, 0.5], "rotation": 270, "texture": "#6"},
				"west": {"uv": [5, 0, 7, 0.5], "rotation": 270, "texture": "#6"},
				"up": {"uv": [5, 0, 7, 0.5], "rotation": 270, "texture": "#6"},
				"down": {"uv": [5, 0, 7, 0.5], "rotation": 270, "texture": "#6"}
			}
		},
		{
			"from": [4.5009, 22.75086, 3.24999],
			"to": [5.0009, 23.25086, 3.74999],
			"rotation": {"angle": 0, "axis": "z", "origin": [5.6272, 26.3741, 3.24866]},
			"faces": {
				"north": {"uv": [5, 0, 7, 0.5], "rotation": 270, "texture": "#6"},
				"east": {"uv": [5, 0, 7, 0.5], "rotation": 270, "texture": "#6"},
				"south": {"uv": [5, 0, 7, 0.5], "rotation": 270, "texture": "#6"},
				"west": {"uv": [5, 0, 7, 0.5], "rotation": 270, "texture": "#6"},
				"up": {"uv": [5, 0, 7, 0.5], "rotation": 270, "texture": "#6"},
				"down": {"uv": [5, 0, 7, 0.5], "rotation": 270, "texture": "#6"}
			}
		},
		{
			"from": [4.5009, 21.50086, 3.24999],
			"to": [5.0009, 22.00086, 3.74999],
			"rotation": {"angle": 0, "axis": "z", "origin": [5.6272, 26.3741, 3.24866]},
			"faces": {
				"north": {"uv": [5, 0, 7, 0.5], "rotation": 270, "texture": "#6"},
				"east": {"uv": [5, 0, 7, 0.5], "rotation": 270, "texture": "#6"},
				"south": {"uv": [5, 0, 7, 0.5], "rotation": 270, "texture": "#6"},
				"west": {"uv": [5, 0, 7, 0.5], "rotation": 270, "texture": "#6"},
				"up": {"uv": [5, 0, 7, 0.5], "rotation": 270, "texture": "#6"},
				"down": {"uv": [5, 0, 7, 0.5], "rotation": 270, "texture": "#6"}
			}
		},
		{
			"from": [4.5009, 19.00086, 2.49999],
			"to": [5.0009, 19.50086, 2.99999],
			"rotation": {"angle": 0, "axis": "z", "origin": [5.6272, 26.3741, 3.24866]},
			"faces": {
				"north": {"uv": [5, 0, 7, 0.5], "rotation": 270, "texture": "#6"},
				"east": {"uv": [5, 0, 7, 0.5], "rotation": 270, "texture": "#6"},
				"south": {"uv": [5, 0, 7, 0.5], "rotation": 270, "texture": "#6"},
				"west": {"uv": [5, 0, 7, 0.5], "rotation": 270, "texture": "#6"},
				"up": {"uv": [5, 0, 7, 0.5], "rotation": 270, "texture": "#6"},
				"down": {"uv": [5, 0, 7, 0.5], "rotation": 270, "texture": "#6"}
			}
		},
		{
			"from": [6.1509, 19.00086, 2.49999],
			"to": [6.6509, 19.50086, 2.99999],
			"rotation": {"angle": 0, "axis": "z", "origin": [5.5272, 26.3741, 3.24866]},
			"faces": {
				"north": {"uv": [5, 0, 7, 0.5], "rotation": 270, "texture": "#6"},
				"east": {"uv": [5, 0, 7, 0.5], "rotation": 270, "texture": "#6"},
				"south": {"uv": [5, 0, 7, 0.5], "rotation": 270, "texture": "#6"},
				"west": {"uv": [5, 0, 7, 0.5], "rotation": 270, "texture": "#6"},
				"up": {"uv": [5, 0, 7, 0.5], "rotation": 270, "texture": "#6"},
				"down": {"uv": [5, 0, 7, 0.5], "rotation": 270, "texture": "#6"}
			}
		},
		{
			"from": [5.3009, 18.25086, 2.49999],
			"to": [5.8009, 18.75086, 2.99999],
			"rotation": {"angle": 45, "axis": "z", "origin": [5.52386, 18.50562, 2.77228]},
			"faces": {
				"north": {"uv": [5, 0, 7, 0.5], "rotation": 270, "texture": "#6"},
				"east": {"uv": [5, 0, 7, 0.5], "rotation": 270, "texture": "#6"},
				"south": {"uv": [5, 0, 7, 0.5], "rotation": 270, "texture": "#6"},
				"west": {"uv": [5, 0, 7, 0.5], "rotation": 270, "texture": "#6"},
				"up": {"uv": [5, 0, 7, 0.5], "rotation": 270, "texture": "#6"},
				"down": {"uv": [5, 0, 7, 0.5], "rotation": 270, "texture": "#6"}
			}
		},
		{
			"from": [4.5009, 20.25086, 3.24999],
			"to": [5.0009, 20.75086, 3.74999],
			"rotation": {"angle": 0, "axis": "z", "origin": [5.6272, 26.3741, 3.24866]},
			"faces": {
				"north": {"uv": [5, 0, 7, 0.5], "rotation": 270, "texture": "#6"},
				"east": {"uv": [5, 0, 7, 0.5], "rotation": 270, "texture": "#6"},
				"south": {"uv": [5, 0, 7, 0.5], "rotation": 270, "texture": "#6"},
				"west": {"uv": [5, 0, 7, 0.5], "rotation": 270, "texture": "#6"},
				"up": {"uv": [5, 0, 7, 0.5], "rotation": 270, "texture": "#6"},
				"down": {"uv": [5, 0, 7, 0.5], "rotation": 270, "texture": "#6"}
			}
		}
	],
	"display": {
		"thirdperson_righthand": {
			"rotation": [75, 45, 0],
			"translation": [0, 2.5, 0],
			"scale": [0.375, 0.375, 0.375]
		},
		"thirdperson_lefthand": {
			"rotation": [75, 45, 0],
			"translation": [0, 2.5, 0],
			"scale": [0.375, 0.375, 0.375]
		},
		"firstperson_righthand": {
			"rotation": [0, 128.25, 0],
			"scale": [0.4, 0.4, 0.4]
		},
		"firstperson_lefthand": {
			"rotation": [0, 128.25, 0],
			"scale": [0.4, 0.4, 0.4]
		},
		"ground": {
			"translation": [0, 0.25, 0],
			"scale": [0.5, 0.5, 0.5]
		},
		"gui": {
			"rotation": [30, -163, 0],
			"translation": [0, -3.25, 0],
			"scale": [0.48906, 0.48906, 0.48906]
		},
		"head": {
			"translation": [0, 13.75, 0],
			"scale": [0.8, 0.8, 0.8]
		},
		"fixed": {
			"rotation": [-90, 0, 0],
			"translation": [0, 0, -15],
			"scale": [2, 2, 2]
		}
	},
	"groups": [
		{
			"name": "group",
			"origin": [8.00436, 5.50001, 7.99563],
			"children": [0, 1, 2]
		},
		{
			"name": "group",
			"origin": [8.00436, 5.50001, 7.99563],
			"children": [3, 4, 5]
		},
		{
			"name": "group",
			"origin": [8.00436, 5.50001, 7.99563],
			"children": [6, 7, 8]
		},
		{
			"name": "Arm",
			"origin": [-4.29874, -0.34673, 0.48781],
			"children": [9, 10, 11]
		},
		{
			"name": "Arm",
			"origin": [-4.29874, -0.34673, 0.48781],
			"children": [12, 13, 14]
		}, 15, 16, 17, 18, 19, 20, 21, 22,
		{
			"name": "basket_carrot",
			"origin": [8, 8, 8],
			"children": [
				{
					"name": "carrot_9",
					"origin": [8, 8, 8],
					"children": [23, 24]
				}
			]
		},
		{
			"name": "strawhat",
			"origin": [8, 8, 8],
			"children": [
				{
					"name": "sunhat",
					"origin": [8, 8, 8],
					"children": [25, 26, 27, 28, 29, 30, 31, 32, 33, 34, 35, 36, 37, 38, 39, 40, 41, 42, 43, 44, 45]
				}
			]
		}, 46, 47, 48, 49, 50, 51, 52, 53, 54, 55, 56]
}