{
	"credit": "Made with Blockbench",
	"texture_size": [64, 64],
	"textures": {
		"0": "block/game_stuff/red_normal_piece",
		"particle": "block/game_stuff/red_normal_piece"
	},
	"elements": [
		{
			"from": [0, 1, 0],
			"to": [16, 3, 16],
			"faces": {
				"north": {"uv": [6, 6, 9, 6.75], "texture": "#0"},
				"east": {"uv": [6, 4, 9, 4.75], "texture": "#0"},
				"south": {"uv": [6, 4.75, 9, 5.5], "texture": "#0"},
				"west": {"uv": [6, 6.75, 9, 7.5], "texture": "#0"},
				"up": {"uv": [3, 3, 0, 0], "texture": "#0"},
				"down": {"uv": [3, 3, 0, 6], "texture": "#0"}
			}
		},
		{
			"from": [-2, 0, -2],
			"to": [0, 4, 18],
			"rotation": {"angle": 0, "axis": "y", "origin": [6, 8, 8]},
			"faces": {
				"north": {"uv": [5, 7, 5.5, 8], "texture": "#0"},
				"east": {"uv": [3, 3, 7, 4], "texture": "#0"},
				"south": {"uv": [5.5, 7, 6, 8], "texture": "#0"},
				"west": {"uv": [3, 0, 7, 1], "texture": "#0"},
				"up": {"uv": [0.5, 11, 0, 7], "texture": "#0"},
				"down": {"uv": [1, 7, 0.5, 11], "texture": "#0"}
			}
		},
		{
			"from": [16, 0, -2],
			"to": [18, 4, 18],
			"rotation": {"angle": 0, "axis": "y", "origin": [24, 8, 8]},
			"faces": {
				"north": {"uv": [7, 1, 7.5, 2], "texture": "#0"},
				"east": {"uv": [3, 1, 7, 2], "texture": "#0"},
				"south": {"uv": [7, 2, 7.5, 3], "texture": "#0"},
				"west": {"uv": [3, 2, 7, 3], "texture": "#0"},
				"up": {"uv": [1.5, 11, 1, 7], "texture": "#0"},
				"down": {"uv": [2, 7, 1.5, 11], "texture": "#0"}
			}
		},
		{
			"from": [0, 0, 16],
			"to": [16, 4, 18],
			"rotation": {"angle": 0, "axis": "y", "origin": [22, 8, 10]},
			"faces": {
				"north": {"uv": [3, 4, 6, 5], "texture": "#0"},
				"east": {"uv": [7, 3, 7.5, 4], "texture": "#0"},
				"south": {"uv": [3, 5, 6, 6], "texture": "#0"},
				"west": {"uv": [2, 7.5, 2.5, 8.5], "texture": "#0"},
				"up": {"uv": [9, 6, 6, 5.5], "texture": "#0"},
				"down": {"uv": [5, 7, 2, 7.5], "texture": "#0"}
			}
		},
		{
			"from": [0, 0, -2],
			"to": [16, 4, 0],
			"rotation": {"angle": 0, "axis": "y", "origin": [22, 8, -8]},
			"faces": {
				"north": {"uv": [0, 6, 3, 7], "texture": "#0"},
				"east": {"uv": [2.5, 7.5, 3, 8.5], "texture": "#0"},
				"south": {"uv": [3, 6, 6, 7], "texture": "#0"},
				"west": {"uv": [3, 7.5, 3.5, 8.5], "texture": "#0"},
				"up": {"uv": [10, 0.5, 7, 0], "texture": "#0"},
				"down": {"uv": [10, 0.5, 7, 1], "texture": "#0"}
			}
		}
	],
	"display": {
		"thirdperson_righthand": {
			"translation": [0, 0.5, -2],
			"scale": [0.25, 0.25, 0.25]
		},
		"thirdperson_lefthand": {
			"translation": [0, 0.5, -2],
			"scale": [0.25, 0.25, 0.25]
		},
		"firstperson_righthand": {
			"rotation": [0, 16, 0],
			"translation": [2.25, 2, 1],
			"scale": [0.25, 0.25, 0.25]
		},
		"firstperson_lefthand": {
			"rotation": [0, 16, 0],
			"translation": [2.25, 2, 1],
			"scale": [0.25, 0.25, 0.25]
		},
		"ground": {
			"scale": [0.25, 0.25, 0.25]
		},
		"gui": {
			"rotation": [17, 32, 0],
			"translation": [-0.5, 0.5, 0],
			"scale": [0.5, 0.5, 0.5]
		},
		"head": {
			"translation": [0, 11, 0],
			"scale": [0.5, 0.5, 0.5]
		},
		"fixed": {
			"rotation": [-90, 0, 0],
			"translation": [0, 0, -7]
		}
	},
	"groups": [
		{
			"name": "plain piece",
			"origin": [8, 8, 8],
			"children": [0, 1, 2, 3, 4]
		}
	]
}